{
  "plans/Ultra/ULTRA_FLEX_FIFTEEN/active": "1",
  "plans/Ultra/ULTRA_FLEX_FIFTEEN/aka": "UF15",
  "plans/Ultra/ULTRA_FLEX_FIFTEEN/brand_id": "1",
  "plans/Ultra/ULTRA_FLEX_FIFTEEN/bolt_on_types": "recurring,immediate",
  "plans/Ultra/ULTRA_FLEX_FIFTEEN/bolt_ons": "SHAREDILD_5.00_5,SHAREDILD_10.00_10,SHAREDILD_20.00_20,SHAREDILD_50.00_50,SHAREDDATA_250_0,SHAREDDATA_500_5,SHAREDDATA_1024_10,SHAREDDATA_2048_20,SHAREDDATA_5120_45,SHAREDDATA_10240_80,ROAM_500_5,ROAM_1000_10,ROAM_2000_20,GLOBE_10_10",
  "plans/Ultra/ULTRA_FLEX_FIFTEEN/cos_id": "1000000090",
  "plans/Ultra/ULTRA_FLEX_FIFTEEN/cost": "1500",
  "plans/Ultra/ULTRA_FLEX_FIFTEEN/data_recharge": "PayGo_500_500,PayGo_1024_1024,PayGo_2048_2048",
  "plans/Ultra/ULTRA_FLEX_FIFTEEN/intl_minutes": "0",
  "plans/Ultra/ULTRA_FLEX_FIFTEEN/name": "Ultra Flex $15",
  "plans/Ultra/ULTRA_FLEX_FIFTEEN/talk_minutes": "0",
  "plans/Ultra/ULTRA_FLEX_FIFTEEN/unlimited_intl_minutes": "0",
  "plans/Ultra/ULTRA_FLEX_FIFTEEN/wholesale": "W-SECONDARY",
  "plans/Ultra/ULTRA_FLEX_FIFTEEN/zero_used_minutes": "1000",
  "plans/Ultra/ULTRA_FLEX_FIFTEEN/offer_id": "46",
  "plans/Ultra/MINT_ONE_MONTH_TRIAL/active": "1",
  "plans/Ultra/MINT_ONE_MONTH_TRIAL/aka": "M01T",
  "plans/Ultra/MINT_ONE_MONTH_TRIAL/brand_id": "3",
  "plans/Ultra/MINT_ONE_MONTH_TRIAL/bolt_on_types": "",
  "plans/Ultra/MINT_ONE_MONTH_TRIAL/bolt_ons": "",
  "plans/Ultra/MINT_ONE_MONTH_TRIAL/cos_id": "100008",
  "plans/Ultra/MINT_ONE_MONTH_TRIAL/cost": "0",
  "plans/Ultra/MINT_ONE_MONTH_TRIAL/data_recharge": "",
  "plans/Ultra/MINT_ONE_MONTH_TRIAL/intl_minutes": "0",
  "plans/Ultra/MINT_ONE_MONTH_TRIAL/name": "Mint 1 Month - Trial",
  "plans/Ultra/MINT_ONE_MONTH_TRIAL/talk_minutes": "0",
  "plans/Ultra/MINT_ONE_MONTH_TRIAL/unlimited_intl_minutes": "0",
  "plans/Ultra/MINT_ONE_MONTH_TRIAL/wholesale": "W-SECONDARY",
  "plans/Ultra/MINT_ONE_MONTH_TRIAL/zero_used_minutes": "0",
  "plans/Ultra/MINT_ONE_MONTH_TRIAL/months": "1",
  "plans/Ultra/MINT_ONE_MONTH_TRIAL/cycle_data": "100",
  "plans/Ultra/MINT_ONE_MONTH_TRIAL/offer_id": "",
  "plans/Ultra/MINT_ONE_MONTH_S/active": "1",
  "plans/Ultra/MINT_ONE_MONTH_S/aka": "M01S",
  "plans/Ultra/MINT_ONE_MONTH_S/brand_id": "3",
  "plans/Ultra/MINT_ONE_MONTH_S/bolt_on_types": "immediate",
  "plans/Ultra/MINT_ONE_MONTH_S/bolt_ons": "MDATA_1024_10,MDATA_3072_20,ROAM_500_5,ROAM_1000_10,ROAM_2000_20",
  "plans/Ultra/MINT_ONE_MONTH_S/cos_id": "98320",
  "plans/Ultra/MINT_ONE_MONTH_S/cost": "3500",
  "plans/Ultra/MINT_ONE_MONTH_S/data_recharge": "PayGo_1024_1024,PayGo_3072_3072",
  "plans/Ultra/MINT_ONE_MONTH_S/intl_minutes": "0",
  "plans/Ultra/MINT_ONE_MONTH_S/name": "Mint 1 Month - Small",
  "plans/Ultra/MINT_ONE_MONTH_S/talk_minutes": "0",
  "plans/Ultra/MINT_ONE_MONTH_S/unlimited_intl_minutes": "0",
  "plans/Ultra/MINT_ONE_MONTH_S/wholesale": "W-MINT",
  "plans/Ultra/MINT_ONE_MONTH_S/zero_used_minutes": "1000",
  "plans/Ultra/MINT_ONE_MONTH_S/months": "1",
  "plans/Ultra/MINT_ONE_MONTH_S/cycle_data": "2",
  "plans/Ultra/MINT_ONE_MONTH_S/offer_id": "13",
  "plans/Ultra/MINT_THREE_MONTHS_S/active": "1",
  "plans/Ultra/MINT_THREE_MONTHS_S/aka": "M03S",
  "plans/Ultra/MINT_THREE_MONTHS_S/brand_id": "3",
  "plans/Ultra/MINT_THREE_MONTHS_S/bolt_on_types": "immediate",
  "plans/Ultra/MINT_THREE_MONTHS_S/bolt_ons": "MDATA_1024_10,MDATA_3072_20,ROAM_500_5,ROAM_1000_10,ROAM_2000_20",
  "plans/Ultra/MINT_THREE_MONTHS_S/cos_id": "98321",
  "plans/Ultra/MINT_THREE_MONTHS_S/cost": "6900",
  "plans/Ultra/MINT_THREE_MONTHS_S/data_recharge": "PayGo_1024_1024,PayGo_3072_3072",
  "plans/Ultra/MINT_THREE_MONTHS_S/intl_minutes": "0",
  "plans/Ultra/MINT_THREE_MONTHS_S/name": "Mint 3 Months - Small",
  "plans/Ultra/MINT_THREE_MONTHS_S/talk_minutes": "0",
  "plans/Ultra/MINT_THREE_MONTHS_S/unlimited_intl_minutes": "0",
  "plans/Ultra/MINT_THREE_MONTHS_S/wholesale": "W-MINT",
  "plans/Ultra/MINT_THREE_MONTHS_S/zero_used_minutes": "1000",
  "plans/Ultra/MINT_THREE_MONTHS_S/months": "3",
  "plans/Ultra/MINT_THREE_MONTHS_S/cycle_data": "2",
  "plans/Ultra/MINT_THREE_MONTHS_S/offer_id": "14",
  "plans/Ultra/MINT_SIX_MONTHS_S/active": "1",
  "plans/Ultra/MINT_SIX_MONTHS_S/aka": "M06S",
  "plans/Ultra/MINT_SIX_MONTHS_S/brand_id": "3",
  "plans/Ultra/MINT_SIX_MONTHS_S/bolt_on_types": "immediate",
  "plans/Ultra/MINT_SIX_MONTHS_S/bolt_ons": "MDATA_1024_10,MDATA_3072_20,ROAM_500_5,ROAM_1000_10,ROAM_2000_20",
  "plans/Ultra/MINT_SIX_MONTHS_S/cos_id": "98322",
  "plans/Ultra/MINT_SIX_MONTHS_S/cost": "10800",
  "plans/Ultra/MINT_SIX_MONTHS_S/data_recharge": "PayGo_1024_1024,PayGo_3072_3072",
  "plans/Ultra/MINT_SIX_MONTHS_S/intl_minutes": "0",
  "plans/Ultra/MINT_SIX_MONTHS_S/name": "Mint 6 Months - Small",
  "plans/Ultra/MINT_SIX_MONTHS_S/talk_minutes": "0",
  "plans/Ultra/MINT_SIX_MONTHS_S/unlimited_intl_minutes": "0",
  "plans/Ultra/MINT_SIX_MONTHS_S/wholesale": "W-MINT",
  "plans/Ultra/MINT_SIX_MONTHS_S/zero_used_minutes": "1000",
  "plans/Ultra/MINT_SIX_MONTHS_S/months": "6",
  "plans/Ultra/MINT_SIX_MONTHS_S/cycle_data": "2",
  "plans/Ultra/MINT_SIX_MONTHS_S/offer_id": "15",
  "plans/Ultra/MINT_TWELVE_MONTHS_S/active": "1",
  "plans/Ultra/MINT_TWELVE_MONTHS_S/aka": "M12S",
  "plans/Ultra/MINT_TWELVE_MONTHS_S/brand_id": "3",
  "plans/Ultra/MINT_TWELVE_MONTHS_S/bolt_on_types": "immediate",
  "plans/Ultra/MINT_TWELVE_MONTHS_S/bolt_ons": "MDATA_1024_10,MDATA_3072_20,ROAM_500_5,ROAM_1000_10,ROAM_2000_20",
  "plans/Ultra/MINT_TWELVE_MONTHS_S/cos_id": "98323",
  "plans/Ultra/MINT_TWELVE_MONTHS_S/cost": "18000",
  "plans/Ultra/MINT_TWELVE_MONTHS_S/data_recharge": "PayGo_1024_1024,PayGo_3072_3072",
  "plans/Ultra/MINT_TWELVE_MONTHS_S/intl_minutes": "0",
  "plans/Ultra/MINT_TWELVE_MONTHS_S/name": "Mint 1 Year - Small",
  "plans/Ultra/MINT_TWELVE_MONTHS_S/talk_minutes": "0",
  "plans/Ultra/MINT_TWELVE_MONTHS_S/unlimited_intl_minutes": "0",
  "plans/Ultra/MINT_TWELVE_MONTHS_S/wholesale": "W-MINT",
  "plans/Ultra/MINT_TWELVE_MONTHS_S/zero_used_minutes": "1000",
  "plans/Ultra/MINT_TWELVE_MONTHS_S/months": "12",
  "plans/Ultra/MINT_TWELVE_MONTHS_S/cycle_data": "2",
  "plans/Ultra/MINT_TWELVE_MONTHS_S/offer_id": "16",
  "plans/Ultra/MINT_ONE_MONTH_M/active": "1",
  "plans/Ultra/MINT_ONE_MONTH_M/aka": "M01M",
  "plans/Ultra/MINT_ONE_MONTH_M/brand_id": "3",
  "plans/Ultra/MINT_ONE_MONTH_M/bolt_on_types": "immediate",
  "plans/Ultra/MINT_ONE_MONTH_M/bolt_ons": "MDATA_1024_10,MDATA_3072_20,ROAM_500_5,ROAM_1000_10,ROAM_2000_20",
  "plans/Ultra/MINT_ONE_MONTH_M/cos_id": "98324",
  "plans/Ultra/MINT_ONE_MONTH_M/cost": "5000",
  "plans/Ultra/MINT_ONE_MONTH_M/data_recharge": "PayGo_1024_1024,PayGo_3072_3072",
  "plans/Ultra/MINT_ONE_MONTH_M/intl_minutes": "0",
  "plans/Ultra/MINT_ONE_MONTH_M/name": "Mint 1 Month - Medium",
  "plans/Ultra/MINT_ONE_MONTH_M/talk_minutes": "0",
  "plans/Ultra/MINT_ONE_MONTH_M/unlimited_intl_minutes": "0",
  "plans/Ultra/MINT_ONE_MONTH_M/wholesale": "W-MINT",
  "plans/Ultra/MINT_ONE_MONTH_M/zero_used_minutes": "1000",
  "plans/Ultra/MINT_ONE_MONTH_M/months": "1",
  "plans/Ultra/MINT_ONE_MONTH_M/cycle_data": "5",
  "plans/Ultra/MINT_ONE_MONTH_M/offer_id": "17",
  "plans/Ultra/MINT_THREE_MONTHS_M/active": "1",
  "plans/Ultra/MINT_THREE_MONTHS_M/aka": "M03M",
  "plans/Ultra/MINT_THREE_MONTHS_M/brand_id": "3",
  "plans/Ultra/MINT_THREE_MONTHS_M/bolt_on_types": "immediate",
  "plans/Ultra/MINT_THREE_MONTHS_M/bolt_ons": "MDATA_1024_10,MDATA_3072_20,ROAM_500_5,ROAM_1000_10,ROAM_2000_20",
  "plans/Ultra/MINT_THREE_MONTHS_M/cos_id": "98325",
  "plans/Ultra/MINT_THREE_MONTHS_M/cost": "9000",
  "plans/Ultra/MINT_THREE_MONTHS_M/data_recharge": "PayGo_1024_1024,PayGo_3072_3072",
  "plans/Ultra/MINT_THREE_MONTHS_M/intl_minutes": "0",
  "plans/Ultra/MINT_THREE_MONTHS_M/name": "Mint 3 Months - Medium",
  "plans/Ultra/MINT_THREE_MONTHS_M/talk_minutes": "0",
  "plans/Ultra/MINT_THREE_MONTHS_M/unlimited_intl_minutes": "0",
  "plans/Ultra/MINT_THREE_MONTHS_M/wholesale": "W-MINT",
  "plans/Ultra/MINT_THREE_MONTHS_M/zero_used_minutes": "1000",
  "plans/Ultra/MINT_THREE_MONTHS_M/months": "3",
  "plans/Ultra/MINT_THREE_MONTHS_M/cycle_data": "5",
  "plans/Ultra/MINT_THREE_MONTHS_M/offer_id": "18",
  "plans/Ultra/MINT_SIX_MONTHS_M/active": "1",
  "plans/Ultra/MINT_SIX_MONTHS_M/aka": "M06M",
  "plans/Ultra/MINT_SIX_MONTHS_M/brand_id": "3",
  "plans/Ultra/MINT_SIX_MONTHS_M/bolt_on_types": "immediate",
  "plans/Ultra/MINT_SIX_MONTHS_M/bolt_ons": "MDATA_1024_10,MDATA_3072_20,ROAM_500_5,ROAM_1000_10,ROAM_2000_20",
  "plans/Ultra/MINT_SIX_MONTHS_M/cos_id": "98326",
  "plans/Ultra/MINT_SIX_MONTHS_M/cost": "14400",
  "plans/Ultra/MINT_SIX_MONTHS_M/data_recharge": "PayGo_1024_1024,PayGo_3072_3072",
  "plans/Ultra/MINT_SIX_MONTHS_M/intl_minutes": "0",
  "plans/Ultra/MINT_SIX_MONTHS_M/name": "Mint 6 Months - Medium",
  "plans/Ultra/MINT_SIX_MONTHS_M/talk_minutes": "0",
  "plans/Ultra/MINT_SIX_MONTHS_M/unlimited_intl_minutes": "0",
  "plans/Ultra/MINT_SIX_MONTHS_M/wholesale": "W-MINT",
  "plans/Ultra/MINT_SIX_MONTHS_M/zero_used_minutes": "1000",
  "plans/Ultra/MINT_SIX_MONTHS_M/months": "6",
  "plans/Ultra/MINT_SIX_MONTHS_M/cycle_data": "5",
  "plans/Ultra/MINT_SIX_MONTHS_M/offer_id": "19",
  "plans/Ultra/MINT_TWELVE_MONTHS_M/active": "1",
  "plans/Ultra/MINT_TWELVE_MONTHS_M/aka": "M12M",
  "plans/Ultra/MINT_TWELVE_MONTHS_M/brand_id": "3",
  "plans/Ultra/MINT_TWELVE_MONTHS_M/bolt_on_types": "immediate",
  "plans/Ultra/MINT_TWELVE_MONTHS_M/bolt_ons": "MDATA_1024_10,MDATA_3072_20,ROAM_500_5,ROAM_1000_10,ROAM_2000_20",
  "plans/Ultra/MINT_TWELVE_MONTHS_M/cos_id": "98327",
  "plans/Ultra/MINT_TWELVE_MONTHS_M/cost": "24000",
  "plans/Ultra/MINT_TWELVE_MONTHS_M/data_recharge": "PayGo_1024_1024,PayGo_3072_3072",
  "plans/Ultra/MINT_TWELVE_MONTHS_M/intl_minutes": "0",
  "plans/Ultra/MINT_TWELVE_MONTHS_M/name": "Mint 1 Year - Medium",
  "plans/Ultra/MINT_TWELVE_MONTHS_M/talk_minutes": "0",
  "plans/Ultra/MINT_TWELVE_MONTHS_M/unlimited_intl_minutes": "0",
  "plans/Ultra/MINT_TWELVE_MONTHS_M/wholesale": "W-MINT",
  "plans/Ultra/MINT_TWELVE_MONTHS_M/zero_used_minutes": "1000",
  "plans/Ultra/MINT_TWELVE_MONTHS_M/months": "12",
  "plans/Ultra/MINT_TWELVE_MONTHS_M/cycle_data": "5",
  "plans/Ultra/MINT_TWELVE_MONTHS_M/offer_id": "20",
  "plans/Ultra/MINT_ONE_MONTH_L/active": "1",
  "plans/Ultra/MINT_ONE_MONTH_L/aka": "M01L",
  "plans/Ultra/MINT_ONE_MONTH_L/brand_id": "3",
  "plans/Ultra/MINT_ONE_MONTH_L/bolt_on_types": "immediate",
  "plans/Ultra/MINT_ONE_MONTH_L/bolt_ons": "MDATA_1024_10,MDATA_3072_20,ROAM_500_5,ROAM_1000_10,ROAM_2000_20",
  "plans/Ultra/MINT_ONE_MONTH_L/cos_id": "98328",
  "plans/Ultra/MINT_ONE_MONTH_L/cost": "6000",
  "plans/Ultra/MINT_ONE_MONTH_L/data_recharge": "PayGo_1024_1024,PayGo_3072_3072",
  "plans/Ultra/MINT_ONE_MONTH_L/intl_minutes": "0",
  "plans/Ultra/MINT_ONE_MONTH_L/name": "Mint 1 Month - Large",
  "plans/Ultra/MINT_ONE_MONTH_L/talk_minutes": "0",
  "plans/Ultra/MINT_ONE_MONTH_L/unlimited_intl_minutes": "0",
  "plans/Ultra/MINT_ONE_MONTH_L/wholesale": "W-MINT",
  "plans/Ultra/MINT_ONE_MONTH_L/zero_used_minutes": "1000",
  "plans/Ultra/MINT_ONE_MONTH_L/months": "1",
  "plans/Ultra/MINT_ONE_MONTH_L/cycle_data": "10",
  "plans/Ultra/MINT_ONE_MONTH_L/offer_id": "21",
  "plans/Ultra/MINT_THREE_MONTHS_L/active": "1",
  "plans/Ultra/MINT_THREE_MONTHS_L/aka": "M03L",
  "plans/Ultra/MINT_THREE_MONTHS_L/brand_id": "3",
  "plans/Ultra/MINT_THREE_MONTHS_L/bolt_on_types": "immediate",
  "plans/Ultra/MINT_THREE_MONTHS_L/bolt_ons": "MDATA_1024_10,MDATA_3072_20,ROAM_500_5,ROAM_1000_10,ROAM_2000_20",
  "plans/Ultra/MINT_THREE_MONTHS_L/cos_id": "98329",
  "plans/Ultra/MINT_THREE_MONTHS_L/cost": "11400",
  "plans/Ultra/MINT_THREE_MONTHS_L/data_recharge": "PayGo_1024_1024,PayGo_3072_3072",
  "plans/Ultra/MINT_THREE_MONTHS_L/intl_minutes": "0",
  "plans/Ultra/MINT_THREE_MONTHS_L/name": "Mint 3 Months - Large",
  "plans/Ultra/MINT_THREE_MONTHS_L/talk_minutes": "0",
  "plans/Ultra/MINT_THREE_MONTHS_L/unlimited_intl_minutes": "0",
  "plans/Ultra/MINT_THREE_MONTHS_L/wholesale": "W-MINT",
  "plans/Ultra/MINT_THREE_MONTHS_L/zero_used_minutes": "1000",
  "plans/Ultra/MINT_THREE_MONTHS_L/months": "3",
  "plans/Ultra/MINT_THREE_MONTHS_L/cycle_data": "10",
  "plans/Ultra/MINT_THREE_MONTHS_L/offer_id": "22",
  "plans/Ultra/MINT_SIX_MONTHS_L/active": "1",
  "plans/Ultra/MINT_SIX_MONTHS_L/aka": "M06L",
  "plans/Ultra/MINT_SIX_MONTHS_L/brand_id": "3",
  "plans/Ultra/MINT_SIX_MONTHS_L/bolt_on_types": "immediate",
  "plans/Ultra/MINT_SIX_MONTHS_L/bolt_ons": "MDATA_1024_10,MDATA_3072_20,ROAM_500_5,ROAM_1000_10,ROAM_2000_20",
  "plans/Ultra/MINT_SIX_MONTHS_L/cos_id": "98330",
  "plans/Ultra/MINT_SIX_MONTHS_L/cost": "18000",
  "plans/Ultra/MINT_SIX_MONTHS_L/data_recharge": "PayGo_1024_1024,PayGo_3072_3072",
  "plans/Ultra/MINT_SIX_MONTHS_L/intl_minutes": "0",
  "plans/Ultra/MINT_SIX_MONTHS_L/name": "Mint 6 Months - Large",
  "plans/Ultra/MINT_SIX_MONTHS_L/talk_minutes": "0",
  "plans/Ultra/MINT_SIX_MONTHS_L/unlimited_intl_minutes": "0",
  "plans/Ultra/MINT_SIX_MONTHS_L/wholesale": "W-MINT",
  "plans/Ultra/MINT_SIX_MONTHS_L/zero_used_minutes": "1000",
  "plans/Ultra/MINT_SIX_MONTHS_L/months": "6",
  "plans/Ultra/MINT_SIX_MONTHS_L/cycle_data": "10",
  "plans/Ultra/MINT_SIX_MONTHS_L/offer_id": "23",
  "plans/Ultra/MINT_TWELVE_MONTHS_L/active": "1",
  "plans/Ultra/MINT_TWELVE_MONTHS_L/aka": "M12L",
  "plans/Ultra/MINT_TWELVE_MONTHS_L/brand_id": "3",
  "plans/Ultra/MINT_TWELVE_MONTHS_L/bolt_on_types": "immediate",
  "plans/Ultra/MINT_TWELVE_MONTHS_L/bolt_ons": "MDATA_1024_10,MDATA_3072_20,ROAM_500_5,ROAM_1000_10,ROAM_2000_20",
  "plans/Ultra/MINT_TWELVE_MONTHS_L/cos_id": "98331",
  "plans/Ultra/MINT_TWELVE_MONTHS_L/cost": "30000",
  "plans/Ultra/MINT_TWELVE_MONTHS_L/data_recharge": "PayGo_1024_1024,PayGo_3072_3072",
  "plans/Ultra/MINT_TWELVE_MONTHS_L/intl_minutes": "0",
  "plans/Ultra/MINT_TWELVE_MONTHS_L/name": "Mint 1 Year - Large",
  "plans/Ultra/MINT_TWELVE_MONTHS_L/talk_minutes": "0",
  "plans/Ultra/MINT_TWELVE_MONTHS_L/unlimited_intl_minutes": "0",
  "plans/Ultra/MINT_TWELVE_MONTHS_L/wholesale": "W-MINT",
  "plans/Ultra/MINT_TWELVE_MONTHS_L/zero_used_minutes": "1000",
  "plans/Ultra/MINT_TWELVE_MONTHS_L/months": "12",
  "plans/Ultra/MINT_TWELVE_MONTHS_L/cycle_data": "10",
  "plans/Ultra/MINT_TWELVE_MONTHS_L/offer_id": "24",
  "plans/Ultra/SFIFTY_FOUR/active": "1",
  "plans/Ultra/SFIFTY_FOUR/aka": "S54",
  "plans/Ultra/SFIFTY_FOUR/bolt_on_types": "recurring,immediate",
  "plans/Ultra/SFIFTY_FOUR/bolt_ons": "IDDCA_6.25_5,IDDCA_12.5_10,IDDCA_25_20,DATA_500_5,DATA_1024_10,DATA_2048_20,ROAM_500_5,ROAM_1000_10,ROAM_2000_20,GLOBE_10_10",
  "plans/Ultra/SFIFTY_FOUR/brand_id": "1",
  "plans/Ultra/SFIFTY_FOUR/cos_id": "98341",
  "plans/Ultra/SFIFTY_FOUR/cost": "5400",
  "plans/Ultra/SFIFTY_FOUR/data_recharge": "PayGo_500_500,PayGo_1024_1024,PayGo_2048_2048",
  "plans/Ultra/SFIFTY_FOUR/intl_minutes": "0",
  "plans/Ultra/SFIFTY_FOUR/monthly": "1",
  "plans/Ultra/SFIFTY_FOUR/name": "Ultra $54 Select",
  "plans/Ultra/SFIFTY_FOUR/offer_id": "27",
  "plans/Ultra/SFIFTY_FOUR/unlimited_intl_minutes": "10000",
  "plans/Ultra/SFIFTY_FOUR/voice_recharge": "",
  "plans/Ultra/SFIFTY_FOUR/wholesale": "W-MRC",
  "plans/Ultra/SFIFTY_FOUR/zero_used_minutes": "1000",
  "plans/Ultra/FIFTY_NINE/active": "0",
  "plans/Ultra/FIFTY_NINE/aka": "L59",
  "plans/Ultra/FIFTY_NINE/brand_id": "1",
  "plans/Ultra/FIFTY_NINE/bolt_on_types": "recurring,immediate",
  "plans/Ultra/FIFTY_NINE/bolt_ons": "IDDCA_6.25_5,IDDCA_12.5_10,IDDCA_25_20,DATA_500_5,DATA_1024_10,DATA_2048_20,ROAM_500_5,ROAM_1000_10,ROAM_2000_20,GLOBE_10_10",
  "plans/Ultra/FIFTY_NINE/cos_id": "5",
  "plans/Ultra/FIFTY_NINE/cost": "5900",
  "plans/Ultra/FIFTY_NINE/data_recharge": "PayGo_500_500,PayGo_1024_1024,PayGo_2048_2048",
  "plans/Ultra/FIFTY_NINE/intl_minutes": "500",
  "plans/Ultra/FIFTY_NINE/monthly": "1",
  "plans/Ultra/FIFTY_NINE/name": "Ultra $59",
  "plans/Ultra/FIFTY_NINE/offer_id": "7",
  "plans/Ultra/FIFTY_NINE/talk_minutes": "inf",
  "plans/Ultra/FIFTY_NINE/unlimited_intl_minutes": "10000",
  "plans/Ultra/FIFTY_NINE/wholesale": "W-SECONDARY",
  "plans/Ultra/FIFTY_NINE/zero_used_minutes": "0",
  "plans/Ultra/FORTY_FOUR/active": "0",
  "plans/Ultra/FORTY_FOUR/aka": "L44",
  "plans/Ultra/FORTY_FOUR/brand_id": "1",
  "plans/Ultra/FORTY_FOUR/bolt_on_types": "recurring,immediate",
  "plans/Ultra/FORTY_FOUR/bolt_ons": "IDDCA_6.25_5,IDDCA_12.5_10,IDDCA_25_20,DATA_500_5,DATA_1024_10,DATA_2048_20,ROAM_500_5,ROAM_1000_10,ROAM_2000_20,GLOBE_10_10",
  "plans/Ultra/FORTY_FOUR/cos_id": "98285",
  "plans/Ultra/FORTY_FOUR/cost": "4400",
  "plans/Ultra/FORTY_FOUR/data_recharge": "PayGo_500_500,PayGo_1024_1024,PayGo_2048_2048",
  "plans/Ultra/FORTY_FOUR/intl_minutes": "0",
  "plans/Ultra/FORTY_FOUR/monthly": "1",
  "plans/Ultra/FORTY_FOUR/name": "Ultra $44",
  "plans/Ultra/FORTY_FOUR/offer_id": "5",
  "plans/Ultra/FORTY_FOUR/talk_minutes": "inf",
  "plans/Ultra/FORTY_FOUR/unlimited_intl_minutes": "10000",
  "plans/Ultra/FORTY_FOUR/wholesale": "W-SECONDARY",
  "plans/Ultra/FORTY_FOUR/zero_used_minutes": "1000",
  "plans/Ultra/SFORTY_FOUR/active": "0",
  "plans/Ultra/SFORTY_FOUR/aka": "S44",
  "plans/Ultra/SFORTY_FOUR/brand_id": "1",
  "plans/Ultra/SFORTY_FOUR/bolt_on_types": "recurring,immediate",
  "plans/Ultra/SFORTY_FOUR/bolt_ons": "IDDCA_6.25_5,IDDCA_12.5_10,IDDCA_25_20,DATA_500_5,DATA_1024_10,DATA_2048_20,ROAM_500_5,ROAM_1000_10,ROAM_2000_20,GLOBE_10_10",
  "plans/Ultra/SFORTY_FOUR/cos_id": "98333",
  "plans/Ultra/SFORTY_FOUR/cost": "4400",
  "plans/Ultra/SFORTY_FOUR/data_recharge": "PayGo_500_500,PayGo_1024_1024,PayGo_2048_2048",
  "plans/Ultra/SFORTY_FOUR/intl_minutes": "2000",
  "plans/Ultra/SFORTY_FOUR/monthly": "1",
  "plans/Ultra/SFORTY_FOUR/name": "Ultra $44 Select",
  "plans/Ultra/SFORTY_FOUR/offer_id": "12",
  "plans/Ultra/SFORTY_FOUR/talk_minutes": "inf",
  "plans/Ultra/SFORTY_FOUR/unlimited_intl_minutes": "10000",
  "plans/Ultra/SFORTY_FOUR/wholesale": "W-SECONDARY",
  "plans/Ultra/SFORTY_FOUR/zero_used_minutes": "1000",
  "plans/Ultra/FORTY_NINE/active": "0",
  "plans/Ultra/FORTY_NINE/aka": "L49",
  "plans/Ultra/FORTY_NINE/brand_id": "1",
  "plans/Ultra/FORTY_NINE/bolt_on_types": "recurring,immediate",
  "plans/Ultra/FORTY_NINE/bolt_ons": "IDDCA_6.25_5,IDDCA_12.5_10,IDDCA_25_20,DATA_500_5,DATA_1024_10,DATA_2048_20,ROAM_500_5,ROAM_1000_10,ROAM_2000_20,GLOBE_10_10",
  "plans/Ultra/FORTY_NINE/cos_id": "98276",
  "plans/Ultra/FORTY_NINE/cost": "4900",
  "plans/Ultra/FORTY_NINE/data_recharge": "PayGo_500_500,PayGo_1024_1024,PayGo_2048_2048",
  "plans/Ultra/FORTY_NINE/intl_minutes": "1250",
  "plans/Ultra/FORTY_NINE/monthly": "1",
  "plans/Ultra/FORTY_NINE/name": "Ultra $49",
  "plans/Ultra/FORTY_NINE/offer_id": "6",
  "plans/Ultra/FORTY_NINE/talk_minutes": "inf",
  "plans/Ultra/FORTY_NINE/unlimited_intl_minutes": "10000",
  "plans/Ultra/FORTY_NINE/wholesale": "W-SECONDARY",
  "plans/Ultra/FORTY_NINE/zero_used_minutes": "0",
  "plans/Ultra/SFORTY_NINE/active": "1",
  "plans/Ultra/SFORTY_NINE/aka": "S49",
  "plans/Ultra/SFORTY_NINE/brand_id": "1",
  "plans/Ultra/SFORTY_NINE/bolt_on_types": "recurring,immediate",
  "plans/Ultra/SFORTY_NINE/bolt_ons": "IDDCA_6.25_5,IDDCA_12.5_10,IDDCA_25_20,DATA_500_5,DATA_1024_10,DATA_2048_20,ROAM_500_5,ROAM_1000_10,ROAM_2000_20,GLOBE_10_10",
  "plans/Ultra/SFORTY_NINE/cos_id": "98351",
  "plans/Ultra/SFORTY_NINE/cost": "4900",
  "plans/Ultra/SFORTY_NINE/data_recharge": "PayGo_500_500,PayGo_1024_1024,PayGo_2048_2048",
  "plans/Ultra/SFORTY_NINE/intl_minutes": "2000",
  "plans/Ultra/SFORTY_NINE/monthly": "1",
  "plans/Ultra/SFORTY_NINE/name": "Ultra $49 Select",
  "plans/Ultra/SFORTY_NINE/offer_id": "44",
  "plans/Ultra/SFORTY_NINE/talk_minutes": "inf",
  "plans/Ultra/SFORTY_NINE/unlimited_intl_minutes": "10000",
  "plans/Ultra/SFORTY_NINE/wholesale": "W-SECONDARY",
  "plans/Ultra/SFORTY_NINE/zero_used_minutes": "1000",
  "plans/Ultra/MULTI_TWENTY_NINE/active": "1",
  "plans/Ultra/MULTI_TWENTY_NINE/aka": "M29",
  "plans/Ultra/MULTI_TWENTY_NINE/brand_id": "1",
  "plans/Ultra/MULTI_TWENTY_NINE/bolt_on_types": "immediate",
  "plans/Ultra/MULTI_TWENTY_NINE/bolt_ons": "IDDCA_6.25_5,IDDCA_12.5_10,IDDCA_25_20,DATA_500_5,DATA_1024_10,DATA_2048_20,ROAM_500_5,ROAM_1000_10,ROAM_2000_20,GLOBE_10_10",
  "plans/Ultra/MULTI_TWENTY_NINE/cos_id": "98288",
  "plans/Ultra/MULTI_TWENTY_NINE/cost": "2900",
  "plans/Ultra/MULTI_TWENTY_NINE/data_recharge": "PayGo_500_500,PayGo_1024_1024,PayGo_2048_2048",
  "plans/Ultra/MULTI_TWENTY_NINE/intl_minutes": "250",
  "plans/Ultra/MULTI_TWENTY_NINE/monthly": "1",
  "plans/Ultra/MULTI_TWENTY_NINE/name": "Ultra Multi $29",
  "plans/Ultra/MULTI_TWENTY_NINE/offer_id": "8|3,9|6,10|12",
  "plans/Ultra/MULTI_TWENTY_NINE/talk_minutes": "inf",
  "plans/Ultra/MULTI_TWENTY_NINE/unlimited_intl_minutes": "10000",
  "plans/Ultra/MULTI_TWENTY_NINE/wholesale": "W-SECONDARY",
  "plans/Ultra/MULTI_TWENTY_NINE/zero_used_minutes": "0",

  "plans/Ultra/STANDBY/cos_id": "98277",
  "plans/Ultra/STANDBY/cost": "0",
  "plans/Ultra/STANDBY/intl_minutes": "0",
  "plans/Ultra/STANDBY/monthly": "0",
  "plans/Ultra/STANDBY/name": "Ultra SIM Standby",
  "plans/Ultra/STANDBY/talk_minutes": "0",
  "plans/Ultra/STANDBY/active": "0",
  "plans/Ultra/STANDBY/aka": "STANDBY",
  "plans/Ultra/THIRTY_FOUR/active": "1",
  "plans/Ultra/THIRTY_FOUR/aka": "L34",
  "plans/Ultra/THIRTY_FOUR/brand_id": "1",
  "plans/Ultra/THIRTY_FOUR/bolt_on_types": "recurring,immediate",
  "plans/Ultra/THIRTY_FOUR/bolt_ons": "IDDCA_6.25_5,IDDCA_12.5_10,IDDCA_25_20,DATA_500_5,DATA_1024_10,DATA_2048_20,ROAM_500_5,ROAM_1000_10,ROAM_2000_20,GLOBE_10_10",
  "plans/Ultra/THIRTY_FOUR/cos_id": "98284",
  "plans/Ultra/THIRTY_FOUR/cost": "3400",
  "plans/Ultra/THIRTY_FOUR/data_recharge": "PayGo_500_500,PayGo_1024_1024,PayGo_2048_2048",
  "plans/Ultra/THIRTY_FOUR/intl_minutes": "0",
  "plans/Ultra/THIRTY_FOUR/monthly": "1",
  "plans/Ultra/THIRTY_FOUR/name": "Ultra $34",
  "plans/Ultra/THIRTY_FOUR/offer_id": "3",
  "plans/Ultra/THIRTY_FOUR/talk_minutes": "inf",
  "plans/Ultra/THIRTY_FOUR/unlimited_intl_minutes": "10000",
  "plans/Ultra/THIRTY_FOUR/wholesale": "W-SECONDARY",
  "plans/Ultra/THIRTY_FOUR/zero_used_minutes": "10000",
  "plans/Ultra/THIRTY_NINE/active": "0",
  "plans/Ultra/THIRTY_NINE/aka": "L39",
  "plans/Ultra/THIRTY_NINE/brand_id": "1",
  "plans/Ultra/THIRTY_NINE/bolt_on_types": "recurring,immediate",
  "plans/Ultra/THIRTY_NINE/bolt_ons": "IDDCA_6.25_5,IDDCA_12.5_10,IDDCA_25_20,DATA_500_5,DATA_1024_10,DATA_2048_20,ROAM_500_5,ROAM_1000_10,ROAM_2000_20,GLOBE_10_10",
  "plans/Ultra/THIRTY_NINE/cos_id": "98275",
  "plans/Ultra/THIRTY_NINE/cost": "3900",
  "plans/Ultra/THIRTY_NINE/data_recharge": "PayGo_500_500,PayGo_1024_1024,PayGo_2048_2048",
  "plans/Ultra/THIRTY_NINE/intl_minutes": "625",
  "plans/Ultra/THIRTY_NINE/monthly": "1",
  "plans/Ultra/THIRTY_NINE/name": "Ultra $39 Classic",
  "plans/Ultra/THIRTY_NINE/offer_id": "4",
  "plans/Ultra/THIRTY_NINE/talk_minutes": "inf",
  "plans/Ultra/THIRTY_NINE/unlimited_intl_minutes": "10000",
  "plans/Ultra/THIRTY_NINE/wholesale": "W-SECONDARY",
  "plans/Ultra/THIRTY_NINE/zero_used_minutes": "0",
  "plans/Ultra/DTHIRTY_NINE/active": "0",
  "plans/Ultra/DTHIRTY_NINE/aka": "D39",
  "plans/Ultra/DTHIRTY_NINE/brand_id": "1",
  "plans/Ultra/DTHIRTY_NINE/bolt_on_types": "recurring,immediate",
  "plans/Ultra/DTHIRTY_NINE/bolt_ons": "IDDCA_6.25_5,IDDCA_12.5_10,IDDCA_25_20,DATA_500_5,DATA_1024_10,DATA_2048_20,ROAM_500_5,ROAM_1000_10,ROAM_2000_20,GLOBE_10_10",
  "plans/Ultra/DTHIRTY_NINE/cos_id": "98314",
  "plans/Ultra/DTHIRTY_NINE/cost": "3900",
  "plans/Ultra/DTHIRTY_NINE/data_recharge": "PayGo_500_500,PayGo_1024_1024,PayGo_2048_2048",
  "plans/Ultra/DTHIRTY_NINE/intl_minutes": "250",
  "plans/Ultra/DTHIRTY_NINE/monthly": "1",
  "plans/Ultra/DTHIRTY_NINE/name": "Ultra $39 Data Plus",
  "plans/Ultra/DTHIRTY_NINE/offer_id": "42",
  "plans/Ultra/DTHIRTY_NINE/talk_minutes": "inf",
  "plans/Ultra/DTHIRTY_NINE/unlimited_intl_minutes": "10000",
  "plans/Ultra/DTHIRTY_NINE/wholesale": "W-SECONDARY",
  "plans/Ultra/DTHIRTY_NINE/zero_used_minutes": "0",
  "plans/Ultra/STHIRTY_NINE/active": "0",
  "plans/Ultra/STHIRTY_NINE/aka": "S39",
  "plans/Ultra/STHIRTY_NINE/bolt_on_types": "recurring,immediate",
  "plans/Ultra/STHIRTY_NINE/bolt_ons": "IDDCA_6.25_5,IDDCA_12.5_10,IDDCA_25_20,DATA_500_5,DATA_1024_10,DATA_2048_20,ROAM_500_5,ROAM_1000_10,ROAM_2000_20,GLOBE_10_10",
  "plans/Ultra/STHIRTY_NINE/brand_id": "1",
  "plans/Ultra/STHIRTY_NINE/cos_id": "98340",
  "plans/Ultra/STHIRTY_NINE/cost": "3900",
  "plans/Ultra/STHIRTY_NINE/data_recharge": "PayGo_500_500,PayGo_1024_1024,PayGo_2048_2048",
  "plans/Ultra/STHIRTY_NINE/intl_minutes": "500",
  "plans/Ultra/STHIRTY_NINE/monthly": "1",
  "plans/Ultra/STHIRTY_NINE/name": "Ultra $39 Select",
  "plans/Ultra/STHIRTY_NINE/offer_id": "25",
  "plans/Ultra/STHIRTY_NINE/unlimited_intl_minutes": "10000",
  "plans/Ultra/STHIRTY_NINE/voice_recharge": "",
  "plans/Ultra/STHIRTY_NINE/wholesale": "W-SECONDARY",
  "plans/Ultra/STHIRTY_NINE/zero_used_minutes": "1000",
  "plans/Ultra/TWENTY_FOUR/active": "1",
  "plans/Ultra/TWENTY_FOUR/aka": "L24",
  "plans/Ultra/TWENTY_FOUR/brand_id": "1",
  "plans/Ultra/TWENTY_FOUR/bolt_on_types": "recurring,immediate", 
  "plans/Ultra/TWENTY_FOUR/bolt_ons": "IDDCA_6.25_5,IDDCA_12.5_10,IDDCA_25_20,DATA_500_5,DATA_1024_10,DATA_2048_20,ROAM_500_5,ROAM_1000_10,ROAM_2000_20,GLOBE_10_10",
  "plans/Ultra/TWENTY_FOUR/cos_id": "98283",
  "plans/Ultra/TWENTY_FOUR/cost": "2400",
  "plans/Ultra/TWENTY_FOUR/data_recharge": "PayGo_500_500,PayGo_1024_1024,PayGo_2048_2048",
  "plans/Ultra/TWENTY_FOUR/intl_minutes": "700",
  "plans/Ultra/TWENTY_FOUR/monthly": "1",
  "plans/Ultra/TWENTY_FOUR/name": "Ultra $24",
  "plans/Ultra/TWENTY_FOUR/offer_id": "43",
  "plans/Ultra/TWENTY_FOUR/talk_minutes": "inf",
  "plans/Ultra/TWENTY_FOUR/unlimited_intl_minutes": "10000",
  "plans/Ultra/TWENTY_FOUR/wholesale": "W-SECONDARY",
  "plans/Ultra/TWENTY_FOUR/zero_used_minutes": "1000",
  "plans/Ultra/STWENTY_THREE/active": "1",
  "plans/Ultra/STWENTY_THREE/aka": "S23",
  "plans/Ultra/STWENTY_THREE/brand_id": "1",
  "plans/Ultra/STWENTY_THREE/bolt_on_types": "recurring,immediate",
  "plans/Ultra/STWENTY_THREE/bolt_ons": "IDDCA_6.25_5,IDDCA_12.5_10,IDDCA_25_20,DATA_500_5,DATA_1024_10,DATA_2048_20,ROAM_500_5,ROAM_1000_10,ROAM_2000_20,GLOBE_10_10",
  "plans/Ultra/STWENTY_THREE/cos_id": "1000000091",
  "plans/Ultra/STWENTY_THREE/cost": "2300",
  "plans/Ultra/STWENTY_THREE/data_recharge": "PayGo_500_500,PayGo_1024_1024,PayGo_2048_2048",
  "plans/Ultra/STWENTY_THREE/intl_minutes": "125",
  "plans/Ultra/STWENTY_THREE/monthly": "1",
  "plans/Ultra/STWENTY_THREE/name": "Ultra $23 Select",
  "plans/Ultra/STWENTY_THREE/offer_id": "47",
  "plans/Ultra/STWENTY_THREE/talk_minutes": "inf",
  "plans/Ultra/STWENTY_THREE/unlimited_intl_minutes": "10000",
  "plans/Ultra/STWENTY_THREE/wholesale": "W-SECONDARY",
  "plans/Ultra/STWENTY_THREE/zero_used_minutes": "1000",
  "plans/Ultra/TWENTY_NINE/active": "0",
  "plans/Ultra/TWENTY_NINE/aka": "L29",
  "plans/Ultra/TWENTY_NINE/brand_id": "1",
  "plans/Ultra/TWENTY_NINE/bolt_on_types": "recurring,immediate",
  "plans/Ultra/TWENTY_NINE/bolt_ons": "IDDCA_6.25_5,IDDCA_12.5_10,IDDCA_25_20,DATA_500_5,DATA_1024_10,DATA_2048_20,ROAM_500_5,ROAM_1000_10,ROAM_2000_20,GLOBE_10_10",
  "plans/Ultra/TWENTY_NINE/cos_id": "2",
  "plans/Ultra/TWENTY_NINE/cost": "2900",
  "plans/Ultra/TWENTY_NINE/data_recharge": "PayGo_500_500,PayGo_1024_1024,PayGo_2048_2048",
  "plans/Ultra/TWENTY_NINE/intl_minutes": "250",
  "plans/Ultra/TWENTY_NINE/monthly": "1",
  "plans/Ultra/TWENTY_NINE/name": "Ultra $29",
  "plans/Ultra/TWENTY_NINE/offer_id": "2",
  "plans/Ultra/TWENTY_NINE/talk_minutes": "inf",
  "plans/Ultra/TWENTY_NINE/unlimited_intl_minutes": "10000",
  "plans/Ultra/TWENTY_NINE/wholesale": "W-SECONDARY",
  "plans/Ultra/TWENTY_NINE/zero_used_minutes": "0",
  "plans/Ultra/STWENTY_NINE/active": "1",
  "plans/Ultra/STWENTY_NINE/aka": "S29",
  "plans/Ultra/STWENTY_NINE/brand_id": "1",
  "plans/Ultra/STWENTY_NINE/bolt_on_types": "recurring,immediate",
  "plans/Ultra/STWENTY_NINE/bolt_ons": "IDDCA_6.25_5,IDDCA_12.5_10,IDDCA_25_20,DATA_500_5,DATA_1024_10,DATA_2048_20,ROAM_500_5,ROAM_1000_10,ROAM_2000_20,GLOBE_10_10",
  "plans/Ultra/STWENTY_NINE/cos_id": "98332",
  "plans/Ultra/STWENTY_NINE/cost": "2900",
  "plans/Ultra/STWENTY_NINE/data_recharge": "PayGo_500_500,PayGo_1024_1024,PayGo_2048_2048",
  "plans/Ultra/STWENTY_NINE/intl_minutes": "250",
  "plans/Ultra/STWENTY_NINE/monthly": "1",
  "plans/Ultra/STWENTY_NINE/name": "Ultra $29 Select",
  "plans/Ultra/STWENTY_NINE/offer_id": "11",
  "plans/Ultra/STWENTY_NINE/talk_minutes": "inf",
  "plans/Ultra/STWENTY_NINE/unlimited_intl_minutes": "10000",
  "plans/Ultra/STWENTY_NINE/wholesale": "W-SECONDARY",
  "plans/Ultra/STWENTY_NINE/zero_used_minutes": "1000",
  "plans/Ultra/SFORTY_FIVE/active": "1",
  "plans/Ultra/SFORTY_FIVE/aka": "S45",
  "plans/Ultra/SFORTY_FIVE/bolt_on_types": "recurring,immediate",
  "plans/Ultra/SFORTY_FIVE/bolt_ons": "IDDCA_6.25_5,IDDCA_12.5_10,IDDCA_25_20,DATA_500_5,DATA_1024_10,DATA_2048_20,ROAM_500_5,ROAM_1000_10,ROAM_2000_20,GLOBE_10_10",
  "plans/Ultra/SFORTY_FIVE/brand_id": "1",
  "plans/Ultra/SFORTY_FIVE/cos_id": "98352",
  "plans/Ultra/SFORTY_FIVE/cost": "4500",
  "plans/Ultra/SFORTY_FIVE/data_recharge": "PayGo_500_500,PayGo_1024_1024,PayGo_2048_2048",
  "plans/Ultra/SFORTY_FIVE/intl_minutes": "0",
  "plans/Ultra/SFORTY_FIVE/monthly": "1",
  "plans/Ultra/SFORTY_FIVE/name": "Ultra $45 Select",
  "plans/Ultra/SFORTY_FIVE/offer_id": "26",
  "plans/Ultra/SFORTY_FIVE/unlimited_intl_minutes": "10000",
  "plans/Ultra/SFORTY_FIVE/voice_recharge": "",
  "plans/Ultra/SFORTY_FIVE/wholesale": "W-MRC",
  "plans/Ultra/SFORTY_FIVE/zero_used_minutes": "1000",
  "plans/Ultra/ANINETEEN/active": "1",
  "plans/Ultra/ANINETEEN/aka": "A19",
  "plans/Ultra/ANINETEEN/brand_id": "1",
  "plans/Ultra/ANINETEEN/bolt_on_types": "recurring,immediate",
  "plans/Ultra/ANINETEEN/bolt_ons": "IDDCA_6.25_5,IDDCA_12.5_10,IDDCA_25_20,DATA_500_5,DATA_1024_10,DATA_2048_20,ROAM_500_5,ROAM_1000_10,ROAM_2000_20,GLOBE_10_10",
  "plans/Ultra/ANINETEEN/cos_id": "100000",
  "plans/Ultra/ANINETEEN/cost": "1900",
  "plans/Ultra/ANINETEEN/data_recharge": "PayGo_500_500,PayGo_1024_1024,PayGo_2048_2048",
  "plans/Ultra/ANINETEEN/intl_minutes": "125",
  "plans/Ultra/ANINETEEN/monthly": "1",
  "plans/Ultra/ANINETEEN/name": "Ultra 1 Month - Small",
  "plans/Ultra/ANINETEEN/offer_id": "48",
  "plans/Ultra/ANINETEEN/talk_minutes": "500",
  "plans/Ultra/ANINETEEN/unlimited_intl_minutes": "10000",
  "plans/Ultra/ANINETEEN/wholesale": "W-SECONDARY",
  "plans/Ultra/ANINETEEN/zero_used_minutes": "1000",
  "plans/Ultra/ATWENTY_NINE/active": "1",
  "plans/Ultra/ATWENTY_NINE/aka": "A29",
  "plans/Ultra/ATWENTY_NINE/brand_id": "1",
  "plans/Ultra/ATWENTY_NINE/bolt_on_types": "recurring,immediate",
  "plans/Ultra/ATWENTY_NINE/bolt_ons": "IDDCA_6.25_5,IDDCA_12.5_10,IDDCA_25_20,DATA_500_5,DATA_1024_10,DATA_2048_20,ROAM_500_5,ROAM_1000_10,ROAM_2000_20,GLOBE_10_10",
  "plans/Ultra/ATWENTY_NINE/cos_id": "100001",
  "plans/Ultra/ATWENTY_NINE/cost": "2900",
  "plans/Ultra/ATWENTY_NINE/data_recharge": "PayGo_500_500,PayGo_1024_1024,PayGo_2048_2048",
  "plans/Ultra/ATWENTY_NINE/intl_minutes": "125",
  "plans/Ultra/ATWENTY_NINE/monthly": "1",
  "plans/Ultra/ATWENTY_NINE/name": "Ultra 1 Month - Medium",
  "plans/Ultra/ATWENTY_NINE/offer_id": "49",
  "plans/Ultra/ATWENTY_NINE/talk_minutes": "500",
  "plans/Ultra/ATWENTY_NINE/unlimited_intl_minutes": "10000",
  "plans/Ultra/ATWENTY_NINE/wholesale": "W-SECONDARY",
  "plans/Ultra/ATWENTY_NINE/zero_used_minutes": "1000",
  "plans/Ultra/ATHIRTY_NINE/active": "1",
  "plans/Ultra/ATHIRTY_NINE/aka": "A39",
  "plans/Ultra/ATHIRTY_NINE/brand_id": "1",
  "plans/Ultra/ATHIRTY_NINE/bolt_on_types": "recurring,immediate",
  "plans/Ultra/ATHIRTY_NINE/bolt_ons": "IDDCA_6.25_5,IDDCA_12.5_10,IDDCA_25_20,DATA_500_5,DATA_1024_10,DATA_2048_20,ROAM_500_5,ROAM_1000_10,ROAM_2000_20,GLOBE_10_10",
  "plans/Ultra/ATHIRTY_NINE/cos_id": "100002",
  "plans/Ultra/ATHIRTY_NINE/cost": "3900",
  "plans/Ultra/ATHIRTY_NINE/data_recharge": "PayGo_500_500,PayGo_1024_1024,PayGo_2048_2048",
  "plans/Ultra/ATHIRTY_NINE/intl_minutes": "125",
  "plans/Ultra/ATHIRTY_NINE/monthly": "1",
  "plans/Ultra/ATHIRTY_NINE/name": "Ultra 1 Month - Large",
  "plans/Ultra/ATHIRTY_NINE/offer_id": "50",
  "plans/Ultra/ATHIRTY_NINE/talk_minutes": "500",
  "plans/Ultra/ATHIRTY_NINE/unlimited_intl_minutes": "10000",
  "plans/Ultra/ATHIRTY_NINE/wholesale": "W-SECONDARY",
  "plans/Ultra/ATHIRTY_NINE/zero_used_minutes": "1000",
  "plans/Ultra/AFORTY_NINE/active": "1",
  "plans/Ultra/AFORTY_NINE/aka": "A49",
  "plans/Ultra/AFORTY_NINE/brand_id": "1",
  "plans/Ultra/AFORTY_NINE/bolt_on_types": "recurring,immediate",
  "plans/Ultra/AFORTY_NINE/bolt_ons": "IDDCA_6.25_5,IDDCA_12.5_10,IDDCA_25_20,ROAM_500_5,ROAM_1000_10,ROAM_2000_20,GLOBE_10_10",
  "plans/Ultra/AFORTY_NINE/cos_id": "100003",
  "plans/Ultra/AFORTY_NINE/cost": "4900",
  "plans/Ultra/AFORTY_NINE/data_recharge": "PayGo_500_500,PayGo_1024_1024,PayGo_2048_2048",
  "plans/Ultra/AFORTY_NINE/intl_minutes": "125",
  "plans/Ultra/AFORTY_NINE/monthly": "1",
  "plans/Ultra/AFORTY_NINE/name": "Ultra 1 Month - XL",
  "plans/Ultra/AFORTY_NINE/offer_id": "51",
  "plans/Ultra/AFORTY_NINE/talk_minutes": "500",
  "plans/Ultra/AFORTY_NINE/unlimited_intl_minutes": "10000",
  "plans/Ultra/AFORTY_NINE/wholesale": "W-MRC",
  "plans/Ultra/AFORTY_NINE/zero_used_minutes": "1000",
  "plans/Ultra/BNINETEEN/active": "1",
  "plans/Ultra/BNINETEEN/aka": "B19",
  "plans/Ultra/BNINETEEN/brand_id": "1",
  "plans/Ultra/BNINETEEN/bolt_on_types": "immediate",
  "plans/Ultra/BNINETEEN/bolt_ons": "IDDCA_6.25_5,IDDCA_12.5_10,IDDCA_25_20,DATA_500_5,DATA_1024_10,DATA_2048_20,ROAM_500_5,ROAM_1000_10,ROAM_2000_20,GLOBE_10_10",
  "plans/Ultra/BNINETEEN/cos_id": "100004",
  "plans/Ultra/BNINETEEN/cost": "5700",
  "plans/Ultra/BNINETEEN/data_recharge": "PayGo_500_500,PayGo_1024_1024,PayGo_2048_2048",
  "plans/Ultra/BNINETEEN/intl_minutes": "125",
  "plans/Ultra/BNINETEEN/monthly": "1",
  "plans/Ultra/BNINETEEN/name": "Ultra 3 Month - Small",
  "plans/Ultra/BNINETEEN/offer_id": "52",
  "plans/Ultra/BNINETEEN/talk_minutes": "500",
  "plans/Ultra/BNINETEEN/unlimited_intl_minutes": "10000",
  "plans/Ultra/BNINETEEN/wholesale": "W-SECONDARY",
  "plans/Ultra/BNINETEEN/zero_used_minutes": "1000",
  "plans/Ultra/BNINETEEN/months": "3",
  "plans/Ultra/BTWENTY_NINE/active": "1",
  "plans/Ultra/BTWENTY_NINE/aka": "B29",
  "plans/Ultra/BTWENTY_NINE/brand_id": "1",
  "plans/Ultra/BTWENTY_NINE/bolt_on_types": "immediate",
  "plans/Ultra/BTWENTY_NINE/bolt_ons": "IDDCA_6.25_5,IDDCA_12.5_10,IDDCA_25_20,DATA_500_5,DATA_1024_10,DATA_2048_20,ROAM_500_5,ROAM_1000_10,ROAM_2000_20,GLOBE_10_10",
  "plans/Ultra/BTWENTY_NINE/cos_id": "100005",
  "plans/Ultra/BTWENTY_NINE/cost": "8700",
  "plans/Ultra/BTWENTY_NINE/data_recharge": "PayGo_500_500,PayGo_1024_1024,PayGo_2048_2048",
  "plans/Ultra/BTWENTY_NINE/intl_minutes": "125",
  "plans/Ultra/BTWENTY_NINE/monthly": "1",
  "plans/Ultra/BTWENTY_NINE/name": "Ultra 3 Month - Medium",
  "plans/Ultra/BTWENTY_NINE/offer_id": "53",
  "plans/Ultra/BTWENTY_NINE/talk_minutes": "500",
  "plans/Ultra/BTWENTY_NINE/unlimited_intl_minutes": "10000",
  "plans/Ultra/BTWENTY_NINE/wholesale": "W-MRC",
  "plans/Ultra/BTWENTY_NINE/zero_used_minutes": "1000",
  "plans/Ultra/BTWENTY_NINE/months": "3",
  "plans/Ultra/BTHIRTY_NINE/active": "1",
  "plans/Ultra/BTHIRTY_NINE/aka": "B39",
  "plans/Ultra/BTHIRTY_NINE/brand_id": "1",
  "plans/Ultra/BTHIRTY_NINE/bolt_on_types": "immediate",
  "plans/Ultra/BTHIRTY_NINE/bolt_ons": "IDDCA_6.25_5,IDDCA_12.5_10,IDDCA_25_20,DATA_500_5,DATA_1024_10,DATA_2048_20,ROAM_500_5,ROAM_1000_10,ROAM_2000_20,GLOBE_10_10",
  "plans/Ultra/BTHIRTY_NINE/cos_id": "100006",
  "plans/Ultra/BTHIRTY_NINE/cost": "11700",
  "plans/Ultra/BTHIRTY_NINE/data_recharge": "PayGo_500_500,PayGo_1024_1024,PayGo_2048_2048",
  "plans/Ultra/BTHIRTY_NINE/intl_minutes": "125",
  "plans/Ultra/BTHIRTY_NINE/monthly": "1",
  "plans/Ultra/BTHIRTY_NINE/name": "Ultra 3 Month - Large",
  "plans/Ultra/BTHIRTY_NINE/offer_id": "54",
  "plans/Ultra/BTHIRTY_NINE/talk_minutes": "500",
  "plans/Ultra/BTHIRTY_NINE/unlimited_intl_minutes": "10000",
  "plans/Ultra/BTHIRTY_NINE/wholesale": "W-MRC",
  "plans/Ultra/BTHIRTY_NINE/zero_used_minutes": "1000",
  "plans/Ultra/BTHIRTY_NINE/months": "3",
  "plans/Ultra/NINETEEN/active": "1",
  "plans/Ultra/NINETEEN/aka": "L19",
  "plans/Ultra/NINETEEN/brand_id": "1",
  "plans/Ultra/NINETEEN/bolt_on_types": "recurring,immediate",
  "plans/Ultra/NINETEEN/bolt_ons": "IDDCA_6.25_5,IDDCA_12.5_10,IDDCA_25_20,DATA_500_5,DATA_1024_10,DATA_2048_20,ROAM_500_5,ROAM_1000_10,ROAM_2000_20,GLOBE_10_10",
  "plans/Ultra/NINETEEN/cos_id": "98280",
  "plans/Ultra/NINETEEN/cost": "1900",
  "plans/Ultra/NINETEEN/data_recharge": "PayGo_500_500,PayGo_1024_1024,PayGo_2048_2048",
  "plans/Ultra/NINETEEN/intl_minutes": "125",
  "plans/Ultra/NINETEEN/monthly": "1",
  "plans/Ultra/NINETEEN/name": "Ultra $19",
  "plans/Ultra/NINETEEN/offer_id": "1",
  "plans/Ultra/NINETEEN/months": 1,
  "plans/Ultra/NINETEEN/talk_minutes": "500",
  "plans/Ultra/NINETEEN/unlimited_intl_minutes": "10000",
  "plans/Ultra/NINETEEN/wholesale": "W-SECONDARY",
  "plans/Ultra/NINETEEN/zero_used_minutes": "1000",
  "plans/Ultra/BFORTY_NINE/active": "1",
  "plans/Ultra/BFORTY_NINE/aka": "B49",
  "plans/Ultra/BFORTY_NINE/brand_id": "1",
  "plans/Ultra/BFORTY_NINE/bolt_on_types": "immediate",
  "plans/Ultra/BFORTY_NINE/bolt_ons": "IDDCA_6.25_5,IDDCA_12.5_10,IDDCA_25_20,ROAM_500_5,ROAM_1000_10,ROAM_2000_20,GLOBE_10_10",
  "plans/Ultra/BFORTY_NINE/cos_id": "100007",
  "plans/Ultra/BFORTY_NINE/cost": "14700",
  "plans/Ultra/BFORTY_NINE/data_recharge": "PayGo_500_500,PayGo_1024_1024,PayGo_2048_2048",
  "plans/Ultra/BFORTY_NINE/intl_minutes": "125",
  "plans/Ultra/BFORTY_NINE/monthly": "1",
  "plans/Ultra/BFORTY_NINE/name": "Ultra 4 Month - XL",
  "plans/Ultra/BFORTY_NINE/offer_id": "55",
  "plans/Ultra/BFORTY_NINE/talk_minutes": "500",
  "plans/Ultra/BFORTY_NINE/unlimited_intl_minutes": "10000",
  "plans/Ultra/BFORTY_NINE/wholesale": "W-MRC",
  "plans/Ultra/BFORTY_NINE/zero_used_minutes": "1000",
  "plans/Ultra/BFORTY_NINE/months": "4",
  "plans/Ultra/UVTWENTY/active": "0",
  "plans/Ultra/UVTWENTY/aka": "UV20",
  "plans/Ultra/UVTWENTY/brand_id": "2",
  "plans/Ultra/UVTWENTY/bolt_ons": "IDDCA_6.25_5,IDDCA_12.5_10,IDDCA_25_20,DATA_500_5,DATA_1024_10,DATA_2048_20,ROAM_500_5,ROAM_1000_10,ROAM_2000_20",
  "plans/Ultra/UVTWENTY/bolt_on_types": "recurring,immediate",
  "plans/Ultra/UVTWENTY/cos_id": "98293",
  "plans/Ultra/UVTWENTY/cost": "2000",
  "plans/Ultra/UVTWENTY/data_recharge": "PayGo_500_500,PayGo_1024_1024,PayGo_2048_2048",
  "plans/Ultra/UVTWENTY/intl_minutes": "125",
  "plans/Ultra/UVTWENTY/monthly": "1",
  "plans/Ultra/UVTWENTY/name": "Univision $20",
  "plans/Ultra/UVTWENTY/offer_id": "28",
  "plans/Ultra/UVTWENTY/unlimited_intl_minutes": "5000",
  "plans/Ultra/UVTWENTY/voice_recharge": "",
  "plans/Ultra/UVTWENTY/wholesale": "W-UV-PRIMARY",
  "plans/Ultra/UVTWENTY/zero_used_minutes": "1000",
  "plans/Ultra/UVTHIRTY/active": "0",
  "plans/Ultra/UVTHIRTY/aka": "UV30",
  "plans/Ultra/UVTHIRTY/brand_id": "2",
  "plans/Ultra/UVTHIRTY/bolt_ons": "IDDCA_6.25_5,IDDCA_12.5_10,IDDCA_25_20,DATA_500_5,DATA_1024_10,DATA_2048_20,ROAM_500_5,ROAM_1000_10,ROAM_2000_20",
  "plans/Ultra/UVTHIRTY/bolt_on_types": "recurring,immediate",
  "plans/Ultra/UVTHIRTY/cos_id": "98289",
  "plans/Ultra/UVTHIRTY/cost": "3000",
  "plans/Ultra/UVTHIRTY/data_recharge": "PayGo_500_500,PayGo_1024_1024,PayGo_2048_2048",
  "plans/Ultra/UVTHIRTY/intl_minutes": "250",
  "plans/Ultra/UVTHIRTY/monthly": "1",
  "plans/Ultra/UVTHIRTY/name": "Univision $30",
  "plans/Ultra/UVTHIRTY/offer_id": "29",
  "plans/Ultra/UVTHIRTY/unlimited_intl_minutes": "10000",
  "plans/Ultra/UVTHIRTY/voice_recharge": "",
  "plans/Ultra/UVTHIRTY/wholesale": "W-UV-PRIMARY",
  "plans/Ultra/UVTHIRTY/zero_used_minutes": "1000",
  "plans/Ultra/UVTHIRTYFIVE/active": "0",
  "plans/Ultra/UVTHIRTYFIVE/aka": "UV35",
  "plans/Ultra/UVTHIRTYFIVE/brand_id": "2",
  "plans/Ultra/UVTHIRTYFIVE/bolt_ons": "IDDCA_6.25_5,IDDCA_12.5_10,IDDCA_25_20,DATA_500_5,DATA_1024_10,DATA_2048_20,ROAM_500_5,ROAM_1000_10,ROAM_2000_20",
  "plans/Ultra/UVTHIRTYFIVE/bolt_on_types": "recurring,immediate",
  "plans/Ultra/UVTHIRTYFIVE/cos_id": "98290",
  "plans/Ultra/UVTHIRTYFIVE/cost": "3500",
  "plans/Ultra/UVTHIRTYFIVE/data_recharge": "PayGo_500_500,PayGo_1024_1024,PayGo_2048_2048",
  "plans/Ultra/UVTHIRTYFIVE/intl_minutes": "500",
  "plans/Ultra/UVTHIRTYFIVE/monthly": "1",
  "plans/Ultra/UVTHIRTYFIVE/name": "Univision $35",
  "plans/Ultra/UVTHIRTYFIVE/offer_id": "30",
  "plans/Ultra/UVTHIRTYFIVE/unlimited_intl_minutes": "10000",
  "plans/Ultra/UVTHIRTYFIVE/voice_recharge": "",
  "plans/Ultra/UVTHIRTYFIVE/wholesale": "W-UV-PRIMARY",
  "plans/Ultra/UVTHIRTYFIVE/zero_used_minutes": "1000",
  "plans/Ultra/UVFORTYFIVE/active": "0",
  "plans/Ultra/UVFORTYFIVE/aka": "UV45",
  "plans/Ultra/UVFORTYFIVE/brand_id": "2",
  "plans/Ultra/UVFORTYFIVE/bolt_ons": "IDDCA_6.25_5,IDDCA_12.5_10,IDDCA_25_20,DATA_500_5,DATA_1024_10,DATA_2048_20,ROAM_500_5,ROAM_1000_10,ROAM_2000_20",
  "plans/Ultra/UVFORTYFIVE/bolt_on_types": "recurring,immediate",
  "plans/Ultra/UVFORTYFIVE/cos_id": "98291",
  "plans/Ultra/UVFORTYFIVE/cost": "4500",
  "plans/Ultra/UVFORTYFIVE/data_recharge": "PayGo_500_500,PayGo_1024_1024,PayGo_2048_2048",
  "plans/Ultra/UVFORTYFIVE/intl_minutes": "500",
  "plans/Ultra/UVFORTYFIVE/monthly": "1",
  "plans/Ultra/UVFORTYFIVE/name": "Univision $45",
  "plans/Ultra/UVFORTYFIVE/offer_id": "31",
  "plans/Ultra/UVFORTYFIVE/unlimited_intl_minutes": "10000",
  "plans/Ultra/UVFORTYFIVE/voice_recharge": "",
  "plans/Ultra/UVFORTYFIVE/wholesale": "W-UV-PRIMARY",
  "plans/Ultra/UVFORTYFIVE/zero_used_minutes": "1000",
  "plans/Ultra/UVFIFTY/active": "0",
  "plans/Ultra/UVFIFTY/aka": "UV50",
  "plans/Ultra/UVFIFTY/brand_id": "2",
  "plans/Ultra/UVFIFTY/bolt_ons": "IDDCA_6.25_5,IDDCA_12.5_10,IDDCA_25_20,DATA_500_5,DATA_1024_10,DATA_2048_20,ROAM_500_5,ROAM_1000_10,ROAM_2000_20",
  "plans/Ultra/UVFIFTY/bolt_on_types": "recurring,immediate",
  "plans/Ultra/UVFIFTY/cos_id": "98294",
  "plans/Ultra/UVFIFTY/cost": "5000",
  "plans/Ultra/UVFIFTY/data_recharge": "PayGo_500_500,PayGo_1024_1024,PayGo_2048_2048",
  "plans/Ultra/UVFIFTY/intl_minutes": "1000",
  "plans/Ultra/UVFIFTY/monthly": "1",
  "plans/Ultra/UVFIFTY/name": "Univision $50",
  "plans/Ultra/UVFIFTY/offer_id": "32",
  "plans/Ultra/UVFIFTY/unlimited_intl_minutes": "10000",
  "plans/Ultra/UVFIFTY/voice_recharge": "",
  "plans/Ultra/UVFIFTY/wholesale": "W-UV-PRIMARY",
  "plans/Ultra/UVFIFTY/zero_used_minutes": "1000",
  "plans/Ultra/UVFIFTYFIVE/active": "0",
  "plans/Ultra/UVFIFTYFIVE/aka": "UV55",
  "plans/Ultra/UVFIFTYFIVE/brand_id": "2",
  "plans/Ultra/UVFIFTYFIVE/bolt_ons": "IDDCA_6.25_5,IDDCA_12.5_10,IDDCA_25_20,DATA_500_5,DATA_1024_10,DATA_2048_20,ROAM_500_5,ROAM_1000_10,ROAM_2000_20",
  "plans/Ultra/UVFIFTYFIVE/bolt_on_types": "recurring,immediate",
  "plans/Ultra/UVFIFTYFIVE/cos_id": "17",
  "plans/Ultra/UVFIFTYFIVE/cost": "5500",
  "plans/Ultra/UVFIFTYFIVE/data_recharge": "PayGo_500_500,PayGo_1024_1024,PayGo_2048_2048",
  "plans/Ultra/UVFIFTYFIVE/intl_minutes": "1000",
  "plans/Ultra/UVFIFTYFIVE/monthly": "1",
  "plans/Ultra/UVFIFTYFIVE/name": "Univision $55",
  "plans/Ultra/UVFIFTYFIVE/offer_id": "33",
  "plans/Ultra/UVFIFTYFIVE/unlimited_intl_minutes": "10000",
  "plans/Ultra/UVFIFTYFIVE/voice_recharge": "",
  "plans/Ultra/UVFIFTYFIVE/wholesale": "W-UV-PRIMARY",
  "plans/Ultra/UVFIFTYFIVE/zero_used_minutes": "1000",
  "plans/Ultra/UVSNINETEEN/active": "1",
  "plans/Ultra/UVSNINETEEN/aka": "UVS19",
  "plans/Ultra/UVSNINETEEN/bolt_on_types": "recurring,immediate",
  "plans/Ultra/UVSNINETEEN/bolt_ons": "IDDCA_6.25_5,IDDCA_12.5_10,IDDCA_25_20,DATA_500_5,DATA_1024_10,DATA_2048_20,ROAM_500_5,ROAM_1000_10,ROAM_2000_20",
  "plans/Ultra/UVSNINETEEN/brand_id": "2",
  "plans/Ultra/UVSNINETEEN/cos_id": "98342",
  "plans/Ultra/UVSNINETEEN/cost": "1900",
  "plans/Ultra/UVSNINETEEN/data_recharge": "PayGo_500_500,PayGo_1024_1024,PayGo_2048_2048",
  "plans/Ultra/UVSNINETEEN/intl_minutes": "125",
  "plans/Ultra/UVSNINETEEN/monthly": "1",
  "plans/Ultra/UVSNINETEEN/name": "Univision $19 Select",
  "plans/Ultra/UVSNINETEEN/offer_id": "34",
  "plans/Ultra/UVSNINETEEN/unlimited_intl_minutes": "10000",
  "plans/Ultra/UVSNINETEEN/voice_recharge": "",
  "plans/Ultra/UVSNINETEEN/wholesale": "W-UV-PRIMARY",
  "plans/Ultra/UVSNINETEEN/zero_used_minutes": "1000",
  "plans/Ultra/UVSTWENTYFOUR/active": "1",
  "plans/Ultra/UVSTWENTYFOUR/aka": "UVS24",
  "plans/Ultra/UVSTWENTYFOUR/bolt_on_types": "recurring,immediate",
  "plans/Ultra/UVSTWENTYFOUR/bolt_ons": "IDDCA_6.25_5,IDDCA_12.5_10,IDDCA_25_20,DATA_500_5,DATA_1024_10,DATA_2048_20,ROAM_500_5,ROAM_1000_10,ROAM_2000_20",
  "plans/Ultra/UVSTWENTYFOUR/brand_id": "2",
  "plans/Ultra/UVSTWENTYFOUR/cos_id": "84",
  "plans/Ultra/UVSTWENTYFOUR/cost": "2400",
  "plans/Ultra/UVSTWENTYFOUR/data_recharge": "PayGo_500_500,PayGo_1024_1024,PayGo_2048_2048",
  "plans/Ultra/UVSTWENTYFOUR/intl_minutes": "700",
  "plans/Ultra/UVSTWENTYFOUR/monthly": "1",
  "plans/Ultra/UVSTWENTYFOUR/name": "Univision $24 Select",
  "plans/Ultra/UVSTWENTYFOUR/offer_id": "35",
  "plans/Ultra/UVSTWENTYFOUR/unlimited_intl_minutes": "10000",
  "plans/Ultra/UVSTWENTYFOUR/voice_recharge": "",
  "plans/Ultra/UVSTWENTYFOUR/wholesale": "W-UV-PRIMARY",
  "plans/Ultra/UVSTWENTYFOUR/zero_used_minutes": "1000",
  "plans/Ultra/UVSTWENTYNINE/active": "1",
  "plans/Ultra/UVSTWENTYNINE/aka": "UVS29",
  "plans/Ultra/UVSTWENTYNINE/bolt_on_types": "recurring,immediate",
  "plans/Ultra/UVSTWENTYNINE/bolt_ons": "IDDCA_6.25_5,IDDCA_12.5_10,IDDCA_25_20,DATA_500_5,DATA_1024_10,DATA_2048_20,ROAM_500_5,ROAM_1000_10,ROAM_2000_20",
  "plans/Ultra/UVSTWENTYNINE/brand_id": "2",
  "plans/Ultra/UVSTWENTYNINE/cos_id": "98344",
  "plans/Ultra/UVSTWENTYNINE/cost": "2900",
  "plans/Ultra/UVSTWENTYNINE/data_recharge": "PayGo_500_500,PayGo_1024_1024,PayGo_2048_2048",
  "plans/Ultra/UVSTWENTYNINE/intl_minutes": "250",
  "plans/Ultra/UVSTWENTYNINE/monthly": "1",
  "plans/Ultra/UVSTWENTYNINE/name": "Univision $29 Select",
  "plans/Ultra/UVSTWENTYNINE/offer_id": "36",
  "plans/Ultra/UVSTWENTYNINE/unlimited_intl_minutes": "10000",
  "plans/Ultra/UVSTWENTYNINE/voice_recharge": "",
  "plans/Ultra/UVSTWENTYNINE/wholesale": "W-UV-PRIMARY",
  "plans/Ultra/UVSTWENTYNINE/zero_used_minutes": "1000",
  "plans/Ultra/UVSTHIRTYFOUR/active": "1",
  "plans/Ultra/UVSTHIRTYFOUR/aka": "UVS34",
  "plans/Ultra/UVSTHIRTYFOUR/bolt_on_types": "recurring,immediate",
  "plans/Ultra/UVSTHIRTYFOUR/bolt_ons": "IDDCA_6.25_5,IDDCA_12.5_10,IDDCA_25_20,DATA_500_5,DATA_1024_10,DATA_2048_20,ROAM_500_5,ROAM_1000_10,ROAM_2000_20",
  "plans/Ultra/UVSTHIRTYFOUR/brand_id": "2",
  "plans/Ultra/UVSTHIRTYFOUR/cos_id": "98345",
  "plans/Ultra/UVSTHIRTYFOUR/cost": "3400",
  "plans/Ultra/UVSTHIRTYFOUR/data_recharge": "PayGo_500_500,PayGo_1024_1024,PayGo_2048_2048",
  "plans/Ultra/UVSTHIRTYFOUR/intl_minutes": "0",
  "plans/Ultra/UVSTHIRTYFOUR/monthly": "1",
  "plans/Ultra/UVSTHIRTYFOUR/name": "Univision $34 Select",
  "plans/Ultra/UVSTHIRTYFOUR/offer_id": "37",
  "plans/Ultra/UVSTHIRTYFOUR/unlimited_intl_minutes": "10000",
  "plans/Ultra/UVSTHIRTYFOUR/voice_recharge": "",
  "plans/Ultra/UVSTHIRTYFOUR/wholesale": "W-UV-PRIMARY",
  "plans/Ultra/UVSTHIRTYFOUR/zero_used_minutes": "1000",
  "plans/Ultra/UVSTHIRTYNINE/active": "0",
  "plans/Ultra/UVSTHIRTYNINE/aka": "UVS39",
  "plans/Ultra/UVSTHIRTYNINE/bolt_on_types": "recurring,immediate",
  "plans/Ultra/UVSTHIRTYNINE/bolt_ons": "IDDCA_6.25_5,IDDCA_12.5_10,IDDCA_25_20,DATA_500_5,DATA_1024_10,DATA_2048_20,ROAM_500_5,ROAM_1000_10,ROAM_2000_20",
  "plans/Ultra/UVSTHIRTYNINE/brand_id": "2",
  "plans/Ultra/UVSTHIRTYNINE/cos_id": "98346",
  "plans/Ultra/UVSTHIRTYNINE/cost": "3900",
  "plans/Ultra/UVSTHIRTYNINE/data_recharge": "PayGo_500_500,PayGo_1024_1024,PayGo_2048_2048",
  "plans/Ultra/UVSTHIRTYNINE/intl_minutes": "250",
  "plans/Ultra/UVSTHIRTYNINE/monthly": "1",
  "plans/Ultra/UVSTHIRTYNINE/name": "Univision $39 Select",
  "plans/Ultra/UVSTHIRTYNINE/offer_id": "38",
  "plans/Ultra/UVSTHIRTYNINE/unlimited_intl_minutes": "10000",
  "plans/Ultra/UVSTHIRTYNINE/voice_recharge": "",
  "plans/Ultra/UVSTHIRTYNINE/wholesale": "W-UV-PRIMARY",
  "plans/Ultra/UVSTHIRTYNINE/zero_used_minutes": "1000",
  "plans/Ultra/UVSFORTYFOUR/active": "0",
  "plans/Ultra/UVSFORTYFOUR/aka": "UVS44",
  "plans/Ultra/UVSFORTYFOUR/bolt_on_types": "recurring,immediate",
  "plans/Ultra/UVSFORTYFOUR/bolt_ons": "IDDCA_6.25_5,IDDCA_12.5_10,IDDCA_25_20,DATA_500_5,DATA_1024_10,DATA_2048_20,ROAM_500_5,ROAM_1000_10,ROAM_2000_20",
  "plans/Ultra/UVSFORTYFOUR/brand_id": "2",
  "plans/Ultra/UVSFORTYFOUR/cos_id": "98347",
  "plans/Ultra/UVSFORTYFOUR/cost": "4400",
  "plans/Ultra/UVSFORTYFOUR/data_recharge": "PayGo_500_500,PayGo_1024_1024,PayGo_2048_2048",
  "plans/Ultra/UVSFORTYFOUR/intl_minutes": "2000",
  "plans/Ultra/UVSFORTYFOUR/monthly": "1",
  "plans/Ultra/UVSFORTYFOUR/name": "Univision $44 Select",
  "plans/Ultra/UVSFORTYFOUR/offer_id": "39",
  "plans/Ultra/UVSFORTYFOUR/unlimited_intl_minutes": "10000",
  "plans/Ultra/UVSFORTYFOUR/voice_recharge": "",
  "plans/Ultra/UVSFORTYFOUR/wholesale": "W-UV-PRIMARY",
  "plans/Ultra/UVSFORTYFOUR/zero_used_minutes": "1000",
  "plans/Ultra/UVSFORTYFIVE/active": "1",
  "plans/Ultra/UVSFORTYFIVE/aka": "UVS45",
  "plans/Ultra/UVSFORTYFIVE/bolt_on_types": "recurring,immediate",
  "plans/Ultra/UVSFORTYFIVE/bolt_ons": "IDDCA_6.25_5,IDDCA_12.5_10,IDDCA_25_20,DATA_500_5,DATA_1024_10,DATA_2048_20,ROAM_500_5,ROAM_1000_10,ROAM_2000_20",
  "plans/Ultra/UVSFORTYFIVE/brand_id": "2",
  "plans/Ultra/UVSFORTYFIVE/cos_id": "89",
  "plans/Ultra/UVSFORTYFIVE/cost": "4500",
  "plans/Ultra/UVSFORTYFIVE/data_recharge": "PayGo_500_500,PayGo_1024_1024,PayGo_2048_2048",
  "plans/Ultra/UVSFORTYFIVE/intl_minutes": "0",
  "plans/Ultra/UVSFORTYFIVE/monthly": "1",
  "plans/Ultra/UVSFORTYFIVE/name": "Univision $45 Select",
  "plans/Ultra/UVSFORTYFIVE/offer_id": "40",
  "plans/Ultra/UVSFORTYFIVE/unlimited_intl_minutes": "10000",
  "plans/Ultra/UVSFORTYFIVE/voice_recharge": "",
  "plans/Ultra/UVSFORTYFIVE/wholesale": "W-MRC",
  "plans/Ultra/UVSFORTYFIVE/zero_used_minutes": "1000",
  "plans/Ultra/UVSFORTYNINE/active": "1",
  "plans/Ultra/UVSFORTYNINE/aka": "UVS49",
  "plans/Ultra/UVSFORTYNINE/brand_id": "2",
  "plans/Ultra/UVSFORTYNINE/bolt_on_types": "recurring,immediate",
  "plans/Ultra/UVSFORTYNINE/bolt_ons": "IDDCA_6.25_5,IDDCA_12.5_10,IDDCA_25_20,DATA_500_5,DATA_1024_10,DATA_2048_20,ROAM_500_5,ROAM_1000_10,ROAM_2000_20",
  "plans/Ultra/UVSFORTYNINE/cos_id": "98350",
  "plans/Ultra/UVSFORTYNINE/cost": "4900",
  "plans/Ultra/UVSFORTYNINE/data_recharge": "PayGo_500_500,PayGo_1024_1024,PayGo_2048_2048",
  "plans/Ultra/UVSFORTYNINE/intl_minutes": "2000",
  "plans/Ultra/UVSFORTYNINE/monthly": "1",
  "plans/Ultra/UVSFORTYNINE/name": "Univision $49 Select",
  "plans/Ultra/UVSFORTYNINE/offer_id": "45",
  "plans/Ultra/UVSFORTYNINE/talk_minutes": "inf",
  "plans/Ultra/UVSFORTYNINE/unlimited_intl_minutes": "10000",
  "plans/Ultra/UVSFORTYNINE/wholesale": "W-UV-PRIMARY",
  "plans/Ultra/UVSFORTYNINE/zero_used_minutes": "1000",
  "plans/Ultra/UVSFIFTYFOUR/active": "1",
  "plans/Ultra/UVSFIFTYFOUR/aka": "UVS54",
  "plans/Ultra/UVSFIFTYFOUR/bolt_on_types": "recurring,immediate",
  "plans/Ultra/UVSFIFTYFOUR/bolt_ons": "IDDCA_6.25_5,IDDCA_12.5_10,IDDCA_25_20,DATA_500_5,DATA_1024_10,DATA_2048_20,ROAM_500_5,ROAM_1000_10,ROAM_2000_20",
  "plans/Ultra/UVSFIFTYFOUR/brand_id": "2",
  "plans/Ultra/UVSFIFTYFOUR/cos_id": "98349",
  "plans/Ultra/UVSFIFTYFOUR/cost": "5400",
  "plans/Ultra/UVSFIFTYFOUR/data_recharge": "PayGo_500_500,PayGo_1024_1024,PayGo_2048_2048",
  "plans/Ultra/UVSFIFTYFOUR/intl_minutes": "0",
  "plans/Ultra/UVSFIFTYFOUR/monthly": "1",
  "plans/Ultra/UVSFIFTYFOUR/name": "Univision $54 Select",
  "plans/Ultra/UVSFIFTYFOUR/offer_id": "41",
  "plans/Ultra/UVSFIFTYFOUR/unlimited_intl_minutes": "10000",
  "plans/Ultra/UVSFIFTYFOUR/voice_recharge": "",
  "plans/Ultra/UVSFIFTYFOUR/wholesale": "W-MRC",
  "plans/Ultra/UVSFIFTYFOUR/zero_used_minutes": "1000"
}