[
     { "name": "request",                "type": "string",   "desc": "Original request encoded as JSON"                                    },
     { "name": "phone_number",           "type": "string",   "desc": "Ultra Mobile Phone Number (if success)"                              },
     { "name": "customer_balance",       "type": "integer",  "desc": "Account value after load (in cents) (if success)"                    },
     { "name": "service_expires_epoch",  "type": "epoch",    "desc": "UNIX Epoch timestamp of service expiry (implicit UTC) (if success)"  }
]
