[
    { "name": "success",                "type": "boolean",  "desc": "Was the payment successfully scheduled?"                             },
    { "name": "errors",                 "type": "string[]", "desc": "What were the errors (unless success)?"                              },
    { "name": "warnings",               "type": "string[]", "desc": "What were the warnings?"                                             },
    { "name": "partner_tag",            "type": "string",   "desc": "Partner-provided tag, from parameters"                               },
    { "name": "ultra_trans_epoch",      "type": "epoch",    "desc": "UNIX Epoch timestamp of transaction (implicit UTC)"                  }
]
