[
              {
                  "name": "reason",
                  "type": "string",
                  "required": true,
                  "validation": { "min_strlen": 4 },
                  "desc": "Reason of the credit"
              },
              {
                  "name": "agent_name",
                  "type": "string",
                  "required": true,
                  "validation": { },
                  "desc": "Agent making the request"
              },
              {
                  "name": "customercare_event_id",
                  "type": "integer",
                  "required": true,
                  "validation": { },
                  "desc": "Identifier of the CS interaction"
              }
]
