{
  "commands":
  {
      "provisioning__ProvisionBasicOrangeCustomerAsync":
      {
          "desc": "Creates an Ultra customer using an Orange SIM, sets up their basic data, leaves it in a provisioned state.",
          "parameters":
          [
              "common-parameters.json",

              {
                  "name": "actcode",
                  "type": "string",
                  "required": true,
                  "validation": { "min_strlen": 11, "max_strlen": 11 , "actcode": "valid_actcode" },
                  "desc": "Customer's Actcode"
              },
              {
                  "name": "preferred_language",
                  "type": "string",
                  "required": false,
                  "validation": { "matches": [ "EN", "ES", "ZH" ] },
                  "desc": "Preferred language"
              },
              {
                  "name": "customerZip",
                  "type": "string",
                  "required": true,
                  "validation": { "zipcode": "US" , "zipcode" : "in_coverage"  },
                  "desc": "Billing/Customer Zipcode. Used for number allocation."
              }
          ],

          "returns":
          [
              "common-returns.json"
          ]
      },

      "provisioning__ProvisionBasicNewCustomerAsync":
      {
          "desc": "Creates an Ultra customer, sets up their basic data, leaves it in a provisioned state.",
          "parameters":
          [
              "common-parameters.json",

              {
                  "name": "ICCID",
                  "type": "string",
                  "required": true,
                  "validation": { "min_strlen": 19, "max_strlen": 19 , "iccid": "activate_type_purple" , "MVNE": "2" },
                  "desc": "ICCID to Activate (19 digits)."
              },
              {
                  "name": "targetPlan",
                  "type": "string",
                  "required": true,
                  "validation": { "active_plan": 1 },
                  "desc": "Plan to select"
              },
              {
                  "name": "customerZip",
                  "type": "string",
                  "required": true,
                  "validation": { "zipcode": "US" },
                  "desc": "Billing/Customer Zipcode. Used for number allocation."
              },
              {
                  "name": "preferred_language",
                  "type": "string",
                  "required": false,
                  "validation": { "matches": [ "EN", "ES", "ZH" ] },
                  "desc": "Preferred language"
              }
          ],

          "returns":
          [
              "common-returns.json"
          ]
      }
  }
}
