{
  "meta": { "version": "1" },
  "security_meta": { "RBAC": "univision group" },
  "brands": ["UNIVISION"],
  "description": "mock up of Univision API partner definitions",

  "commands":
  {
    "portal-public.json": "include",
    "portal.json": "include",
    "webpospayments.json": "include",
    "provisioning-public-include.json": "include"
  }
}
