{
	"promo_redeem_inactive": {
		"EN": "Please activate your account first before attempting to redeem this promotion.",
		"ES": "Por favor active su cuenta antes de usar esta promocion.",
		"ZH": "\u8bf7\u5728\u4f7f\u7528\u6b64\u9879\u4f18\u60e0\u4e4b\u524d\u5148\u6fc0\u6d3b\u60a8\u7684\u8d26\u6237\u3002"
	},
	"promo_already_redeemed": {
		"EN": "You have already redeemed this promotion.",
		"ES": "Usted ya ha redimido esta promocion.",
		"ZH": "\u60a8\u5df2\u7ecf\u4f7f\u7528\u8fc7\u6b64\u9879\u4f18\u60e0\u3002"
	},
	"promo_not_qualify": {
		"EN": "You do not qualify for this promotion.",
		"ES": "Usted no califica para esta promocion.",
		"ZH": "\u60a8\u4e0d\u80fd\u4eab\u53d7\u6b64\u9879\u4f18\u60e0\u3002"
	},
	"promo_missing_cc": {
		"EN": "You do not have a credit card on file.",
		"ES": "No tienes una tarjeta de credito documentada.",
		"ZH": "\u60a8\u6ca1\u6709\u5728\u7cfb\u7edf\u4e2d\u4fdd\u5b58\u8fc7\u4fe1\u7528\u5361\u4fe1\u606f\u3002"
	},
	"system_error": {
		"EN": "A system error has occurred.",
		"ES": "Se ocurrio un error de sistema.",
		"ZH": "\u53d1\u751f\u7cfb\u7edf\u9519\u8bef\u3002"
	},
	"promo_not_exist": {
		"EN": "This promotion does not exist.",
		"ES": "Esta promocion no existe.",
		"ZH": "\u6b64\u9879\u4f18\u60e0\u4e0d\u5b58\u5728\u3002"
	},
	"promo_not_available": {
		"EN": "This promotion is not available.",
		"ES": "Esta promocion no esta disponible.",
		"ZH": "\u6b64\u9879\u4f18\u60e0\u4e0d\u53ef\u7528\u3002"
	},
	"l59_4g_lte": {
		"EN": "Great News! The $59 plan now has 2.5GB of 4G LTE data. The new data amounts will go into effect on your next renewal date.",
		"ES": "Buenas noticias! El plan de $59 ahora tiene 2.5 GB de datos 4G LTE. Las nuevas cantidades de datos entraran en la proxima fecha de renovacion.",
		"ZH": "Great News! The $59 plan now has 2.5GB of 4G LTE data. The new data amounts will go into effect on your next renewal date."
	},
	"data_4g_lte": {
		"EN": "Great news from Ultra. Text DATA to 6700 to get your 4G LTE data balance. Keep track of how much 4G you have using SMS or by managing your account at Ultra.me",
		"ES": "Great news from Ultra. Text DATA to 6700 to get your 4G LTE data balance. Keep track of how much 4G you have using SMS or by managing your account at Ultra.me",
		"ZH": "Great news from Ultra. Text DATA to 6700 to get your 4G LTE data balance. Keep track of how much 4G you have using SMS or by managing your account at Ultra.me"
	},
	"iphone5": {
		"EN": "iPhone 5 users: With the iOS8 update you can now enable LTE data. MMS settings must be reset after upgrading. Get instructions at http:\/\/ultra.me\/faq\/ios8",
		"ES": "iPhone 5 users: With the iOS8 update you can now enable LTE data. MMS settings must be reset after upgrading. Get instructions at http:\/\/ultra.me\/faq\/ios8",
		"ZH": "iPhone 5 users: With the iOS8 update you can now enable LTE data. MMS settings must be reset after upgrading. Get instructions at http:\/\/ultra.me\/faq\/ios8"
	},
	"iphone4": {
		"EN": "iPhone 4S users: You must re-enter your MMS settings after upgrading to iOS8. Get instructions at http:\/\/ultra.me\/faq\/ios8",
		"ES": "iPhone 4S users: You must re-enter your MMS settings after upgrading to iOS8. Get instructions at http:\/\/ultra.me\/faq\/ios8",
		"ZH": "iPhone 4S users: You must re-enter your MMS settings after upgrading to iOS8. Get instructions at http:\/\/ultra.me\/faq\/ios8"
	},
	"intl_call_problems": {
		"EN": "We have fixed recent INTL call problems. If your service was affected reply with the word PURPLE and we will give you a $2.50 credit. Thanks for using Ultra.",
		"ES": "Hemos fijado los problemas actuales de llamadas INTL. Si tu servicio se vio afectado responder con la palabra PURPLE y le daremos un credito de $2.50. Gracias.",
		"ZH": "We have fixed recent INTL call problems. If your service was affected reply with the word PURPLE and we will give you a $2.50 credit. Thanks for using Ultra."
	},
	"promotion_credit": {
		"EN": "Thanks for your loyalty to Ultra. Your Ultra Wallet has been credited with $__params__amount.",
		"ES": "Gracias por su lealtad a Ultra. Tu Cartera Ultra ha sido acreditado con $__params__amount.",
		"ZH": "\u611f\u8c22\u60a8\u6210\u4e3aUltra\u7684\u5fe0\u5b9e\u7528\u6237\u3002\u60a8\u7684Ultra\u94b1\u5305\u5df2\u7ecf\u6536\u5230$__params__amount\u7684\u56de\u9988\u5956\u52b1\u3002"
	},
	"promotion_not_eligible": {
		"EN": "You are not eligible for this promotion.",
		"ES": "Usted no es elegible para esta promocion.",
		"ZH": "\u60a8\u4e0d\u80fd\u4eab\u53d7\u6b64\u9879\u4f18\u60e0\u3002"
	},
	"promotion_block": {
		"EN": "We are sorry but this offer can only be redeemed once. Our records show that we already credited your account.",
		"ES": "Lo sentimos pero esta oferta solo se puede canjear una vez. Nuestros registros indican que ya ha recibido esta oferta.",
		"ZH": "\u5f88\u62b1\u6b49\uff0c\u6b64\u9879\u4f18\u60e0\u53ea\u80fd\u4f7f\u7528\u4e00\u6b21\u3002\u6211\u4eec\u7684\u8bb0\u5f55\u663e\u793a\u60a8\u7684\u8d26\u6237\u5df2\u7ecf\u4f7f\u7528\u8fc7\u6b64\u9879\u4f18\u60e0\u3002"
	},
	"promotion_inactive": {
		"EN": "Sorry but we cannot perform this request because the program is no longer active.",
		"ES": "Lo sentimos pero no podemos realizar esta solicitud debido a que el programa ya no esta activo.",
		"ZH": "Sorry but we cannot perform this request because the program is no longer active."
	},
	"julyplanrefresh": {
		"EN": "Ultra Mobile has upgraded its plans. Enjoy unlimited international talk. 4G LTE data. And 500mb of 4G LTE on the $29 plan. See more at http:\/\/ultra.me\/updates",
		"ES": "Ultra ha actualizado sus planes. Disfrute llamadas internacionales ilimitadas. Y datos 4G LTE. Ahora 500MB 4G LTE en el plan $29. Visita http:\/\/ultra.me\/updates",
		"ZH": "Ultra Mobile has upgraded its plans. Enjoy unlimited international talk. 4G LTE data. And 500mb of 4G LTE on the $29 plan. See more at http:\/\/ultra.me\/updates"
	},
	"activate_newphone": {
		"EN": "Welcome to Ultra Mobile. Your phone number is __params__msisdn",
		"ES": "Bienvenidos a Ultra Mobile. Tu numero es __params__msisdn",
		"ZH": "\u6b22\u8fce\u4f7f\u7528Ultra Mobile\uff01\u60a8\u7684\u7535\u8bdd\u53f7\u7801\u662f __params__msisdn"
	},
	"activate_portin": {
		"EN": "Welcome to Ultra Mobile. Your phone number - __params__msisdn - has been successfully transferred to Ultra from your old carrier.",
		"ES": "Bienvenido a Ultra Mobile! Tu numero de telefono - __params__msisdn - se ha transferido con exito a Ultra de su compania anterior.",
		"ZH": "\u6b22\u8fce\u4f7f\u7528Ultra Mobile\uff01\u60a8\u7684\u7535\u8bdd\u53f7\u7801 - __params__msisdn - \u5df2\u7ecf\u4ece\u4ee5\u524d\u7684\u8fd0\u8425\u5546\u6210\u529f\u5730\u8f6c\u5230\u4e86Ultra\u3002"
	},
	"activate_help": {
		"EN": "Easy plan management from Ultra. Your mobile account home: https:\/\/my.ultra.me\/t\/__params__login_token\/. Via SMS text BAL to 6700. Speak to care by calling 611.",
		"ES": "Es facil de manejar tu plan. Tu cuenta celular: https:\/\/my.ultra.me\/t\/__params__login_token\/. Envia el texto BAL a 6700 o habla con la atencion al cliente marca 611",
		"ZH": "\u60a8\u73b0\u5728\u53ef\u4ee5\u901a\u8fc7\u624b\u673a\u8f7b\u677e\u7ba1\u7406Ultra\u5305\u6708\u8ba1\u5212\u3002\u60a8\u7684\u65b0\u624b\u673a\u8d26\u6237\u4e3b\u9875: https:\/\/my.ultra.me\/t\/__params__login_token\/ \u3002\u60a8\u8fd8\u53ef\u4ee5\u53d1\u9001\u77ed\u4fe1BAL\u81f36700\uff0c\u6216\u62e8\u6253611\u8054\u7cfb\u5ba2\u6237\u670d\u52a1\u90e8\u3002"
	},
	"activate_datahelp": {
		"EN": "Please SMS \"SETUP\" to 6700 to receive internet data settings configuration.",
		"ES": "Please SMS \"SETUP\" to 6700 to receive internet data settings configuration.",
		"ZH": "Please SMS \"SETUP\" to 6700 to receive internet data settings configuration."
	},
	"activate_planinfo": {
		"EN": "Your Plan is good for __params__days days. Your plan is due for recharge on __params__renewal_date at 11:59 PM PST. Visit http:\/\/www.ultra.me\/\/terms for Terms and Conditions.",
		"ES": "Tu Plan es valida por __params__days dias. Tu plan esta prevista para recarga de __params__renewal_date a las 11:59 PM PST. Visita ultra.me\/\/terms de Terminos de Uso.",
		"ZH": "\u60a8\u7684\u5305\u6708\u8ba1\u5212\u7684\u6709\u6548\u671f\u4e3a__params__days\u5929\u3002\u60a8\u7684\u5305\u6708\u8ba1\u5212\u7684\u8fc7\u671f\u65f6\u95f4\u4e3aparams_renewal_date 11:59 PM PT\u3002\u8bf7\u8bbf\u95ee http:\/\/www.ultra.me\/terms \u9605\u8bfb\u6211\u4eec\u7684\u670d\u52a1\u6761\u6b3e\u53ca\u6761\u4ef6\u3002"
	},
	"balanceadd_recharge": {
		"EN": "__params__reload_amount has been credited to your account. It will be automatically applied to your next monthly recharge on __params__renewal_date.",
		"ES": "__params__reload_amount ha sido acreditado a tu cuenta. Se aplicara automaticamente el mes proximo en __params__renewal_date.",
		"ZH": "__params__reload_amount\u5df2\u7ecf\u88ab\u6dfb\u52a0\u5230\u60a8\u7684\u8d26\u6237\u4e2d\u3002\u5728\u4e0b\u4e2a\u6708\u7684\u5145\u503c\u65e5\u671f__params__renewal_date\u5b83\u5c06\u88ab\u81ea\u52a8\u5145\u503c\u3002"
	},
	"balanceadd_reload": {
		"EN": "__params__gizmo_amount has been added to your Ultra wallet. Add more 4G LTE Data or INTL Call Credit at https:\/\/my.ultra.me or txt UPINTL or UPDATA to 6700.",
		"ES": "__params__gizmo_amount ha sido acreditado a tu Ultra Cartera. Agrega mas 4G LTE Data o INTL Call Credit a https:\/\/my.ultra.me o envia UPINTL o UPDATA a 6700.",
		"ZH": "__params__gizmo_amount\u5df2\u7ecf\u88ab\u6dfb\u52a0\u5230\u60a8\u7684Ultra\u94b1\u5305\u4e2d\u3002\u60a8\u53ef\u4ee5\u901a\u8fc7\u8bbf\u95ee https:\/\/my.ultra.me \u6216\u8005\u53d1\u77ed\u4fe1UPINTL\u6216UPDATA\u81f36700 - \u8d2d\u4e70\u989d\u5916\u7684\u56fd\u9645\u957f\u9014\u901a\u8bdd\u65f6\u95f4\u62164G LTE\u4e0a\u7f51\u6570\u636e\u91cf\u3002"
	},
	"balanceadd_resume": {
		"EN": "Thank you for paying your monthly renewal. Your Ultra service has been reactivated and will renew on __params__renewal_date.",
		"ES": "Gracias por pagar tu subscripcion mensual. Tu servicio de Ultra se reactivo y se renueve en __params__renewal_date.",
		"ZH": "\u611f\u8c22\u60a8\u7eed\u7ea6\u81ea\u5df1\u7684\u5305\u6708\u8ba1\u5212\u3002\u60a8\u7684Ultra\u670d\u52a1\u5df2\u7ecf\u88ab\u518d\u6b21\u6fc0\u6d3b\u5e76\u5c06\u5728__params__renewal_date\u7eed\u7ea6\u3002"
	},
	"recurring_boltons_no_funds": {
		"EN": "We were unable to process your monthly __params__bolt_ons due to processing problems. Visit https:\/\/my.ultra.me to reattempt the purchase.",
		"ES": "No pudimos procesar tu __params__bolt_ons mensual por un error del sistema. Visita https:\/\/m.ultra.me o marca 611 para reintentar la compra.",
		"ZH": "\\u6211\\u4eec\\u65e0\\u6cd5\\u5904\\u7406\\u60a8\\u7684(__params__bolt_ons) \\u8981\\u6c42\\u3002 \\u8bf7\\u8bbf\\u95eehttps:\/\/my.ultra.me \\u6216\\u62e8\\u6253611\\u6765\\u91cd\\u65b0\\u8d2d\\u4e70\\u3002"
	},
	"recurring_boltons_error": {
		"EN": "We were unable to process your monthly __params__bolt_ons due to an unexpected system error. Please visit https:\/\/my.ultra.me to reattempt the purchase.",
		"ES": "Nosotros no pudimos procesar tu mensual __params__bolt_ons debido a un error del sistema. Por favor visita https:\/\/my.ultra.me para intentar hacer la compra otra vez.",
		"ZH": "\u7531\u4e8e\u610f\u5916\u7684\u7cfb\u7edf\u6545\u969c\u6211\u4eec\u65e0\u6cd5\u5904\u7406\u60a8\u6bcf\u6708\u7684__params__bolt_ons\u3002\u8bf7\u767b\u5f55 https:\/\/my.ultra.me \u91cd\u65b0\u8d2d\u4e70\u3002"
	},
	"bolton_success_recurring": {
		"EN": "Your monthly __params__bolt_on was successfully processed as part of Ultra Mobile Personal Plan.",
		"ES": "Tu mensual __params__bolt_on fue realizado con exito como parte del Plan Personal de Ultra Mobile.",
		"ZH": "\u60a8\u6bcf\u6708\u7684__params__bolt_on\u4f5c\u4e3a\u60a8Ultra Mobile\u79c1\u4eba\u5b9a\u5236\u8ba1\u5212\u7684\u4e00\u90e8\u5206\u5df2\u7ecf\u5904\u7406\u6210\u529f\u3002"
	},
	"flex_boltons_success_recurring": {
		"EN": "The following add-ons were successfully purchased as part of your renewal: __params__shared_data 4G LTE Data. $__params__shared_ild INTL Credit.",
		"ES": "Los siguientes complementos fueron adquiridos exitosamente como parte de tu renovacion: __params__shared_data de datos 4G LTE. $__params__shared_ild creditos INTL.",
		"ZH": "\u4f5c\u4e3a\u60a8\u8ba1\u5212\u7eed\u7ea6\u7684\u4e00\u90e8\u5206\u4e0b\u5217\u989d\u5916\u8d2d\u4e70\u7684\u9879\u76ee\u5df2\u7ecf\u8d2d\u4e70\u6210\u529f\uff1a__params__shared_data\u76844G LTE\u9ad8\u901f\u4e0a\u7f51\u6d41\u91cf\uff1b$__params__shared_ild\u7684INTL\u56fd\u9645\u957f\u9014\u8bdd\u8d39\u8865\u8d34\u3002"
	},
	"flex_boltons_fail_recurring": {
		"EN": "Your monthly plan was paid and renewed today however we were not able to renew your add-ons. Visit your account to purchase these items separately.",
		"ES": "Su plan mensual fue pagado y renovado hoy, sin embargo, no fue posible renovar sus complementos. Visite su cuenta para comprar estos \u00edtems por separado.",
		"ZH": "\u60a8\u7684\u5305\u6708\u8ba1\u5212\u5df2\u4e8e\u4eca\u5929\u5145\u503c\u5e76\u7eed\u7ea6\uff1b\u7136\u800c\u6211\u4eec\u65e0\u6cd5\u7eed\u7ea6\u60a8\u7684\u989d\u5916\u8d2d\u4e70\u9879\u76ee\u3002\u8bf7\u767b\u5f55\u60a8\u7684\u7f51\u4e0a\u8d26\u6237\u5355\u72ec\u8d2d\u4e70\u8fd9\u4e9b\u989d\u5916\u7684\u9879\u76ee\u3002"
	},
	"flex_shared_data_bolton_success_recurring": {
		"EN": "The following add-ons were successfully purchased as part of your renewal: __params__shared_data 4G LTE Data.",
		"ES": "Los siguientes complementos fueron adquiridos exitosamente como parte de tu renovacion: __params__shared_data de datos 4G LTE.",
		"ZH": "\u4f5c\u4e3a\u60a8\u8ba1\u5212\u7eed\u7ea6\u7684\u4e00\u90e8\u5206\u4e0b\u5217\u989d\u5916\u8d2d\u4e70\u7684\u9879\u76ee\u5df2\u7ecf\u8d2d\u4e70\u6210\u529f\uff1a__params__shared_data\u76844G LTE\u9ad8\u901f\u4e0a\u7f51\u6d41\u91cf"
	},
	"flex_shared_ild_bolton_success_recurring": {
		"EN": "The following add-ons were successfully purchased as part of your renewal: $__params__shared_ild INTL Credit.",
		"ES": "Los siguientes complementos fueron adquiridos exitosamente como parte de tu renovacion: $__params__shared_ild creditos INTL.",
		"ZH": "\u4f5c\u4e3a\u60a8\u8ba1\u5212\u7eed\u7ea6\u7684\u4e00\u90e8\u5206\u4e0b\u5217\u989d\u5916\u8d2d\u4e70\u7684\u9879\u76ee\u5df2\u7ecf\u8d2d\u4e70\u6210\u529f\uff1a$__params__shared_ild\u7684INTL\u56fd\u9645\u957f\u9014\u8bdd\u8d39\u8865\u8d34\u3002"
	},
	"bolton_success_immediate": {
		"EN": "Your __params__bolt_on has been successfully processed.",
		"ES": "Tu __params__bolt_on se proceso exitosamente.",
		"ZH": "\u6211\u4eec\u5df2\u7ecf\u6210\u529f\u5904\u7406\u597d\u60a8\u7684__params__bolt_on\u3002"
	},
	"flex_shared_data_bolton_success_immediate": {
		"EN": "Your __params__shared_data 4G LTE Data purchase has been successfully processed.",
		"ES": "Su compra de __params__shared_data datos 4G LTE ha sido procesada exitosamente.",
		"ZH": "\u60a8\u5df2\u7ecf\u6210\u529f\u8d2d\u4e70__params__shared_data\u76844G LTE\u9ad8\u901f\u4e0a\u7f51\u6d41\u91cf\u3002"
	},
	"flex_shared_ild_bolton_success_immediate": {
		"EN": "Your $__params__shared_ild INTL Credit purchase has been successfully processed.",
		"ES": "Su compra de $__params__shared_ild Creditos INTL ha sido proesada exitosamente.",
		"ZH": "\u60a8\u5df2\u7ecf\u6210\u529f\u8d2d\u4e70$__params__shared_ild\u7684INTL\u56fd\u9645\u957f\u9014\u8bdd\u8d39\u8865\u8d34\u3002"
	},
	"data_block_100_percent": {
		"EN": "You have used 100% of your 4G LTE data. Visit https:\/\/my.ultra.me\/data or text UPDATA to 6700 to add more 4G LTE data. Add 500MB for just $5.00",
		"ES": "Has usado 100% de tus datos 4G. Visita https:\/\/my.ultra.me\/data o envia UPDATA a 6700 para agregar mas datos 4G LTE. Agrega 500MB por solamente $5.00",
		"ZH": "\u60a8\u5df2\u7ecf100%\u7528\u5c3d\u4e86\u81ea\u5df1\u76844G LTE\u4e0a\u7f51\u6570\u636e\u91cf\u3002\u8bbf\u95ee https:\/\/my.ultra.me\/data \u6216\u53d1\u77ed\u4fe1UPDATA\u81f36700\u8d2d\u4e70\u66f4\u591a\u7684\u4e0a\u7f51\u6570\u636e\u91cf\u3002\u53ea\u9700$5.00\u5373\u53ef\u589e\u52a0500MB\u76844G LTE\u4e0a\u7f51\u6570\u636e\u91cf\u3002"
	},
	"data_throttle_100_percent": {
		"EN": "You have used 100% of your 4G LTE data. Unlimited data will continue slower speeds. Visit https:\/\/my.ultra.me\/data or text UPDATA to 6700 for more 4G LTE.",
		"ES": "Has usado 100% de tus datos 4G. Datos illimitados siguen a velocidades mas lentas. Visita https:\/\/my.ultra.me\/data o manda UPDATA a 6700 para mas datos 4G.",
		"ZH": "\u60a8\u5df2\u7ecf100%\u7528\u5c3d\u4e86\u81ea\u5df1\u76844G LTE\u4e0a\u7f51\u6570\u636e\u91cf\u3002\u60a8\u53ef\u4ee5\u7ee7\u7eed\u4f7f\u7528\u4f4e\u901f\u7684\u65e0\u9650\u4e0a\u7f51\u6570\u636e\u91cf\u3002\u8981\u8d2d\u4e70\u66f4\u591a\u76844G LTE\u4e0a\u7f51\u6570\u636e\u91cf - \u8bbf\u95ee https:\/\/my.ultra.me\/data \u6216\u53d1\u77ed\u4fe1UPDATA\u81f36700\u3002"
	},
	"data_100_percent": {
		"EN": "You have used 100% of your 4G LTE and are now using 3G DataXtra. Buy more 4G LTE: https:\/\/my.ultra.me\/t\/__params__login_token\/data or text UPDATA to 6700.",
		"ES": "Agotaste 100% de tus 4GLTE y ahora estas usando datos 3G de alta velocidad. Compra mas 4G LTE: https:\/\/my.ultra.me\/t\/1234567890abcd\/data o envida UPDATA al 6700",
		"ZH": "\\u60a8\\u5df2\\u7ecf100%\\u7528\\u5c3d\\u4e864G LTE\\u4e0a\\u7f51\\u6d41\\u91cf\\u3002\\u73b0\\u5728\\u5f00\\u59cb\\u4f7f\\u75283G\\u9ad8\\u901f\\u4e0a\\u7f51\\u30024G LTE\\u5145\\u503c: https:\/\/my.ultra.me\/t\/__params__login_token\/data"
	},
	"data_95_percent": {
		"EN": "You have used 95% of your 4G LTE and will continue with 3G DataXtra. Buy more 4G LTE: https:\/\/my.ultra.me\/t\/__params__login_token\/data or text UPDATA to 6700.",
		"ES": "Has usado el 95% de tus 4G LTE y continuaras con 3G de alta velocidad. Compra mas 4G LTE:https:\/\/my.ultra.me\/t\/__params__login_token\/datao envida UPDATA al 6700",
		"ZH": "\\u60a8\\u5df2\\u7ecf\\u7528\\u5c3d\\u4e8695%\\u76844G LTE\\u4e0a\\u7f51\\u6d41\\u91cf\\u3002\\u5c06\\u5f00\\u59cb\\u4f7f\\u75283G\\u9ad8\\u901f\\u4e0a\\u7f51\\u30024G LTE\\u5145\\u503c: https:\/\/my.ultra.me\/t\/__params__login_token\/data"
	},
	"data_3g_100_percent": {
		"EN": "You have used 100% of your 3G data. Unlimited data continues at slower speeds. Buy more 4G LTE: https:\/\/my.ultra.me\/t\/__params__login_token\/data or text UPDATA to 6700",
		"ES": "Usaste 100% de tus datos 3G. Datos ilimitados continuaran a menor velocidad. Compra mas 4G LTE: https:\/\/my.ultra.me\/t\/__params__login_token\/data o envida UPDATA al 6700",
		"ZH": "\\u60a8\\u5df2\\u7ecf100%\\u7528\\u5c3d\\u4e863G\\u9ad8\\u901f\\u4e0a\\u7f51\\u6d41\\u91cf\\u3002\\u73b0\\u5728\\u5f00\\u59cb\\u4f7f\\u7528\\u65e0\\u9650\\u4f4e\\u901f\\u4e0a\\u7f51\\u30024G LTE\\u5145\\u503c: my.ultra.me\/t\/__params__login_token"
	},
	"data_3g_95_percent": {
		"EN": "You have used 95% of your 3G DataXtra. Unlimited data will continue at slower speeds. Buy more 4G LTE: https:\/\/my.ultra.me\/t\/__params__login_token\/data",
		"ES": "Has usado el 95% de tus datos 3G de alta velocidad. Datos Ilimitados continuaran a menor velocidad. Compra mas 4G LTE:https:\/\/my.ultra.me\/t\/__params__login_token\/data",
		"ZH": "\\u60a8\\u5df2\\u7ecf95%\\u7528\\u5c3d\\u4e863G\\u9ad8\\u901f\\u4e0a\\u7f51\\u6d41\\u91cf\\u3002\\u73b0\\u5728\\u5f00\\u59cb\\u4f7f\\u7528\\u65e0\\u9650\\u4f4e\\u901f\\u4e0a\\u7f51\\u30024G LTE\\u5145\\u503c: my.ultra.me\/t\/__params__login_token"
	},
	"data_throttle_95_percent": {
		"EN": "You have used 95% of your 4G LTE data. Unlimited data will continue slower speeds. Visit https:\/\/my.ultra.me\/data or text UPDATA to 6700 for more 4G LTE.",
		"ES": "Has usado 95% de tus datos 4G. Datos illimitados siguen a velocidades mas lentas. Visita https:\/\/my.ultra.me\/data o manda UPDATA a 6700 para mas datos 4G.",
		"ZH": "\u60a8\u5df2\u7ecf95%\u7528\u5c3d\u4e86\u81ea\u5df1\u76844G LTE\u4e0a\u7f51\u6570\u636e\u91cf\u3002\u60a8\u53ef\u4ee5\u7ee7\u7eed\u4f7f\u7528\u4f4e\u901f\u7684\u65e0\u9650\u4e0a\u7f51\u6570\u636e\u91cf\u3002\u8981\u8d2d\u4e70\u66f4\u591a\u76844G LTE\u4e0a\u7f51\u6570\u636e\u91cf - \u8bbf\u95ee https:\/\/my.ultra.me\/data \u6216\u53d1\u77ed\u4fe1UPDATA\u81f36700\u3002"
	},
	"data_additional_95_percent": {
		"EN": "You have used 95% of your 4G additional data. Visit https:\/\/my.ultra.me\/data or text UPDATA to 6700 for more 4G LTE.",
		"ES": "Has utilizado 95% de los datos 4G adicionales. Visita https:\/\/my.ultra.me\/data o manda UPDATA a 6700 para mas datos 4G.",
		"ZH": "\u60a8\u5df2\u7ecf\u4f7f\u7528\u4e8695%\u989d\u5916\u8d2d\u4e70\u76844G\u4e0a\u7f51\u6570\u636e\u91cf\u3002\u5982\u9700\u8d2d\u4e70\u66f4\u591a - \u53d1\u77ed\u4fe1UPDATA\u81f36700 - \u83b7\u5f97\u4e0a\u7f51\u6570\u636e\u91cf\u5145\u503c\u83dc\u5355\u3002"
	},
	"data_additional_100_percent": {
		"EN": "You have used 100% of your 4G additional data. Visit https:\/\/my.ultra.me\/data or text UPDATA to 6700 for more 4G LTE.",
		"ES": "Has utilizado 100% de los datos 4G adicionales. Visita https:\/\/my.ultra.me\/data o manda UPDATA a 6700 para mas datos 4G.",
		"ZH": "\u60a8\u5df2\u7ecf\u4f7f\u7528\u4e86100%\u989d\u5916\u8d2d\u4e70\u76844G\u4e0a\u7f51\u6570\u636e\u91cf\u3002\u5982\u9700\u8d2d\u4e70\u66f4\u591a - \u53d1\u77ed\u4fe1UPDATA\u81f36700 - \u83b7\u5f97\u4e0a\u7f51\u6570\u636e\u91cf\u5145\u503c\u83dc\u5355\u3002"
	},
	"data_95_percent_no_bolt": {
		"EN": "You have used 95% of your 4G LTE data. Data will be shut off once you reach 100% usage. Visit https:\/\/my.ultra.me\/data or text UPDATA to 6700 for more 4G LTE.",
		"ES": "Has usado 95% de tus datos 4G LTE. Tus datos se apagan cuando uses 100%. Visita https:\/\/my.ultra.me\/data o manda UPDATA a 6700 para mas datos 4G.",
		"ZH": "\u60a8\u5df2\u7ecf\u4f7f\u7528\u4e8695%\u76844G LTE\u4e0a\u7f51\u6570\u636e\u91cf\u3002\u5f53\u60a8\u7684\u4f7f\u7528\u91cf\u8fbe\u5230100%\u65f6\u4e0a\u7f51\u5c06\u81ea\u52a8\u5173\u95ed\u3002"
	},
	"data_100_percent_no_bolt": {
		"EN": "You have used 100% of your 4G LTE data. Visit https:\/\/my.ultra.me\/data or text UPDATA to 6700 for more 4G LTE.",
		"ES": "Has usado 100% de tus datos 4G. Visita https:\/\/my.ultra.me\/data o manda UPDATA a 6700 para mas datos 4G.",
		"ZH": "\u60a8\u5df2\u7ecf100%\u7528\u5c3d\u4e86\u81ea\u5df1\u76844G LTE\u4e0a\u7f51\u6570\u636e\u91cf\u3002"
	},
	"data_recharged": {
		"EN": "Your data recharge request of __params__data_MBMB has processed. Visit https:\/\/my.ultra.me\/data or text UPDATA to 6700 to buy more data anytime.",
		"ES": "Tu solicitud de recarga de datos de __params__data_MBMB se proceso. Visita https:\/\/my.ultra.me\/data o envia el texto UPDATA a 6700 para comprar mas datos.",
		"ZH": "\u60a8\u7684__params__data_MBMB\u4e0a\u7f51\u6570\u636e\u91cf\u7684\u5145\u503c\u8981\u6c42\u5df2\u7ecf\u5904\u7406\u5b8c\u6bd5\u3002\u968f\u65f6\u8bbf\u95eehttps:\/\/my.ultra.me\/data\u6216\u53d1\u77ed\u4fe1UPDATA\u81f36700\u8d2d\u4e70\u66f4\u591a\u7684\u4e0a\u7f51\u6570\u636e\u91cf\u3002"
	},
	"unsuspend_activation": {
		"EN": "Your Ultra Mobile __params__plan_name Plan has been recharged and service is active again. Your plan will end on __params__renewal_date at 11:59 PM PST.",
		"ES": "Tu Plan __params__plan_name de Ultra Mobile ha sido recargado y el servicio esta activo de nuevo. Tu plan se renovara el __params__renewal_date a las 11:59 PM PST.",
		"ZH": "\u60a8\u7684Ultra __params__plan_name\u8ba1\u5212\u5df2\u7ecf\u5145\u503c\u5e76\u5df2\u6fc0\u6d3b\u3002\u60a8\u76ee\u524d\u7684\u8ba1\u5212\u5c06\u4e8e__params__renewal_date 11:59 PM PT\u5230\u671f\u3002\u4e3a\u4e86\u907f\u514d\u670d\u52a1\u4e2d\u65ad - \u8bf7\u62e8\u6253611\u8bbe\u7f6e\u81ea\u52a8\u5145\u503c\u3002"
	},
	"port_resolution_required": {
		"EN": "Your number transfer to Ultra Mobile was unsuccessful. Please visit an Ultra retailer to update your port-in information or call Ultra care at (888) 777-0446",
		"ES": "Tu transferencia de numero no fue exitoso. Visita una Tienda Ultra para actualizar tu informacion de port-in o llama nuestro Servicio al Cliente a 888-777-0446",
		"ZH": "\u60a8\u4f20\u8f93\u7535\u8bdd\u53f7\u7801\u5230Ultra\u624b\u673a\u7684\u5c1d\u8bd5\u5931\u8d25\u4e86\u3002\u8bf7\u8bbf\u95ee\u9644\u8fd1\u7684\u96f6\u552e\u5546\u66f4\u65b0\u4f20\u8f93\u4fe1\u606f\u6216\u62e8\u6253(888) 777-0446\u5ba2\u6237\u670d\u52a1"
	},
	"port_resolution_required_umact": {
		"EN": "Your number transfer to Ultra Mobile was unsuccessful. Please visit ultramobile.com\/activate to update your port-in info or call Ultra care at (888) 777-0446",
		"ES": "Tu transferencia de numero no fue exitoso. Visita ultramobile.com\/activate para actualizar tu info de port-in, o llama nuestro Servicio al Cliente- 888-777-0446",
		"ZH": "\u4f20\u8f93\u7535\u8bdd\u53f7\u7801\u5931\u8d25 - \u8bf7\u8bbf\u95eeultramobile.com\/activate\u6216\u62e8\u6253(888) 777-0446\u5ba2\u6237\u670d\u52a1"
	},
	"temp_password": {
		"EN": "Your temporary password is __params__temp_password",
		"ES": "Tu contrasena temporal es __params__temp_password",
		"ZH": "\u60a8\u7684\u4e34\u65f6\u5bc6\u7801\u662f__params__temp_password\u3002"
	},
	"temp_password_dealer": {
		"EN": "An Ultra retailer is attempting to manage your account. Please show them this password: __params__temp_password to authorize this action.",
		"ES": "Un agente Ultra esta tratando de manejar tu cuenta. Por favor mostrarles esta contrasena: __params__temp_password para autorizar esta accion",
		"ZH": "\u4e00\u4e2aUltra\u96f6\u552e\u5546\u6b63\u5728\u8bd5\u56fe\u7ba1\u7406\u60a8\u7684\u8d26\u6237\u3002\u8bf7\u544a\u8bc9\u4ed6\u4eec\u8fd9\u4e2a\u5bc6\u7801: __params__temp_password\u4f7f\u4ed6\u4eec\u83b7\u5f97\u6388\u6743\u3002"
	},
	"porting": {
		"EN": "Your phone number has been successfully transferred to Ultra Mobile. Welcome to Ultra!",
		"ES": "Tu numero de telefono fue transferido con exito al Ultra Mobile.! Bienvenidos a Ultra!.",
		"ZH": "\u60a8\u7684\u7535\u8bdd\u53f7\u7801\u5df2\u7ecf\u6210\u529f\u8f6c\u5230Ultra Mobile\u3002\u6b22\u8fce\u4f7f\u7528Ultra!"
	},
	"pin_apply": {
		"EN": "Your request to apply a PIN card has been completed. Your new balance is $__params__amount.",
		"ES": "Tu tarjeta PIN se aplico exitosamente. Tu nuevo balance es $__params__amount.",
		"ZH": "\u60a8\u7684PIN\u5361\u7684\u7533\u8bf7\u5df2\u7ecf\u5b8c\u6210\u3002\u60a8\u7684\u65b0\u4f59\u989d\u662f$__params__amount\u3002"
	},
	"reset_voicemail_password": {
		"EN": "Your voicemail password has been reset.",
		"ES": "Tu contrasena de correo de voz se ha restablecido.",
		"ZH": "\u60a8\u7684\u8bed\u97f3\u4fe1\u7bb1\u5bc6\u7801\u5df2\u7ecf\u91cd\u7f6e\u3002"
	},
	"immediate_plan_change": {
		"EN": "Your Ultra Mobile plan has changed from Ultra $__params__old_plan_amount to Ultra $__params__new_plan_amount. Data plan changes can take several minutes to go into effect.",
		"ES": "Tu plan de Ultra Mobile se ha cambiado de $__params__old_plan_amount a $__params__new_plan_amount. Cambios del plan de datos pueden tardar varios minutos.",
		"ZH": "\u60a8\u7684Ultra Mobile\u5305\u6708\u8ba1\u5212\u5df2\u7ecf\u4eceUltra $__params__old_plan_amount\u53d8\u6210Ultra $__params__new_plan_amount\u3002\u4e0a\u7f51\u6570\u636e\u91cf\u7684\u53d8\u5316\u53ef\u80fd\u9700\u8981\u51e0\u5206\u949f\u624d\u80fd\u751f\u6548\u3002"
	},
	"plan_provisioned": {
		"EN": "Activate your Ultra Mobile service by adding $__params__plan_amount by dialing 222 or at a store.",
		"ES": "Activa tu servicio de Ultra Mobile. Para anadir $__params__plan_amount a tu plan, marca 222 o visita una tienda.",
		"ZH": "\u6fc0\u6d3b\u60a8\u7684Ultra Mobile\u670d\u52a1 - \u8bf7\u62e8\u6253222\u5145\u503c$__params__plan_amount\uff1b\u6216\u53bb\u96f6\u552e\u5e97\u4e2d\u5145\u503c\u3002"
	},
	"auto_monthly_cc_renewal": {
		"EN": "Auto recharge will take place in 2 days. Please verify that funds are available in your credit card.",
		"ES": "Auto recarga se realizara en 2 dias. Por favor verifique que tiene suficientes fondos disponibles.",
		"ZH": "\u81ea\u52a8\u5145\u503c\u5c06\u57282\u5929\u5185\u5b8c\u6210\u3002\u8bf7\u786e\u8ba4\u60a8\u4fe1\u7528\u5361\u4e2d\u7684\u8d44\u91d1\u53ef\u7528\u3002"
	},
	"plan_suspended_two_days_ago": {
		"EN": "Your Ultra plan has been suspended for 2 days. Add $__params__plan_amount to activate your plan. Recharge now at https:\/\/my.ultra.me\/t\/__params__login_token\/recharge. Dial 222 or visit an agent.",
		"ES": "Tu plan de Ultra se suspendio hace 2 dias. Agrega $__params__plan_amount en https:\/\/my.ultra.me\/t\/__params__login_token\/recharge. Tambien puedes marcar 222 o visitar a una tienda.",
		"ZH": "\u60a8\u7684\u8ba1\u5212\u5df2\u88ab\u6682\u505c2\u5929\u3002\u5145\u503c$__params__plan_amount\u6765\u91cd\u65b0\u6fc0\u6d3b\u60a8\u7684\u8ba1\u5212\u3002\u8bf7\u767b\u5f55 https:\/\/my.ultra.me\/t\/__params__login_token\/recharge \u62e8\u6253222\uff1b\u6216\u5728\u96f6\u552e\u5546\u5e97\u4e3a\u60a8\u7684\u8ba1\u5212\u5145\u503c\u3002"
	},
	"flex_plan_suspended_two_days_ago": {
		"EN": "Your Ultra Flex Plan has been suspended for 2 days. Please visit an Ultra Mobile retailer or my.ultra.me\/t\/__params__login_token\/recharge to recharge service.",
		"ES": "Su plan Ultra Flex ha sido suspendido por 2 dias. Por favor visite una tienda Ultra Mobile o my.ultra.me\/t\/__params__login_token\/recharge para recargar el servicio.",
		"ZH": "\u60a8\u7684Ultra Flex\u5f39\u6027\u624b\u673a\u8ba1\u5212\u5df2\u88ab\u6682\u505c2\u5929\u3002\u8bf7\u8bbf\u95eeUltra Mobile\u96f6\u552e\u5546\u6216my.ultra.me\/t\/__params__login_token\/recharge - \u4e3a\u8ba1\u5212\u5145\u503c\u3002"
	},
	"plan_suspended_now": {
		"EN": "Your plan has been suspended due to non payment. Add $__params__plan_amount to activate your plan. Recharge now at https:\/\/my.ultra.me\/t\/__params__login_token\/recharge. Dial 222 or visit an agent.",
		"ES": "Tu plan se suspendio. Agrega $__params__plan_amount en https:\/\/my.ultra.me\/t\/__params__login_token\/recharge para recargar tu plan. Tambien puedes marcar 222 o visitar a una tienda.",
		"ZH": "\u7531\u4e8e\u672a\u4ed8\u6b3e - \u60a8\u7684\u8ba1\u5212\u5df2\u88ab\u6682\u505c\u3002\u5145\u503c$__params__plan_amount\u6765\u91cd\u65b0\u6fc0\u6d3b\u60a8\u7684\u8ba1\u5212\u3002\u8bf7\u767b\u5f55 https:\/\/my.ultra.me\/t\/__params__login_token\/recharge \u62e8\u6253222\uff1b\u6216\u5728\u96f6\u552e\u5546\u5e97\u4e3a\u60a8\u7684\u8ba1\u5212\u5145\u503c\u3002"
	},
	"flex_plan_suspended_now": {
		"EN": "Your Ultra Flex Plan has been suspended due to non payment. Please visit an Ultra Mobile retailer or my.ultra.me\/t\/__params__login_token\/recharge to recharge service.",
		"ES": "Su plan Ultra Flex ha sido suspendido debido a falta de pago. Por favor visite una tienda Ultra Mobile o my.ultra.me\/t\/__params__login_token\/recharge para recargar el servicio.",
		"ZH": "\u7531\u4e8e\u672a\u6309\u65f6\u4ed8\u6b3e\u60a8\u7684Ultra Flex\u5f39\u6027\u624b\u673a\u8ba1\u5212\u5df2\u88ab\u6682\u505c\u3002\u8bf7\u8bbf\u95eeUltra Mobile\u96f6\u552e\u5546\u6216my.ultra.me\/t\/__params__login_token\/recharge - \u4e3a\u8ba1\u5212\u5145\u503c\u3002"
	},
	"plan_expires_today": {
		"EN": "Your plan expires today. Please make a payment of $__params__plan_amount by 11:59 PM PT to avoid suspension. Recharge at https:\/\/my.ultra.me\/t\/__params__login_token\/recharge or call 222",
		"ES": "Tu plan se vence hoy. Por favor paga $__params__plan_amount antes de las 11:59 PM PT para que no se suspenda. Recarga en https:\/\/my.ultra.me\/t\/__params__login_token\/recharge o llame 222",
		"ZH": "\u60a8\u7684\u8ba1\u5212\u5c06\u4e8e\u4eca\u5929\u5230\u671f\u3002\u5982\u679c\u60a8\u4e0d\u80fd\u572811:59 PM PT\u4e4b\u524d\u652f\u4ed8$__params__plan_amount - \u60a8\u7684\u670d\u52a1\u5c06\u88ab\u6682\u505c\u3002\u8bf7\u767b\u5f55 https:\/\/my.ultra.me\/t\/__params__login_token\/recharge \u6216\u62e8\u6253222\u4e3a\u60a8\u7684\u8ba1\u5212\u5145\u503c\u3002"
	},
	"flex_plan_expires_today": {
		"EN": "Your Ultra Flex Plan is due for renewal today. Visit an Ultra retailer or my.ultra.me\/t\/__params__login_token\/ if you need to recharge you or your Ultra Flex Family.",
		"ES": "Su plan Ultra Flex expira el dia de hoy. Visite una tienda Ultra o visite my.ultra.me\/t\/__params__login_token\/ si necesita recargarle a usted o su Ultra Flex Family.",
		"ZH": "\u60a8\u7684Ultra Flex\u5f39\u6027\u624b\u673a\u8ba1\u5212\u5c06\u4e8e\u4eca\u5929\u5230\u671f\u3002\u8bf7\u8bbf\u95eeUltra\u96f6\u552e\u5546\u6216my.ultra.me\/t\/__params__login_token\/ \u6309\u65f6\u4ed8\u6b3e - \u4ee5\u907f\u514d\u60a8\u6216\u60a8\u5bb6\u4eba\u7684\u624b\u673a\u670d\u52a1\u4e2d\u65ad\u3002"
	},
	"flex_parent_plan_expires_today": {
		"EN": "Your Ultra Flex Plan expires today. Visit an Ultra retailer or or my.ultra.me\/t\/__params__login_token to make a payment and maintain service for you and your Ultra Flex Family.",
		"ES": "Su plan Ultra Flex expira el dia de hoy. Visite una tienda Ultra o my.ultra.me\/t\/__params__login_token para realizar el pago y mantener el servicio para usted y los miembros de su Ultra Flex Family.",
		"ZH": "\u60a8\u7684Ultra Flex\u5f39\u6027\u624b\u673a\u8ba1\u5212\u5c06\u4e8e\u4eca\u5929\u5230\u671f\u3002\u8bf7\u8bbf\u95eeUltra\u96f6\u552e\u5546\u6216my.ultra.me\/t\/__params__login_token\u6309\u65f6\u4ed8\u6b3e - \u4ee5\u907f\u514d\u60a8\u6216\u60a8\u5bb6\u4eba\u7684\u624b\u673a\u670d\u52a1\u4e2d\u65ad\u3002"
	},
	"flex_member_recharge_off_plan_expires_today": {
		"EN": "One of your Ultra Flex Family member's plans expire today. Visit an Ultra retailer or my.ultra.me\/t\/__params__login_token to make a payment and maintain service for you and your Ultra Flex Family.",
		"ES": "El plan de uno de los miembros de su Ultra Flex Family expira hoy . Visite una tienda Ultra o my.ultra.me\/t\/__params__login_token para realizar el pago y mantener el servicio para usted y los miembros de su Ultra Flex Family.",
		"ZH": "\u60a8\u7684Ultra Flex Family\u5f39\u6027\u5bb6\u5ead\u624b\u673a\u8ba1\u5212\u4e2d\u67d0\u4e2a\u6210\u5458\u7684\u670d\u52a1\u5c06\u4e8e\u4eca\u5929\u5230\u671f\u3002\u8bf7\u8bbf\u95eeUltra\u96f6\u552e\u5546\u6216my.ultra.me\/t\/__params__login_token\u6309\u65f6\u4ed8\u6b3e - \u4ee5\u907f\u514d\u60a8\u6216\u60a8\u5bb6\u4eba\u7684\u624b\u673a\u670d\u52a1\u4e2d\u65ad\u3002"
	},
	"flex_member_pay_for_family_off_plan_expires_today": {
		"EN": "Your Ultra Flex Plan expires today. Please visit an Ultra retailer or my.ultra.me\/t\/__params__login_token to make a payment in order to maintain service.",
		"ES": "Su plan Ultra Flex expira el dia de hoy. Visite una tienda Ultra o my.ultra.me\/t\/__params__login_token para realizar el pago y poder mantener el servicio.",
		"ZH": "\u60a8\u7684Ultra Flex\u5f39\u6027\u624b\u673a\u8ba1\u5212\u5c06\u4e8e\u4eca\u5929\u5230\u671f\u3002\u8bf7\u8bbf\u95eeUltra\u96f6\u552e\u5546\u6216my.ultra.me\/t\/__params__login_token\u6309\u65f6\u4ed8\u6b3e - \u4ee5\u907f\u514d\u60a8\u7684\u624b\u673a\u670d\u52a1\u4e2d\u65ad\u3002"
	},
	"plan_close_to_expiration": {
		"EN": "Your Ultra Mobile $__params__plan_amount __params__personal Plan expires __params__renewal_date at 11:59 PM PT. Please make a payment of $__params__plan_amount to maintain service. Recharge at https:\/\/my.ultra.me\/t\/__params__login_token\/recharge",
		"ES": "Tu plan $__params__plan_amount __params__personal se vence __params__renewal_date a las 11:59 PM PT. Por favor paga $__params__plan_amount para mantener servicio. Visita https:\/\/my.ultra.me\/t\/__params__login_token\/recharge para recargar.",
		"ZH": "\u60a8\u7684Ultra Mobile $__params__plan_amount\u8ba1\u5212\u5c06\u4e8e__params__renewal_date 11:59 PM PT\u5230\u671f\u3002\u8bf7\u652f\u4ed8$__params__plan_amount\u4ee5\u7ee7\u7eed\u4f7f\u7528\u670d\u52a1\u3002\u767b\u5f55 https:\/\/my.ultra.me\/t\/__params__login_token\/recharge \u4e3a\u60a8\u7684\u8ba1\u5212\u5145\u503c\u3002"
	},
	"flex_plan_close_to_expiration": {
		"EN": "Your Ultra Flex Plan is due for renewal on __params__renewal_date at 11:59 PM PT. Visit an Ultra retailer or my.ultra.me\/t\/__params__login_token\/ if you need to recharge you or your Ultra Flex Family.",
		"ES": "Su plan Ultra Flex expira el __params__renewal_date a las 11:59PM PT. Visite una tienda Ultra o visite my.ultra.me\/t\/__params__login_token\/ si necesita recargarle a usted o su Ultra Flex Family.",
		"ZH": "\u60a8\u7684Ultra Flex\u5f39\u6027\u624b\u673a\u8ba1\u5212\u5c06\u4e8eexpires __params__renewal_date\u592a\u5e73\u6d0b\u65f6\u95f4\u665a\u4e0a11:59\u5230\u671f\u3002\u8bf7\u8bbf\u95eeUltra\u96f6\u552e\u5546\u6216my.ultra.me\/t\/__params__login_token\/ \u6309\u65f6\u4ed8\u6b3e - \u4ee5\u907f\u514d\u60a8\u7684\u624b\u673a\u670d\u52a1\u4e2d\u65ad\u3002"
	},
	"flex_parent_close_to_expiration": {
		"EN": "Your Ultra Flex Plan expires __params__renewal_date at 11:59 PM PT. Visit an Ultra retailer or my.ultra.me\/t\/__params__login_token to make a payment and maintain service for you and your Ultra Flex Family.",
		"ES": "Su plan Ultra Flex expira el __params__renewal_date a las 11:59PM PT. Visite una tienda Ultra o my.ultra.me\/t\/__params__login_token para realizar el pago y mantener el servicio para usted y los miembros de su Ultra Flex Family.",
		"ZH": "\u60a8\u7684Ultra Flex\u5f39\u6027\u624b\u673a\u8ba1\u5212\u5c06\u4e8eexpires __params__renewal_date\u592a\u5e73\u6d0b\u65f6\u95f4\u665a\u4e0a11:59\u5230\u671f\u3002\u8bf7\u8bbf\u95eeUltra\u96f6\u552e\u5546\u6216my.ultra.me\/t\/__params__login_token\u6309\u65f6\u4ed8\u6b3e - \u4ee5\u907f\u514d\u60a8\u6216\u60a8\u5bb6\u4eba\u7684\u624b\u673a\u670d\u52a1\u4e2d\u65ad\u3002"
	},
	"flex_member_recharge_off_close_to_expiration": {
		"EN": "One of your Ultra Flex Family members is due for renewal on __params__renewal_date at 11:59 PM PT. Visit an Ultra retailer or my.ultra.me\/t\/__params__login_token to make a payment and maintain service for you and your Ultra Flex Family.",
		"ES": "Uno de los miembros de su plan Ultra Flex Family debe renovarse el __params__renewal_date a las 11:59PM PT. Visite una tienda Ultra o my.ultra.me\/t\/__params__login_token para realizar el pago y mantener el servicio para usted y los miembros de su Ultra Flex Family.",
		"ZH": "\u60a8\u7684Ultra Flex Family\u5f39\u6027\u5bb6\u5ead\u624b\u673a\u8ba1\u5212\u4e2d\u67d0\u4e2a\u6210\u5458\u7684\u670d\u52a1\u5c06\u4e8eexpires __params__renewal_date\u592a\u5e73\u6d0b\u65f6\u95f4\u665a\u4e0a11:59\u5230\u671f\u3002\u8bf7\u8bbf\u95eeUltra\u96f6\u552e\u5546\u6216my.ultra.me\/t\/__params__login_token\u6309\u65f6\u4ed8\u6b3e - \u4ee5\u907f\u514d\u60a8\u6216\u60a8\u5bb6\u4eba\u7684\u624b\u673a\u670d\u52a1\u4e2d\u65ad\u3002"
	},
	"flex_member_recharge_on_close_to_expiration": {
		"EN": "One of your Ultra Flex Family members is due for renewal on __params__renewal_date at 11:59 PM PT and you are short on plan credits. Your credit card will be charged enough to replenish your entire family at that time.",
		"ES": "Uno de los miembros de su plan Ultra Flex Family debe renovarse el __params__renewal_date a las 11:59PM PT y a usted le quedan pocos creditos del plan. Se cargara el costo suficiente a su tarjeta de cr\u00e9dito para reponer lo necesario para la familia completa en ese momento.",
		"ZH": "\u60a8\u7684Ultra Flex Family\u5f39\u6027\u5bb6\u5ead\u624b\u673a\u8ba1\u5212\u4e2d\u67d0\u4e2a\u6210\u5458\u7684\u670d\u52a1\u5c06\u4e8eexpires __params__renewal_date\u592a\u5e73\u6d0b\u65f6\u95f4\u665a\u4e0a11:59\u5230\u671f\uff0c\u800c\u4e14\u60a8\u7684\u9884\u4ed8\u6b3e\u5df2\u7ecf\u4e0d\u8db3\u3002\u5728\u670d\u52a1\u5230\u671f\u65f6\u60a8\u7684\u4fe1\u7528\u5361\u5c06\u88ab\u7528\u6765\u652f\u4ed8\u5bb6\u5ead\u8ba1\u5212\u5145\u503c\u7684\u8d39\u7528\u3002"
	},
	"flex_member_pay_for_family_off_close_to_expiration": {
		"EN": "Your Ultra Flex Plan expires __params__renewal_date at 11:59 PM PT. Please visit an Ultra Retailer or my.ultra.me\/t\/__params__login_token to make a payment in order to maintain service. ",
		"ES": "Su plan Ultra Flex expira el __params__renewal_date a las 11:59PM PT. Visite una tienda Ultra o my.ultra.me\/t\/__params__login_token para realizar el pago y poder mantener el servicio.",
		"ZH": "\u60a8\u7684Ultra Flex\u5f39\u6027\u624b\u673a\u8ba1\u5212\u5c06\u4e8eexpires __params__renewal_date\u592a\u5e73\u6d0b\u65f6\u95f4\u665a\u4e0a11:59\u5230\u671f\u3002\u8bf7\u8bbf\u95eeUltra\u96f6\u552e\u5546\u6216my.ultra.me\/t\/__params__login_token\u6309\u65f6\u4ed8\u6b3e - \u4ee5\u907f\u514d\u60a8\u7684\u624b\u673a\u670d\u52a1\u4e2d\u65ad\u3002"
	},
	"account_suspended": {
		"EN": "Your account was suspended on __params__date. Please add $__params__value to reactivate your Ultra __params__plan_name Plan. Visit https:\/\/my.ultra.me\/t\/__params__login_token\/recharge",
		"ES": "Tu cuenta ha sido suspendida en __params__date. Por favor agregar $__params__value para reactivar tu Ultra Plan __params__plan_name. Visita https:\/\/my.ultra.me\/t\/__params__login_token\/recharge",
		"ZH": "\u60a8\u7684\u8d26\u6237\u4e8e__params__date\u88ab\u6682\u505c\u3002\u8bf7\u652f\u4ed8$__params__value\u4ee5\u91cd\u65b0\u6fc0\u6d3b\u60a8\u7684\u670d\u52a1\u3002\u70b9\u51fb https:\/\/my.ultra.me\/t\/__params__login_token\/recharge \u901a\u8fc7\u7535\u8bdd\u8fdb\u884c\u5b89\u5168\u5145\u503c\u3002"
	},
	"monthly_renewal": {
		"EN": "Thank you from Ultra. Your monthly plan was paid and renewed today. Your plan will end on __params__renewal_date at 11:59 PM PT.",
		"ES": "Gracias desde Ultra. Tu plan mensual fue pagado y renovado hoy. Tu plan vence __params__renewal_date a las 11:59 PM PT.",
		"ZH": "\u611f\u8c22\u60a8\u4f7f\u7528Ultra\uff01\u60a8\u7684\u5305\u6708\u7535\u8bdd\u8d39\u5df2\u4ed8\u6e05\u5e76\u4e8e\u4eca\u5929\u7eed\u7ea6\u3002\u60a8\u8ba1\u5212\u7684\u4e0b\u4e00\u6b21\u5230\u671f\u65f6\u95f4\u662f__params__renewal_date 11:59 PM PT\u3002"
	},
	"monthly_renewal_demo": {
		"EN": "Thank you for supporting Ultra Mobile. Your free Demo Line was renewed today.",
		"ES": "Gracias por ser cliente de Ultra Mobile. Tu Free Demo Line se renovo hoy.",
		"ZH": "\u611f\u8c22\u60a8\u652f\u6301Ultra Mobile\uff01\u60a8\u7684\u514d\u8d39\u8bd5\u7528\u7ebf\u8def\u4eca\u5929\u66f4\u65b0\u4e86\u3002"
	},
	"monthly_renewal_promo": {
		"EN": "Thank you from Ultra. Your monthly plan was paid and renewed today.",
		"ES": "Gracias desde Ultra. Tu plan mensual fue pagado y renovado hoy.",
		"ZH": "\u611f\u8c22\u60a8\u9009\u62e9Ultra\u3002\u60a8\u7684\u5305\u6708\u8ba1\u5212\u4ed8\u6b3e\u5df2\u5b8c\u6210\uff1b\u60a8\u7684\u8ba1\u5212\u5df2\u4e8e\u4eca\u5929\u7eed\u7ea6\u3002"
	},
	"renewal_plan_change": {
		"EN": "We made the requested change to your Ultra Mobile plan. You are now in the Ultra $__params__plan_amount __params__personal Plan. Your plan is good for __params__days days through __params__renewal_date at 11:59 PM PST.",
		"ES": "Hemos hecho el cambio solicitado a tu plan de Ultra. Ahora se encuentra en el Plan __params__personal $__params__plan_amount. Tu plan es valido por __params__days dias a traves de __params__renewal_date a las 11:59 PM PST.",
		"ZH": "\u6211\u4eec\u5df2\u7ecf\u6309\u7167\u60a8\u7684\u8981\u6c42\u5bf9\u60a8\u7684Ultra Mobile\u5305\u6708\u8ba1\u5212\u8fdb\u884c\u4e86\u8c03\u6574\u3002\u60a8\u73b0\u5728\u5c5e\u4e8eUltra $__params__plan_amount __params__personal\u8ba1\u5212\u3002\u60a8\u7684\u65b0\u8ba1\u5212\u5c06\u4e8e__params__renewal_date 11:59 PM PT\u5230\u671f\u3002"
	},
	"renewal_plan_fail_change": {
		"EN": "You did not have enough money to switch to the $__params__plan_amount_upgrade Monthly Plan. We have renewed your current plan. Your plan is good through __params__renewal_date at 11:59 PM PT.",
		"ES": "No tuviste suficientes fondos para cambiar al plan mensual de $__params__plan_amount_upgrade. Hemos renovado tu plan corriente. Tu plan vence __params__renewal_date en 11:59 PM PT.",
		"ZH": "\u60a8\u6ca1\u6709\u8db3\u591f\u7684\u8d44\u91d1\u8f6c\u6362\u4e3a$__params__plan_amount_upgrade\u5305\u6708\u8ba1\u5212\u3002\u6211\u4eec\u5df2\u7ecf\u7eed\u7ea6\u4e86\u60a8\u73b0\u6709\u7684\u8ba1\u5212\u3002\u60a8\u76ee\u524d\u7684\u8ba1\u5212\u5c06\u4e8e__params__renewal_date 11:59 PM PT\u5230\u671f\u3002"
	},
	"plan_downgraded": {
		"EN": "Your plan has been downgraded to the Ultra $__params__plan_amount __params__personal Plan. Please pay at least __params__amount dollars to reactivate your service.",
		"ES": "Tu plan ha sido degradado al Ultra Plan __params__personal $__params__plan_amount. Por favor paga un minimo de __params__amount dolares para reactivar el servicio.",
		"ZH": "\u60a8\u7684\u8ba1\u5212\u5df2\u88ab\u964d\u7ea7\u4e3aUltra $__params__plan_amount __params__personal\u8ba1\u5212\u3002\u8bf7\u652f\u4ed8$__params__amount\u6765\u91cd\u65b0\u6fc0\u6d3b\u60a8\u7684\u670d\u52a1\u3002"
	},
	"plan_upgraded": {
		"EN": "Your plan has been upgraded to the Ultra $__params__plan_amount __params__personal Plan. Please pay __params__amount dollars to reactivate your service.",
		"ES": "Tu plan se ha actualizado al Ultra __params__personal Plan $__params__plan_amount. Por favor paga __params__amount dolares para reactivar el servicio.",
		"ZH": "\u60a8\u7684\u8ba1\u5212\u5df2\u7ecf\u88ab\u5347\u7ea7\u4e3aUltra $__params__plan_amount __params__personal\u8ba1\u5212\u3002\u8bf7\u652f\u4ed8$__params__amount\u6765\u91cd\u65b0\u6fc0\u6d3b\u60a8\u7684\u670d\u52a1\u3002"
	},
	"promo_freemonths_welcome": {
		"EN": "Welcome to Ultra Mobile. Your $__params__plan_amount plan service is now active and free for __params__active_days days. After that days you can recharge at ultra.me or in stores nationwide.",
		"ES": "Bienvenido a Ultra Mobile! Tu $__params__plan_amount servicio se activo y esta gratis por __params__active_days dias. Despues de __params__active_days dias recarga tu cuenta en ultra.me o en una tienda Ultra.",
		"ZH": "\u6b22\u8fce\u4f7f\u7528Ultra Mobile\uff01\u60a8\u7684$__params__plan_amount\u8ba1\u5212\u5df2\u7ecf\u6fc0\u6d3b\u5e76\u5c06\u5728__params__active_days\u5929\u5185\u514d\u8d39\u3002\u4e8b\u540e\u5929\u540e\u60a8\u53ef\u4ee5\u5728ultra.me\u7f51\u7ad9\u6216\u5168\u56fd\u5404\u5730\u7684\u96f6\u552e\u5546\u5e97\u8fdb\u884c\u5145\u503c\u3002"
	},
	"apply_pin_help": {
		"EN": "Text RECHARGE + your Airtime Recharge PIN code to add balance to your Ultra Wallet.",
		"ES": "Mande RECHARGE + el codigo PIN para agregar saldo a tu Ultra Cartera.",
		"ZH": "\u53d1\u77ed\u4fe1RECHARGE + \u60a8\u7684\u901a\u8bdd\u65f6\u95f4\u5145\u503c\u5361\u7684PIN\u7801 \uff0d \u6765\u4e3a\u60a8\u7684Ultra\u94b1\u5305\u5145\u503c\u3002"
	},
	"apply_pin_number_not_found": {
		"EN": "Airtime Recharge PIN number not found.",
		"ES": "Numero de PIN Recarga desconocido.",
		"ZH": "\u627e\u4e0d\u5230\u901a\u8bdd\u65f6\u95f4\u5145\u503c\u5361\u7684PIN\u7801\u3002"
	},
	"apply_pin_number_already_used": {
		"EN": "Airtime Recharge PIN number has already been used.",
		"ES": "Ya se ha utilizado este numero de PIN Recarga.",
		"ZH": "\u901a\u8bdd\u65f6\u95f4\u5145\u503c\u5361\u7684PIN\u7801\u5df2\u88ab\u4f7f\u7528\u3002"
	},
	"apply_pin_credited_activation": {
		"EN": "Your Ultra Wallet has been credited with $__params__value. Your account will be activated shortly.",
		"ES": "Tu Ultra Cartera ha sido acreditado con $__params__value. Tu cuenta sera activada en un momento.",
		"ZH": "\u60a8\u7684Ultra\u94b1\u5305\u5df2\u7ecf\u5145\u503c\u4e86$__params__value\u3002\u60a8\u7684\u8d26\u6237\u5c06\u5f88\u5feb\u6fc0\u6d3b\u3002"
	},
	"apply_pin_credited_no_activation": {
		"EN": "Your Ultra Wallet has been credited with $__params__value. Please add $__params__amount for activation.",
		"ES": "Tu Ultra cartera se acredito con $__params__value. Por favor agrega $__params__amount para activarla.",
		"ZH": "\u60a8\u7684Ultra\u94b1\u5305\u5df2\u7ecf\u5145\u503c\u4e86$__params__value\u3002\u8bf7\u518d\u6dfb\u52a0$__params__amount\u7528\u4e8e\u6fc0\u6d3b\u3002"
	},
	"apply_pin_cancelled": {
		"EN": "Your service has been cancelled. You cannot recharge this account. You can still call 611 to speak to Ultra Customer Support",
		"ES": "Tu servicio fue cancelado. No puedes recargar esta cuenta. Puedes llamar a 611 para hablar con servicio al cliente Ultra.",
		"ZH": "\u60a8\u7684\u670d\u52a1\u5df2\u7ecf\u88ab\u53d6\u6d88\u3002\u60a8\u4e0d\u80fd\u4e3a\u8d26\u6237\u5145\u503c\u3002\u8bf7\u62e8\u6253611\u81f4\u7535\u5ba2\u6237\u670d\u52a1\u90e8\u3002"
	},
	"apply_pin_recharged": {
		"EN": "Your Ultra Wallet has been credited with $__params__value. Your new balance is $__params__balance.",
		"ES": "Tu Ultra Cartera ha sido acreditado con $__params__value. Tu nuevo balance es $__params__balance.",
		"ZH": "\u60a8\u7684Ultra\u94b1\u5305\u5df2\u7ecf\u5145\u503c\u4e86$__params__value\u3002\u60a8\u7684\u65b0\u4f59\u989d\u662f$__params__balance\u3002"
	},
	"customerinfo_voice": {
		"EN": "Ultra Wallet: $__params__wallet_balance. INTL Credit: $__params__value. Ultra Zero Mins: __params__zero_minutes. Recharge Balance $__params__stored_value. Roaming: $__params__roaming_balance. Your Ultra __params__plan_name Plan expires __params__date at 11:59 PM PT.",
		"ES": "Cartera Ultra: $__params__wallet_balance. Credito INTL: $__params__value. Mins Ultra Zero: __params__zero_minutes. Saldo de recarga: $__params__stored_value. Roaming: $__params__roaming_balance. Tu Plan Ultra __params__plan_name vence __params__date a las 11:59 PM PT.",
		"ZH": "Ultra\u94b1\u5305\uff1a$__params__wallet_balance\u3002\u56fd\u9645\u957f\u9014\u8bdd\u8d39\u8865\u8d34\uff1a$__params__value\u3002\u514d\u8d39\u56fd\u9645\u957f\u9014\u5206\u949f\u6570\uff1a__params__zero_minutes\u3002\u5145\u503c\u4f59\u989d\uff1a$__params__stored_value\u3002\u6f2b\u6e38\uff1a$__params__roaming_balance\u3002\u60a8\u7684Ultra __params__plan_name\u8ba1\u5212\u5c06\u4e8e__params__date DD 11:59 PM PT\u5230\u671f\u3002"
	},
	"customerinfo_voice_no_zero": {
		"EN": "Ultra Wallet: $__params__wallet_balance. INTL Credit: $__params__value. Recharge Balance $__params__stored_value. Roaming: $__params__roaming_balance. Your Ultra __params__plan_name Plan expires on __params__date at 11:59 PM PT.",
		"ES": "Ultra Cartera: $__params__wallet_balance. Credito INTL: $__params__value. Saldo de recarga: $__params__stored_value. Roaming: $__params__roaming_balance. Tu Plan Ultra __params__plan_name se vence __params__date a las 11:59 PM PT.",
		"ZH": "Ultra\u94b1\u5305\uff1a$__params__wallet_balance\u3002\u56fd\u9645\u957f\u9014\u8bdd\u8d39\u8865\u8d34\uff1a$__params__value\u3002\u5145\u503c\u4f59\u989d\uff1a$__params__stored_value\u3002\u6f2b\u6e38\uff1a$__params__roaming_balance\u3002\u60a8\u7684Ultra __params__plan_name\u8ba1\u5212\u5c06\u4e8e__params__date DD 11:59 PM PT\u5230\u671f\u3002"
	},
	"customerinfo_data": {
		"EN": "4G LTE: __params__remaining remaining. __params__usage used. Buy more 4G LTE: https:\/\/my.ultra.me\/t\/__params__login_token\/data",
		"ES": "4G LTE: __params__remaining restantes. __params__usage usados. Compra mas 4G LTE: https:\/\/my.ultra.me\/t\/__params__login_token\/data",
		"ZH": "4G LTE: __params__remaining\u5269\u4f59\u3002__params__usage\u5df2\u4f7f\u7528\u3002\u4e3a\u60a8\u76844G LTE\u5145\u503c: https:\/\/my.ultra.me\/t\/__params__login_token\/data"
	},
	"customerinfo_data_3g": {
		"EN": "4G LTE: __params__remaining remaining. __params__usage used. 3G High Speed Data: __params__3g_remaining remaining. __params__3g_used used. Buy more 4G LTE: https:\/\/my.ultra.me\/t\/__params__login_token\/data",
		"ES": "4G LTE: __params__remaining restantes. __params__usage usados. Datos de Alta Velocidad 3G: __params__3g_remaining restantes. __params__3g_used usados. Compra mas 4G LTE: https:\/\/my.ultra.me\/t\/__params__login_token\/data",
		"ZH": "4G LTE: __params__remaining\u5269\u4f59\u3002__params__usage\u5df2\u4f7f\u7528\u30023G LTE: __params__3g_remaining\u5269\u4f59\u3002__params__3g_used\u5df2\u4f7f\u7528\u3002\u4e3a\u60a8\u76844G LTE\u5145\u503c: https:\/\/my.ultra.me\/t\/__params__login_token\/data"
	},
	"customerinfo_unlimited_data_3g": {
		"EN": "4G LTE: __params__remaining. __params__usage used. 3G High Speed Data: __params__3g_remaining. __params__3g_used used.",
		"ES": "4G LTE: __params__remaining. __params__usage usados. Datos de Alta Velocidad 3G: __params__3g_remaining. __params__3g_used usados.",
		"ZH": "4G LTE: __params__remaining. __params__usage\u5df2\u4f7f\u7528\u30023G LTE: __params__3g_remaining. __params__3g_used\u5df2\u4f7f\u7528\u3002"
	},
	"customerinfo_roaming": {
		"EN": "Your International Roaming Balance is $__params__roaming_balance. Visit m.ultra.me or text UPROAM to 6700 to add more roaming credit anytime.",
		"ES": "Tu saldo de Roaming Internacional es $__params__roaming_balance. Visita m.ultra.me o envia UPROAM al 6700 para agregar mas credito de roaming cuando desees.",
		"ZH": "\u60a8\u7684\u56fd\u9645\u6f2b\u6e38\u4f59\u989d\u4e3a$__params__roaming_balance\uff0c\u8bf7\u5145\u503c\u3002\u8bbf\u95eem.ultra.me\u6216\u53d1\u77ed\u4fe1UPROAM\u81f36700\u8d2d\u4e70\u6f2b\u6e38\u65f6\u95f4\u3002"
	},
	"commandhelp_balance": {
		"EN": "BALANCE - Get account status and balance.",
		"ES": "BALANCE - Obten estado y balance de tu cuenta.",
		"ZH": "BALANCE - \u83b7\u53d6\u8d26\u6237\u4fe1\u606f\u53ca\u4f59\u989d\u3002"
	},
	"commandhelp_store": {
		"EN": "STORE + ZIPcode - Find an Ultra store near you.",
		"ES": "STORE + Codigo Postal - Busca a la tienda Ultra mas acercana.",
		"ZH": "STORE + ZIPcode - \u627e\u5230\u60a8\u9644\u8fd1\u7684Ultra\u96f6\u552e\u5546\u5e97\u3002"
	},
	"commandhelp_rechargepin": {
		"EN": "RECHARGE + PIN - Apply airtime recharge card balance to your account.",
		"ES": "RECHARGE + PIN - para agregar el saldo de la tarjeta PIN a tu cuenta.",
		"ZH": "RECHARGE + PIN - \u4f7f\u7528\u901a\u8bdd\u65f6\u95f4\u5145\u503c\u5361\u4e3a\u60a8\u7684\u8d26\u6237\u5145\u503c\u3002"
	},
	"commandhelp_roam": {
		"EN": "ROAM - Intl roaming balance.",
		"ES": "ROAM - Saldo de roaming INTL.",
		"ZH": "ROAM\uff1a\u56fd\u9645\u6f2b\u6e38\u7684\u4f59\u989d\u3002"
	},
	"commandhelp_menu": {
		"EN": "MENU - List of commands.",
		"ES": "MENU - Lista de comandos.",
		"ZH": "MENU - \u6240\u6709\u53ef\u7528\u7684\u77ed\u4fe1\u547d\u4ee4\u5217\u8868"
	},
	"commandhelp_611": {
		"EN": "Dial 611 to speak with Customer Support",
		"ES": "Marca 611 para hablar con el servicio al cliente.",
		"ZH": "\u62e8\u6253611\u63a5\u901a\u5ba2\u6237\u670d\u52a1\u90e8\u3002"
	},
	"self_care_unavailable": {
		"EN": "Customer Self Care is currently unavailable. Please call 611 for any questions.",
		"ES": "Servicio al Cliente no esta disponible ahora. Por cualquier pregunta, llama a 611.",
		"ZH": "\u5ba2\u6237\u81ea\u52a9\u670d\u52a1\u662f\u5f53\u524d\u4e0d\u53ef\u7528\u3002\u8bf7\u62e8\u6253611\u7684\u4efb\u4f55\u95ee\u9898\u3002"
	},
	"send_login_token": {
		"EN": "Login link: __params__url",
		"ES": "Entrar tu cuenta: __params__url",
		"ZH": "\u767b\u5f55\u94fe\u63a5: __params__url"
	},
	"language_notify": {
		"EN": "You will now get SMS messages from Ultra in English. Your voice mail has also been set to English. To change your language preference reply with LANG.",
		"ES": "Ahora recibira mensajes de Ultra en Espanol. Su correo de voz se ha establecido en Espanol. Para cambiar tu idioma de preferencia responder con LANG.",
		"ZH": "\u60a8\u5c06\u4ece\u73b0\u5728\u8d77\u6536\u5230\u6765\u81eaUltra\u7684\u4e2d\u6587\u77ed\u4fe1\u3002To change your language preference reply with LANG."
	},
	"intl_credit_low_balance": {
		"EN": "You have less than $0.50 left of Ultra INTL Call Credit. Get 25% bonus credit when you add more INTL credit at https:\/\/my.ultra.me\/intl or text UpINTL to 6700.",
		"ES": "Tienes menos que $0.50 de credito internacional. Recibes 25% de credito extra cuando agregues credito INTL en https:\/\/my.ultra.me\/intl o texto UpINTL a 6700.",
		"ZH": "\u60a8\u7684Ultra\u56fd\u9645\u957f\u9014\u7535\u8bdd\u8d39\u8865\u8d34\u53ea\u5269\u4f59\u4e0d\u8db3 $0.50\u3002\u73b0\u5728\u8d2d\u4e70\u66f4\u591a\u7684\u56fd\u9645\u957f\u9014\u7535\u8bdd\u8d39 - \u5373\u53ef\u83b7\u5f9725%\u7684\u4f18\u60e0 - \u767b\u5f55 https:\/\/my.ultra.me\/intl \u6216\u53d1\u77ed\u4fe1UpINTL\u81f3 6700\u8d2d\u4e70\u989d\u5916\u7684\u56fd\u9645\u957f\u9014\u8bdd\u8d39\u3002"
	},
	"intl_credit_exhausted": {
		"EN": "You have used all of your INTL Call Credit. Get 25% bonus credit when you add more INTL credit at https:\/\/my.ultra.me\/intl or text UpINTL to 6700.",
		"ES": "Has agregado todo tu credito de llamadas INTL. Recibes 25% de credito extra cuando agregues mas credito INTL en https:\/\/my.ultra.me\/intl o mande UpINTL a 6700",
		"ZH": "\u60a8\u5df2\u7ecf\u7528\u5c3d\u4e86\u6240\u6709\u7684\u56fd\u9645\u957f\u9014\u7535\u8bdd\u8d39\u8865\u8d34\u3002\u73b0\u5728\u8d2d\u4e70\u66f4\u591a\u7684\u56fd\u9645\u957f\u9014\u7535\u8bdd\u8d39 - \u5373\u53ef\u83b7\u5f9725%\u7684\u4f18\u60e0 - \u767b\u5f55 https:\/\/my.ultra.me\/intl \u6216\u53d1\u77ed\u4fe1UpINTL\u81f3 6700\u8d2d\u4e70\u989d\u5916\u7684\u56fd\u9645\u957f\u9014\u8bdd\u8d39\u3002"
	},
	"bogo_redeemed": {
		"EN": "Thanks again from Ultra! Your FREE month begins today and will expire on __params__renewal_date at 11:59pm PT. Please return to Target or visit ultra.me to recharge your account.",
		"ES": "Thanks again from Ultra! Your FREE month begins today and will expire on __params__renewal_date at 11:59pm PT. Please return to Target or visit ultra.me to recharge your account.",
		"ZH": "Thanks again from Ultra! Your FREE month begins today and will expire on __params__renewal_date at 11:59pm PT. Please return to Target or visit ultra.me to recharge your account."
	},
	"bogo_activation": {
		"EN": "Thank you for purchasing Ultra Mobile at Target. Your FREE month has been added to your account! Please return to Target when you're ready to recharge.",
		"ES": "Thank you for purchasing Ultra Mobile at Target. Your FREE month has been added to your account! Please return to Target when you're ready to recharge.",
		"ZH": "Thank you for purchasing Ultra Mobile at Target. Your FREE month has been added to your account! Please return to Target when you're ready to recharge."
	},
	"bogo_suspended": {
		"EN": "$__params__added_amount has been added to your account for the Second Month Free promotion. Please add $__params__owed_amount to cover the cost of your plan change.",
		"ES": "$__params__added_amount has been added to your account for the Second Month Free promotion. Please add $__params__owed_amount to cover the cost of your plan change.",
		"ZH": "$__params__added_amount has been added to your account for the Second Month Free promotion. Please add $__params__owed_amount to cover the cost of your plan change."
	},
	"demo_reminder": {
		"EN": "In order for your Ultra Demo line __params__msisdn to be funded you need to do at least __params__activations activations this month. For questions contact demo@ultra.me",
		"ES": "In order for your Ultra Demo line __params__msisdn to be funded you need to do at least __params__activations activations this month. For questions contact demo@ultra.me",
		"ZH": "In order for your Ultra Demo line __params__msisdn to be funded you need to do at least __params__activations activations this month. For questions contact demo@ultra.me"
	},
	"demo_warning": {
		"EN": "In order for your Ultra Demo line __params__msisdn to be funded you need to do at least __params__activations activations this month. For questions contact demo@ultra.me",
		"ES": "In order for your Ultra Demo line __params__msisdn to be funded you need to do at least __params__activations activations this month. For questions contact demo@ultra.me",
		"ZH": "In order for your Ultra Demo line __params__msisdn to be funded you need to do at least __params__activations activations this month. For questions contact demo@ultra.me"
	},
	"demo_cancelled": {
		"EN": "Your Ultra Demo line __params__msisdn will no longer be funded since you did not do the minimum __params__activations activations last month. Please send questions to demo@ultra.me",
		"ES": "Your Ultra Demo line __params__msisdn will no longer be funded since you did not do the minimum __params__activations activations last month. Please send questions to demo@ultra.me",
		"ZH": "Your Ultra Demo line __params__msisdn will no longer be funded since you did not do the minimum __params__activations activations last month. Please send questions to demo@ultra.me"
	},
	"multi_month_reset": {
		"EN": "Your Ultra 4G Data and INTL Call Credit is reset every 30 days during your Multi-Month Plan. Your next reset date is __params__renewal_date.",
		"ES": "Tus Datos 4G y Credito para Llamadas INTL Ultra se renueven cada 30 dias durante tu plan Multi-Month. La proxima fecha de renovacion es __params__renewal_date.",
		"ZH": "\u591a\u6708\u8ba1\u5212\u201d\u7684\u7528\u6237\u5728\u5176\u8ba1\u5212\u7684\u6709\u6548\u671f\u5185\uff0c4G\u4e0a\u7f51\u6570\u636e\u91cf\u548c\u56fd\u9645\u957f\u9014\u8bdd\u8d39\u8865\u8d34\u6bcf30\u5929\u81ea\u52a8\u91cd\u7f6e\u4e00\u6b21\u3002\u60a8\u7684\u4e0b\u4e00\u6b21\u91cd\u7f6e\u65e5\u671f\u4e3a__params__renewal_date."
	},
	"multi_month_reset_completion": {
		"EN": "Your Ultra Mobile 4G LTE Data and INTL Call Credit were reset today. Your next 4G Data and INTL Call Credit reset is __params__renewal_date at 11:59 PM PT.",
		"ES": "Tus Datos 4G LTE y Credito de Llamada INTL de Ultra Mobile se renovaron hoy. La proxima fecha de renovacion es: __params__renewal_date a las 11:59 PM PT.",
		"ZH": "\u60a8\u76844G LTE\u4e0a\u7f51\u91cf\u548c\u56fd\u9645\u957f\u9014\u8865\u8d34\u4e8e\u4eca\u5929\u91cd\u7f6e\u3002\u4e0b\u4e00\u6b21\u91cd\u7f6e\u65e5\u671f__params__renewal_date 11:59 PM PT"
	},
	"credit_card_close_to_expiration": {
		"EN": "Your credit card is expiring soon - update your credit card information at https:\/\/my.ultra.me\/update or call Ultra at 611 to talk to an agent now!",
		"ES": "Tu tarjeta de credito expira pronto - actualiza tu info de tu tarjeta de credito en https:\/\/my.ultra.me\/update o llama a 611 para hablar con un agente Ultra.",
		"ZH": "\u60a8\u7684\u4fe1\u7528\u5361\u5c31\u5feb\u8fc7\u671f\u4e86 - \u8bf7\u767b\u5f55https:\/\/my.ultra.me\/update\u6216\u62e8\u6253611\u6765\u66f4\u65b0\u60a8\u7684\u4fe1\u7528\u5361\u4fe1\u606f\u3002"
	},
	"credit_card_expired": {
		"EN": "Your credit card has expired - update your credit card information at https:\/\/my.ultra.me\/update or call Ultra at 611 to talk to an agent now!",
		"ES": "Tu tarjeta de credito ha expirado - Actualiza tu informacion de tarjeta de credito en https:\/\/my.ultra.me\/update o llama a 611 para hablar con un agente ahora!",
		"ZH": "\u60a8\u7684\u4fe1\u7528\u5361\u5df2\u8fc7\u671f - \u8bf7\u767b\u5f55https:\/\/my.ultra.me\/update \u6216\u62e8\u6253611\u6765\u66f4\u65b0\u60a8\u7684\u4fe1\u7528\u5361\u4fe1\u606f\u3002"
	},
	"credit_card_has_expired": {
		"EN": "Your credit card has expired. Please visit https:\/\/my.ultra.me\/t\/__params__login_token\/update to update your credit card information.",
		"ES": "Tu tarjeta de credito ha expirado. Visite https:\/\/my.ultra.me\/t\/__params__login_token\/update para actualizar la informacion de su tarjeta de credito.",
		"ZH": "\u60a8\u7684\u4fe1\u7528\u5361\u5df2\u8fc7\u671f\u3002\u8bf7\u8bbf\u95ee https:\/\/my.ultra.me\/t\/__params__login_token\/update \u4ee5\u66f4\u65b0\u60a8\u7684\u4fe1\u7528\u5361\u4fe1\u606f\u3002"
	},
	"credit_card_failed_and_expired": {
		"EN": "Your payment of $__params__amount failed to process successfully because of an expired card on file. Please visit https:\/\/my.ultra.me\/t\/__params__login_token\/update to update your credit card information.",
		"ES": "Tu pago de $__params__amount no se proceso correctamente debido a una tarjeta caducada en el archivo. Visite https:\/\/my.ultra.me\/t\/__params__login_token\/update para actualizar la informaci\u00f3n de su tarjeta de credito.",
		"ZH": "\u60a8\u7684\u4ed8\u6b3e $__params__amount \u65e0\u6cd5\u6210\u529f\u5904 - \u56e0\u4e3a\u5b58\u6863\u5361\u5df2\u8fc7\u671f\u3002\u8bf7\u8bbf\u95ee https:\/\/my.ultra.me\/t\/__params__login_token\/update \u4ee5\u66f4\u65b0\u60a8\u7684\u4fe1\u7528\u5361\u4fe1\u606f\u3002"
	},
	"7_11_bogo_activation": {
		"EN": "Thank you for purchasing Ultra Mobile at 7-Eleven. Your FREE month has been added to your account! Please return to 7-Eleven when you're ready to recharge."
	},
	"7_11_bogo_second_month": {
		"EN": "Thanks again from Ultra! Your FREE month begins today and will expire on __params__renewal_date at 11:59pm PT. Please return to 7-Eleven to recharge your account."
	},
	"7_11_bogo_close_to_expiration": {
		"EN": "Your free month from Ultra Mobile is expiring soon. Don't forget to recharge your account at 7-Eleven by __params__renewal_date to keep your account active."
	},
	"data_95_bolt_on_next": {
		"EN": "You have used 95% of your 4G LTE add-on data. Visit https:\/\/my.ultra.me\/t\/__params__login_token\/data or text UPDATA to 6700 to buy more 4G LTE.",
		"ES": "Has usado el 95% de tu servicio adicional de datos 4G LTE. Visita https:\/\/my.ultra.me\/t\/__params__login_token\/datao envida la palabra UPDATE al 6700 para comprar mas",
		"ZH": "95%\\u989d\\u5916\\u8d2d\\u4e70\\u76844G LTE\\u4e0a\\u7f51\\u6d41\\u91cf\\u5df2\\u7528\\u5c3d-\\u8bbf\\u95ee https:\/\/my.ultra.me\/t\/__params__login_token\/data \\u5145\\u503c"
	},
	"data_100_bolt_on_next": {
		"EN": "You have used 100% of your add-on 4G LTE and are now using 3G DataXtra. Buy more 4G LTE: https:\/\/my.ultra.me\/t\/__params__login_token\/data or text UPDATA to 6700.",
		"ES": "Agotaste 100% de datos 4GLTE adicionales, ahora usas los 3G de alta velocidad. Para mas 4GLTE: https:\/\/my.ultra.me\/t\/__params__login_token\/data o envida UPDATA al 6700",
		"ZH": "\\u60a8\\u989d\\u5916\\u8d2d\\u4e70\\u76844G LTE\\u4e0a\\u7f51\\u6d41\\u91cf\\u5df2\\u7ecf\\u7528\\u5c3d\\u3002\\u73b0\\u5728\\u5f00\\u59cb\\u4f7f\\u75283G\\u9ad8\\u901f\\u4e0a\\u7f51\\u30024G LTE\\u5145\\u503c: https:\/\/my.ultra.me\/t\/__params__login_token\/"
	},
	"first_decline_day_0": {
		"EN": "Your monthly payment did not process-your account is suspended. We will try up to two more times to charge card. Call 222 or visit https:\/\/my.ultra.me\/update",
		"ES": "Tu pago mensual no se proceso- tu cuenta esta suspendida. Intentaremos cargar tu tarjeta hasta 2 veces mas. Marca 222 o visita https:\/\/my.ultra.me\/update",
		"ZH": "\\u60a8\\u7684\\u6bcf\\u6708\\u4ed8\\u6b3e\\u65e0\\u6cd5\\u5904\\u7406\\u2014\\u2014\\u60a8\\u7684\\u8d26\\u6237\\u5df2\\u88ab\\u6682\\u505c\\u3002\\u6211\\u4eec\\u8fd8\\u5c06\\u518d\\u8bd52\\u6b21\\u3002\\u8bf7\\u62e8\\u6253222\\u6216\\u767b\\u5f55m.ultra.me\/#\/update\\u3002"
	},
	"second_decline_day_1": {
		"EN": "Your monthly payment did not process-your account is still suspended. We will try one more time to charge card. Call 222 or visit https:\/\/my.ultra.me\/update",
		"ES": "Tu pago mensual no se proceso- tu cuenta esta suspendida. Intentaremos cargar tu tarjeta una vez mas. Marca 222 o visita https:\/\/my.ultra.me\/update",
		"ZH": "\\u60a8\\u7684\\u6bcf\\u6708\\u4ed8\\u6b3e\\u65e0\\u6cd5\\u5904\\u7406\\u2014\\u2014\\u60a8\\u7684\\u8d26\\u6237\\u4ecd\\u5728\\u6682\\u505c\\u4e2d\\u3002\\u6211\\u4eec\\u8fd8\\u5c06\\u518d\\u8bd51\\u6b21\\u3002\\u8bf7\\u62e8\\u6253222\\u6216\\u767b\\u5f55m.ultra.me\/#\/update\\u3002"
	},
	"final_decline_day_2": {
		"EN": "We are unable to properly process your Ultra payment. Please retry or use another card. Pay your bill at https:\/\/my.ultra.me - call 222 or visit retailer.",
		"ES": "No pudimos procesar tu pago con exito. Intenta otra vez o utiliza otra tarjeta. Paga tu factura en https:\/\/my.ultra.me \u2013 marca 222 o visita una minorista.",
		"ZH": "\\u6211\\u4eec\\u65e0\\u6cd5\\u5904\\u7406\\u60a8\\u7684\\u4ed8\\u6b3e\\u3002\\u8bf7\\u91cd\\u8bd5\\u6216\\u4f7f\\u7528\\u5176\\u5b83\\u5361\\u3002\\u767b\\u5f55https:\/\/my.ultra.me -\\u62e8\\u6253222\\u6216\\u53bb\\u96f6\\u552e\\u5546\\u5904\\u4ed8\\u6b3e\\u3002"
	},
	"language_query": {
		"EN": "Your language preference is currently set to English. For Spanish reply with 2. For Chinese reply with 3. To keep your current preference reply STOP.",
		"ES": "Tu preferencia de idioma se establecio en Espanol. For English reply with 1. For Chinese reply with 3. Para mantener tu preferencia actual responde con STOP.",
		"ZH": "\\u60a8\\u76ee\\u524d\\u7684\\u8bed\\u8a00\\u504f\\u597d\\u8bbe\\u7f6e\\u4e3a\\u4e2d\\u6587\\u3002For English reply with 1. For Spanish reply with 2. \\u77ed\\u4fe1\\u56de\\u590dSTOP\\uff0c\\u4ee5\\u7ee7\\u7eed\\u4f7f\\u7528\\u4e2d\\u6587\\u3002"
	},
	"boltons_finish": {
		"EN": "Thank you. We are processing your purchase.",
		"ES": "Gracias. Tu compra esta procesando.",
		"ZH": "\\u8c22\\u8c22\\u3002\\u4f60\\u8d2d\\u4e70\\u7684\\u662f\\u52a0\\u5de5\\u3002"
	},
	"boltons_determine": {
		"EN": "Reply UPDATA to add data or UPINTL to add international credit.",
		"ES": "Contesta a este mensaje con UPDATA para agregar mas datos, o con UPINTL para agregar mas credito para llamadas internacionales.",
		"ZH": "\\u8bf7\\u7528UPDATA\\u56de\\u590d\\u6b64\\u77ed\\u4fe1\\u4ee5\\u6dfb\\u52a0\\u4e0a\\u7f51\\u6570\\u636e\\u91cf\\uff1b\\u6216\\u56de\\u590dUPINTL\\u6dfb\\u52a0\\u56fd\\u9645\\u957f\\u9014\\u8bdd\\u8d39\\u3002"
	},
	"boltons_select_intl": {
		"EN": "Your balance is __params__balance. Please select UPINTL option: (1) pay __params__cost0 get __params__value0 credit (2) pay __params__cost1 get __params__value1 credit (3) pay __params__cost2 get __params__value2 credit. Reply with 1 or 2 or 3.",
		"ES": "Tu balance es __params__balance. Elige tu opcion UPINTL: (1) paga __params__cost0 por __params__value0 credito (2) paga __params__cost1 por __params__value1 credito (3) paga __params__cost2 por __params__value2 credito. Contesta con 1 o 2 o 3",
		"ZH": "\\u4f59\\u989d\\u4e3a__params__balance\\u3002UPINTL\\u5145\\u503c: (1)\\u4ed8__params__cost0\\u5b9e\\u9645\\u5145\\u503c__params__value0 (2)__params__cost1\\u83b7\\u5f97__params__value1 (3)__params__cost2 \\u83b7\\u5f97__params__value2 \\u3002\\u56de\\u590d1\\u62162\\u62163\\u3002"
	},
	"boltons_select_data": {
		"EN": "Your balance is __params__balance. Please select UPDATA option: (1) pay __params__cost0 get __params__value0 (2) pay __params__cost1 get __params__value1 (3) pay __params__cost2 get __params__value2. Reply with 1 or 2 or 3.",
		"ES": "Tu balance es __params__balance. Elige tu opcion 4G LTE UPDATA: (1) paga __params__cost0 por __params__value0 (2) paga (2) __params__cost1 por __params__value1 (3) paga __params__cost2 por __params__value2. Contesta con 1 o 2 o 3",
		"ZH": "\\u4f59\\u989d__params__balance\\u3002\\u5145\\u503c4G LTE UPDATA: (1)__params__cost0 - __params__value0 (2)__params__cost1 - __params__value1 (3)__params__cost2 - __params__value2\\u3002\\u56de\\u590d1\\u62162\\u62163\\u3002"
	},
	"boltons_select_roam": {
		"EN": "Your balance is __params__balance. Please select UPROAM option: (1) pay __params__cost0 get __params__value0 credit (2) pay __params__cost1 get __params__value1 credit (3) pay __params__cost2 get __params__value2 credit. Reply with 1 or 2 or 3.",
		"ES": "Tu balance es __params__balance. Elige tu opcion UPROAM: (1) paga __params__cost0 por __params__value0 credito (2) paga __params__cost1 por __params__value1 credito (3) paga __params__cost2 por __params__value2 credito. Contesta con 1 o 2 o 3",
		"ZH": "\\u4f59\\u989d\\u4e3a__params__balance\\UPROAM\\u5145\\u503c: (1)\\u4ed8__params__cost0\\u5b9e\\u9645\\u5145\\u503c__params__value0 (2)__params__cost1\\u83b7\\u5f97__params__value1 (3)__params__cost2 \\u83b7\\u5f97__params__value2 \\u3002\\u56de\\u590d1\\u62162\\u62163\\u3002"
	},
	"boltons_select_globe": {
		"EN": "Your balance is __params__balance. Please select UPGLOBE option: (1) pay __params__cost0 to get __params__value0. Reply with 1.",
		"ES": "Tu balance es __params__balance. Elige tu opcion UPGLOBE: (1) paga __params__cost0 por __params__value0. Contesta con 1.",
		"ZH": "\\u4f59\\u989d\\u4e3a__params__balance\\UPGLOBE\\u5145\\u503c: (1)\\u4ed8__params__cost0\\u5b9e\\u9645\\u5145\\u503c__params__value0 \\u3002\\u56de\\u590d\\u3001"
	},
	"boltons_confirm": {
		"EN": "You chose __params__description for the price of __params__cost. Please reply YES to purchase or NO to cancel.",
		"ES": "Eligiste __params__description por el precio de __params__cost. Por favor contesta SI para comprar o NO para cancelar.",
		"ZH": "\\u60a8\\u9009\\u62e9\\u4e86__params__description\\u4ef7\\u683c\\u4e3a__params__cost\\u3002\\u8bf7\\u56de\\u590dYES\\u8d2d\\u4e70\\uff0c\\u6216\\u56de\\u590dNO\\u53d6\\u6d88\\u3002"
	},
	"auto_recharge_active": {
		"EN": "Auto Recharge is now enabled on your Ultra Mobile account with your credit card ending in __params__last_four. Manage your settings here: https:\/\/my.ultra.me",
		"ES": "\u00a1Felicidades ha activado Auto-Recarga en su cuenta Ultra Mobile con su tarjeta de credito con terminacion __params__last_four! Administre su cuenta en https:\/\/my.ultra.me",
		"ZH": "\\u606d\\u559c-\\u60a8\\u5df2\\u6fc0\\u6d3bUltra Mobile\\u7684\\u81ea\\u52a8\\u5145\\u503c\\u529f\\u80fd(\\u4fe1\\u7528\\u5361\\u540e\\u56db\\u4f4d__params__last_four)\\uff01\\u8bf7\\u767b\\u5f55https:\/\/my.ultra.me \\u7ba1\\u7406\\u60a8\\u7684\\u8d26\\u6237"
	},
	"wifi_calling_add": {
		"EN": "Success! WiFi calling is officially activated on your Ultra phone!",
		"ES": "Listo! Las llamadas por WiFi han sido oficialmente activadas en tu telefono Ultra!",
		"ZH": "\\u6210\\u529f\\uff01\\u65e0\\u7ebf\\u901a\\u8bdd\\u5df2\\u7ecf\\u5728\\u60a8\\u7684Ultra\\u624b\\u673a\\u4e0a\\u6b63\\u5f0f\\u542f\\u7528\\uff01"
	},
	"wifi_calling_remove": {
		"EN": "You have just deactivated WiFi calling on your Ultra account. Please note that you can reactivate WiFi calling at any time.",
		"ES": "Has desactivado las llamadas por WiFi en tu cuenta Ultra. Por favor, recuerda que puedes activar las llamadas por WiFi cuando desees.",
		"ZH": "\\u60a8\\u521a\\u521a\\u5728\\u60a8\\u7684Ultra\\u8d26\\u6237\\u4e2d\\u5173\\u95ed\\u4e86\\u65e0\\u7ebf\\u901a\\u8bdd\\u3002\\u8bf7\\u6ce8\\u610f\\uff0c\\u60a8\\u53ef\\u4ee5\\u968f\\u65f6\\u91cd\\u65b0\\u5f00\\u542f\\u65e0\\u7ebf\\u901a\\u8bdd\\u529f\\u80fd\\u3002"
	},
	"e911_updated": {
		"EN": "This message confirms that your e911 address for Ultra's WiFi calling has been changed.",
		"ES": "Este mensaje es para confirmar que tu direccion e911 para llamadas por WiFi ha sido cambiada.",
		"ZH": "\\u6b64\\u77ed\\u4fe1\\u786e\\u8ba4\\u4e86\\u60a8\\u65e0\\u7ebf\\u901a\\u8bdd\\u7684e911\\u5730\\u5740\\u5df2\\u4fee\\u6539\\u3002"
	},
	"wifi_calling_activation": {
		"EN": "Did you know that Ultra subscribers with most Android phones can make and receive calls using WiFi? Learn more at https:\/\/ultramobile.com\/faq",
		"ES": "Sabias que los usuarios Univision Mobile con telefonos Android selectos pueden hacer y recibir llamadas por WiFi? Aprende mas: http:\/\/univisionmobile.com\/faq",
		"ZH": "\\u60a8\\u77e5\\u9053\\u5417\\uff0c\\u4f7f\\u7528Android\\u624b\\u673a\\u7684Ultra\\u7528\\u6237\\u53ef\\u4ee5\\u901a\\u8fc7WiFi\\u62e8\\u6253\\u6216\\u63a5\\u542c\\u7535\\u8bdd\\u3002\\u8be6\\u60c5\\u8bf7\\u89c1Ultra\\u7684\\u5e38\\u89c1\\u95ee\\u9898\\u9875\\u9762\\uff01"
	},
	"45_plan_more_data": {
		"EN": "Great News: Your $45 Ultra Mobile plan now gives you 5GB of 3G data after your 5GB of 4G LTE data is used! That's 10GB of high-speed data at no extra cost!",
		"ES": "Buenas noticias:Tu plan $45 de Ultra Mobile ahora da 5GB de datos 3G cuando tus 5GB de datos 4G LTE se agotan. 10 GB en datos de alta velocidad sin costo extra!",
		"ZH": "\\u597d\\u6d88\\u606f\\uff1aUltra 5\\u8ba1\\u5212\\u57285GB\\u76844G LTE\\u7528\\u5c3d\\u540e\\u518d\\u63d0\\u4f9b5GB\\u76843G\\u9ad8\\u901f\\u4e0a\\u7f51-10GB\\u9ad8\\u901f\\u4e0a\\u7f51\\u6d41\\u91cf\\u65e0\\u989d\\u5916\\u6536\\u8d39\\uff01"
	},
	"flex_invite_code": {
		"EN": "Your Ultra Flex Family Invite Code is __params__invite_code. Share this with friends and family so they can join your Ultra Flex Family.",
		"ES": "Tu Codigo de Invitacion Ultra Flex Family es __params__invite_code. Compartelo con amigos y familiares para que se unan a tu Ultra Flex Family.",
		"ZH": "\\u60a8\\u7684Ultra Flex Family\\u5f39\\u6027\\u5bb6\\u5ead\\u8ba1\\u5212\\u9080\\u8bf7\\u7801\\u662f__params__invite_code\\u3002\\u5feb\\u4e0e\\u4eb2\\u670b\\u597d\\u53cb\\u5206\\u4eab\\u5b83\\u2014\\u2014\\u8ba9\\u4ed6\\u4eec\\u4e00\\u8d77\\u6765\\u52a0\\u5165\\u60a8\\u7684\\u8ba1\\u5212\\u3002"
	},
	"flex_child_activated": {
		"EN": "__params__child_msisdn has successfully joined your Ultra Flex Family. Manage your Family at your local Ultra retailer.",
		"ES": "__params__child_msisdn se ha unido exitosamente a tu Ultra Flex Family. Administra tu Familia con tu distribuidor local Ultra.",
		"ZH": "__params__child_msisdn\\u5df2\\u7ecf\\u6210\\u529f\\u52a0\\u5165\\u60a8\\u7684Ultra Flex Family\\u5f39\\u6027\\u5bb6\\u5ead\\u8ba1\\u5212\\u3002\\u8bbf\\u95eeUltra\\u96f6\\u552e\\u5546\\u4ee5\\u66f4\\u6539\\u5bb6\\u5ead\\u8ba1\\u5212\\u7684\\u8bbe\\u7f6e\\u3002"
	},
	"flex_family_data_95_percent_no_bolt": {
		"EN": "95% of your Shared 4G LTE data has been used. Data will be shut off once 100% usage is reached. Visit an Ultra retailer to purchase additional Shared 4G LTE.",
		"ES": "Has usado 95% de tus datos 4GLTE Compartidos. Se desactivaran cuando el 100% haya sido usado. Visita un distribuidor Ultra para comprar mas datos compartidos.",
		"ZH": "\\u60a8\\u5171\\u4eab\\u76844G LTE\\u4e0a\\u7f51\\u6d41\\u91cf\\u5df2\\u7ecf\\u4f7f\\u7528\\u4e8695%\\u3002100%\\u7528\\u5c3d\\u540e\\u4e0a\\u7f51\\u6d41\\u91cf\\u5c06\\u88ab\\u5173\\u95ed\\u3002\\u8bf7\\u8bbf\\u95eeUltra\\u96f6\\u552e\\u5546\\u8d2d\\u4e70\\u66f4\\u591a\\u4e0a\\u7f51\\u6d41\\u91cf\\u3002"
	},
	"flex_data_95_percent_no_bolt": {
		"EN": "95% of your 4G LTE data has been used. Data will be shut off once 100% usage is reached. Visit an Ultra retailer to purchase additional 4G LTE.",
		"ES": "Has usado 95% de tus datos 4G LTE. Se desactivaran cuando el 100% haya sido usado. Visita un distribuidor Ultra para comprar m\\u00e1s datos 4G LTE.",
		"ZH": "\\u60a8\\u76844G LTE\\u4e0a\\u7f51\\u6d41\\u91cf\\u5df2\\u7ecf\\u4f7f\\u7528\\u4e8695%\\u3002100%\\u7528\\u5c3d\\u540e\\u4e0a\\u7f51\\u6d41\\u91cf\\u5c06\\u88ab\\u5173\\u95ed\\u3002\\u8bf7\\u8bbf\\u95eeUltra\\u96f6\\u552e\\u5546\\u8d2d\\u4e70\\u66f4\\u591a\\u7684\\u4e0a\\u7f51\\u6d41\\u91cf\\u3002"
	},
	"flex_family_data_100_percent_no_bolt": {
		"EN": "100% of your Shared 4G LTE data has been used. Data is now shut off. Visit an Ultra retailer to purchase additional Shared 4G LTE data.",
		"ES": "Has usado el 100% de tus datos 4G LTE Compartidos y han sido desactivados. Visita un distribuidor Ultra para comprar mas datos 4G LTE compartidos.",
		"ZH": "\\u60a8\\u5171\\u4eab\\u76844G LTE\\u4e0a\\u7f51\\u6d41\\u91cf\\u5df2\\u7ecf100%\\u7528\\u5c3d\\u3002\\u4e0a\\u7f51\\u6d41\\u91cf\\u5df2\\u5173\\u95ed\\u3002\\u8bf7\\u8bbf\\u95eeUltra\\u96f6\\u552e\\u5546\\u8d2d\\u4e70\\u66f4\\u591a\\u7684\\u4e0a\\u7f51\\u6d41\\u91cf\\u3002"
	},
	"flex_data_100_percent_no_bolt": {
		"EN": "100% of your 4G LTE data has been used. Data is now shut off. Visit an Ultra retailer to purchase additional 4G LTE data.",
		"ES": "Has usado el 100% de tus datos 4G LTE y han sido desactivados. Visita un distribuidor Ultra para comprar mas datos 4G LTE.",
		"ZH": "\\u60a8\\u76844G LTE\\u4e0a\\u7f51\\u6d41\\u91cf\\u5df2\\u7ecf100%\\u7528\\u5c3d\\u3002\\u4e0a\\u7f51\\u6d41\\u91cf\\u5df2\\u5173\\u95ed\\u3002\\u8bf7\\u8bbf\\u95eeUltra\\u96f6\\u552e\\u5546\\u8d2d\\u4e70\\u66f4\\u591a\\u7684\\u4e0a\\u7f51\\u6d41\\u91cf\\u3002"
	},
	"flex_family_customerinfo_data": {
		"EN": "Your data usage is __params__flex_usage. The total family usage is __params__flex_family_usage. You have __params__flex_remaining data remaining.",
		"ES": "Tu uso de datos es __params__flex_usage de datos. El uso de datos familiar en total es de __params__flex_family_usage. Usted tiene __params__flex_remaining datos restantes.",
		"ZH": "\\u60a8\\u4f7f\\u7528\\u4e86__params__flex_usage\\u4e0a\\u7f51\\u6d41\\u91cf\\u3002\\u6574\\u4e2a\\u5bb6\\u5ead\\u4f7f\\u7528\\u4e86__params__flex_family_usage\\u4e0a\\u7f51\\u6d41\\u91cf\\u3002\\u4f60\\u6709__params__flex_remaining\\u5269\\u4e0b\\u4e92\\u8054\\u7f51\\u6d41\\u91cf\\u3002"
	},
	"flex_customerinfo_data": {
		"EN": "Your data usage is __params__flex_usage of __params__flex_limit data. You have __params__flex_remaining data remaining.",
		"ES": "Tu uso de datos es __params__flex_usage de __params__flex_limit. Usted tiene __params__flex_remaining datos restantes.",
		"ZH": "\\u60a8\\u4f7f\\u7528\\u4e86__params__flex_usage\\u4e0a\\u7f51\\u6d41\\u91cf\\u3002\\u4f60\\u6709__params__flex_remaining\\u5269\\u4e0b\\u4e92\\u8054\\u7f51\\u6d41\\u91cf\\u3002"
	},
	"flex_customerinfo_voice_no_zero": {
		"EN": "Plan Credits: __params__flex_plan_credits. INTL Credit: $__params__flex_intl_credits. Ultra Wallet: $__params__balance. Roaming: $__params__roaming_balance. Your Ultra Flex Plan expires on __params__plan_expires at 11:59 PM PT.",
		"ES": "Creditos de Plan: __params__flex_plan_credits. Credito INTL: $__params__flex_intl_credits. Cartera Ultra: $__params__balance. Roaming: $__params__roaming_balance. Tu Plan Ultra Flex expira en __params__plan_expires a las 11:59 PM PT.",
		"ZH": "\\u624b\\u673a\\u7ebf\\u6570: __params__flex_plan_credits\\u3002 \\u56fd\\u9645\\u957f\\u9014\\u8bdd\\u8d39\\u8865\\u8d34: $__params__flex_intl_credits\\u3002 Ultra\\u94b1\\u5305: $__params__balance\\u3002\\u56fd\\u9645\\u6f2b\\u6e38\\u4f59\\u989d: $__params__roaming_balance\\u3002 \\u60a8\\u7684Ultra Flex\\u8ba1\\u5212\\u5c06\\u4e8e__params__plan_expires 11:59 PM PT\\u5230\\u671f\\u3002"
	},
	"flex_plan_provisioned": {
		"EN": "Complete your Ultra Flex activation by adding funds at your local Ultra retailer.",
		"ES": "Termina la activacion de tu Ultra Flex agregando fondos en tu distribuidor local Ultra.",
		"ZH": "\u8bf7\u8bbf\u95ee\u60a8\u9644\u8fd1\u7684Ultra\u96f6\u552e\u5546\u5e76\u5145\u503c\uff0c\u4ee5\u5b8c\u6210Ultra Flex\u8ba1\u5212\u7684\u6fc0\u6d3b\u3002"
	},
	"flex_activate_portin": {
		"EN": "Welcome to Ultra Mobile. Your phone number - __params__msisdn - has been successfully transferred to Ultra Flex from your old carrier.",
		"ES": "Bienvenido a Ultra Mobile. Tu numero telefonico - __params__msisdn - ha sido transferido a Ultra Flex desde tu antigua compania.",
		"ZH": "\u6b22\u8fce\u4f7f\u7528Ultra Mobile\u3002\u60a8\u7684\u7535\u8bdd\u53f7\u7801__params__msisdn\u5df2\u7ecf\u6210\u529f\u8f6c\u79fb\u4f20\u8f93\u5230Ultra Flex\u8ba1\u5212\u4e2d"
	},
	"flex_activate_planinfo": {
		"EN": "Your 1st month of Ultra Flex begins today. Please visit ultra.me\/terms for our Terms and Conditions.",
		"ES": "Tu 1er. mes de Ultra Flex empieza hoy. Por favor visita ultra.me\/terms para ver nuestros Terminos y Condiciones.",
		"ZH": "\u60a8\u7b2c\u4e00\u4e2a\u6708\u7684Ultra Flex\u8ba1\u5212\u5f00\u59cb\u4e8e\u4eca\u5929\u3002\u8bf7\u8bbf\u95eeultra.me\/terms\u4e86\u89e3\u6211\u4eec\u7684\u670d\u52a1\u6761\u6b3e\u548c\u6761\u4ef6\u3002"
	},
	"flex_boltons_select_intl": {
		"EN": "Your balance is __params__balance. Please select UPINTL option: (1) pay __params__cost0 get __params__value0 credit (2) pay __params__cost1 get __params__value1 credit (3) pay __params__cost2 get __params__value2 credit (4) pay __params__cost3 get __params__value2 credit. Reply with 1 or 2 or 3 or 4.",
		"ES": "Tu balance es __params__balance. Elige tu opcion UPINTL: (1) paga __params__cost0 por __params__value0 credito (2) paga __params__cost1 por __params__value1 credito (3) paga __params__cost2 por __params__value2 credito (4) paga __params__cost3 por __params__value2 credito. Contesta con 1 o 2 o 3 o 4",
		"ZH": "\\u4f59\\u989d\\u4e3a__params__balance\\u3002UPINTL\\u5145\\u503c: (1)\\u4ed8__params__cost0\\u5b9e\\u9645\\u5145\\u503c__params__value0 (2)__params__cost1\\u83b7\\u5f97__params__value1 (3)__params__cost2 \\u83b7\\u5f97__params__value2 (4)__params__cost3 \\u83b7\\u5f97__params__value3 \\u3002\\u56de\\u590d1\\u62162\\u62163\\u62164\\u3002"
	},
	"flex_boltons_select_data": {
		"EN": "Your balance is __params__balance. Please select UPDATA option: (1) pay __params__cost0 get __params__value0 (2) pay __params__cost1 get __params__value1 (3) pay __params__cost2 get __params__value2 (4) pay __params__cost3 get __params__value3 (5) pay __params__cost4 get __params__value4. Reply with 1 or 2 or 3 or 4 or 5.",
		"ES": "Tu balance es __params__balance. Elige tu opcion 4G LTE UPDATA: (1) paga __params__cost0 por __params__value0 (2) paga (2) __params__cost1 por __params__value1 (3) paga __params__cost2 por __params__value2 (4) paga __params__cost3 por __params__value3 (5) paga __params__cost4 por __params__value4. Contesta con 1 o 2 o 3 o 4 o 5",
		"ZH": "\\u4f59\\u989d__params__balance\\u3002\\u5145\\u503c4G LTE UPDATA: (1)__params__cost0 - __params__value0 (2)__params__cost1 - __params__value1 (3)__params__cost2 - __params__value2 (4)__params__cost3 - __params__value3 (5)__params__cost4 - __params__value4\\u3002\\u56de\\u590d1\\u62162\\u62163\\u62164\\u62165\\u3002"
	},
	"flex_boltons_select_roam": {
		"EN": "Your balance is __params__balance. Please select UPROAM option: (1) pay __params__cost0 get __params__value0 credit (2) pay __params__cost1 get __params__value1 credit (3) pay __params__cost2 get __params__value2 credit. Reply with 1 or 2 or 3.",
		"ES": "Tu balance es __params__balance. Elige tu opcion UPROAM: (1) paga __params__cost0 por __params__value0 credito (2) paga __params__cost1 por __params__value1 credito (3) paga __params__cost2 por __params__value2 credito. Contesta con 1 o 2 o 3",
		"ZH": "\\u4f59\\u989d\\u4e3a__params__balance\\UPROAM\\u5145\\u503c: (1)\\u4ed8__params__cost0\\u5b9e\\u9645\\u5145\\u503c__params__value0 (2)__params__cost1\\u83b7\\u5f97__params__value1 (3)__params__cost2 \\u83b7\\u5f97__params__value2 \\u3002\\u56de\\u590d1\\u62162\\u62163\\u3002"
	},
	"flex_boltons_select_globe": {
		"EN": "Your balance is __params__balance. Please select UPGLOBE option: (1) pay __params__cost0 to get __params__value0. Reply with 1.",
		"ES": "Tu balance es __params__balance. Elige tu opcion UPGLOBE: (1) paga __params__cost0 por __params__value0. Contesta con 1.",
		"ZH": "\\u4f59\\u989d\\u4e3a__params__balance\\UPGLOBE\\u5145\\u503c: (1)\\u4ed8__params__cost0\\u5b9e\\u9645\\u5145\\u503c__params__value0 \\u3002\\u56de\\u590d\\u3001"
	},
	"setup_apn_ios": {
		"EN": "Configuration of your Ultra Mobile data settings is nearly complete. Please use your phone to finish the steps provided in our next message.",
		"ES": "La configuraci\u00f3n de los ajustes de tu Ultra Mobile est\u00e1 casi completa. Por favor usa tu tel\u00e9fono para finalizar los pasos que proveeremos en nuestro pr\u00f3ximo mensaje.",
		"ZH": "\u60a8\u7684Ultra Mobile\u4e0a\u7f51\u8bbe\u7f6e\u5df2\u7ecf\u5feb\u5b8c\u6210\u4e86\u3002\u8bf7\u5728\u60a8\u7684\u624b\u673a\u4e0a\u5b8c\u6210\u4e0b\u4e00\u6761\u77ed\u4fe1\u4e2d\u63d0\u4f9b\u7684\u5206\u6b65\u6307\u5bfc\u3002"
	},
	"setup_apn_android": {
		"EN": "Your data settings are coming shortly! Watch for a text message with further instructions. Follow the steps provided to properly set up your data.",
		"ES": "Su configuración de datos se publicará próximamente, espere un mensaje de texto con instrucciones adicionales y siga los pasos que se indican para configurar correctamente su data.",
		"ZH": "\u60a8\u7684\u6570\u636e\u8bbe\u7f6e\u5373\u5c06\u6765\u4e34\uff01\u8bf7\u67e5\u8be2\u60a8\u7684\u77ed\u4fe1\uff0c\u4ee5\u4fbf\u5f97\u5230\u8fdb\u4e00\u6b65\u7684\u8bf4\u660e\u3002\u8bf7\u6309\u7167\u63d0\u4f9b\u7684\u6b65\u9aa4\u8bbe\u7f6e\u60a8\u7684\u6570\u636e\u3002\u8c22\u8c22"
	},
	"setup_non_ota_apn": {
		"EN": "Hello Ultra Mobile Subscriber. For help setting up your data \/ internet settings please visit www.ultramobile.com\/faq and follow the manual instructions provided.",
		"ES": "Hello Ultra Mobile Subscriber. For help setting up your data \/ internet settings please visit www.ultramobile.com\/faq and follow the manual instructions provided.",
		"ZH": "Hello Ultra Mobile Subscriber. For help setting up your data \/ internet settings please visit www.ultramobile.com\/faq and follow the manual instructions provided."
	},
	"flex_parent_pay_for_family_off": {
		"EN": "You have disabled Pay for Family. Each Ultra Flex Family member is now responsible for recharging their own service.",
		"ES": "Has inhabilitado la opcion Pagar Por La Familia. Cada miembro del plan Ultra Flex Family ahora es responsable de recargar su propio servicio.",
		"ZH": "\u60a8\u5df2\u7ecf\u5173\u95ed\u4e86\u201c\u652f\u4ed8\u5168\u5bb6\u624b\u673a\u8d39\u201d\u7684\u8bbe\u7f6e\u3002\u73b0\u5728\u6bcf\u4f4dUltra Flex Family\u5f39\u6027\u5bb6\u5ead\u8ba1\u5212\u7684\u6210\u5458\u90fd\u5fc5\u987b\u652f\u4ed8\u5176\u5404\u81ea\u7684\u624b\u673a\u8d39\u3002"
	},
	"flex_child_pay_for_family_off": {
		"EN": "Your Ultra Flex Family parent has disabled Pay for Family. You will be responsible to recharge your service on your next renewal date.",
		"ES": "El Titular de tu plan Ultra Flex Family ha desactivado la opcion Pagar por la Familia. Seras responsable de recargar tu servicio en la proxima fecha de renovacion.",
		"ZH": "\u60a8\u7684Ultra Flex Family\u5f39\u6027\u8ba1\u5212\u7684\u5bb6\u957f\u6216\u603b\u7ba1\u7406\u5458\u5df2\u7ecf\u5173\u95ed\u4e86\u201c\u652f\u4ed8\u5168\u5bb6\u624b\u673a\u8d39\u201d\u7684\u8bbe\u7f6e\u3002\u5728\u4e0b\u4e00\u4e2a\u7eed\u7ea6\u65e5\u60a8\u5c06\u8d1f\u8d23\u4e3a\u81ea\u5df1\u7684\u624b\u673a\u670d\u52a1\u5145\u503c\u3002"
	},
	"flex_pay_for_family_auto_recharge_on": {
		"EN": "You have enabled Pay For Family and Auto Recharge. We will automatically charge your credit card to replenish your entire Ultra Flex Family when necessary.",
		"ES": "Has activado la opcion Pagar por la Familia y la Autorecarga. Automaticamente cargaremos a tu tarjeta de credito el monto necesario para reponer los creditos del plan Ultra Flex Family cuando sea necesario.",
		"ZH": "\u60a8\u5df2\u7ecf\u5f00\u542f\u4e86\u201c\u652f\u4ed8\u5168\u5bb6\u624b\u673a\u8d39\u201d\u548c\u201c\u81ea\u52a8\u5145\u503c\u201d\u7684\u8bbe\u7f6e\u3002\u5728\u9700\u8981\u65f6\u6211\u4eec\u5c06\u81ea\u52a8\u4f7f\u7528\u60a8\u7684\u4fe1\u7528\u5361\u6765\u652f\u4ed8\u60a8\u5bb6\u5ead\u8ba1\u5212\u5145\u503c\u7684\u8d39\u7528\u3002"
	},
	"flex_parent_auto_recharge_off_pay_for_family_on": {
		"EN": "Auto Recharge has been disabled on your account. Please purchase plan credits for you and your family before your next renewal date to ensure your service does not get interrupted.",
		"ES": "La Autorecarga ha sido desactivada en tu cuenta. Por favor compra creditos del plan para ti y para tu familia antes de la proxima fecha de renovacion para asegurarte que el servicio no se vea interrumpido.",
		"ZH": "\u60a8\u8d26\u6237\u4e2d\u7684\u201c\u81ea\u52a8\u7eed\u7ea6\u201d\u8bbe\u7f6e\u5df2\u5173\u95ed\u3002\u8bf7\u5728\u4e0b\u4e00\u4e2a\u7eed\u7ea6\u65e5\u4e4b\u524d\u63d0\u524d\u4e3a\u60a8\u548c\u60a8\u5bb6\u4eba\u7684\u624b\u673a\u8ba1\u5212\u5145\u503c - \u4ee5\u907f\u514d\u624b\u673a\u670d\u52a1\u4e2d\u65ad\u3002"
	},
	"flex_parent_auto_recharge_off_pay_for_family_off": {
		"EN": "Auto Recharge has been disabled on your account. Please purchase plan credits before your next renewal date to ensure your service does not get interrupted.",
		"ES": "La Autorecarga ha sido desactivada en tu cuenta. Por favor compra creditos del plan antes de la proxima fecha de renovacion para asegurarte que el servicio no se vea interrumpido.",
		"ZH": "\u60a8\u8d26\u6237\u4e2d\u7684\u201c\u81ea\u52a8\u7eed\u7ea6\u201d\u8bbe\u7f6e\u5df2\u5173\u95ed\u3002\u8bf7\u5728\u4e0b\u4e00\u4e2a\u7eed\u7ea6\u65e5\u4e4b\u524d\u63d0\u524d\u4e3a\u60a8\u7684\u624b\u673a\u8ba1\u5212\u5145\u503c - \u4ee5\u907f\u514d\u624b\u673a\u670d\u52a1\u4e2d\u65ad\u3002"
	},
	"flex_child_auto_recharge_off": {
		"EN": "Auto Recharge has been disabled on your account. Please purchase or ensure your Parent purchases plan credit before your next renewal date so your service does not get interrupted.",
		"ES": "La Autorecarga ha sido desactivada en tu cuenta. Por favor compra, o asegurate de que el Titular de tu plan compre creditos antes de tu proxima fecha de renovacion para que el servicio no se vea interrumpido.",
		"ZH": "\u60a8\u8d26\u6237\u4e2d\u7684\u201c\u81ea\u52a8\u7eed\u7ea6\u201d\u8bbe\u7f6e\u5df2\u5173\u95ed\u3002\u8bf7\u5728\u4e0b\u4e00\u4e2a\u7eed\u7ea6\u65e5\u4e4b\u524d\u63d0\u524d\u4e3a\u60a8\u7684\u624b\u673a\u8ba1\u5212\u5145\u503c\u6216\u8ba9\u60a8\u7684\u5bb6\u957f\u4e3a\u624b\u673a\u8ba1\u5212\u5145\u503c - \u4ee5\u907f\u514d\u624b\u673a\u670d\u52a1\u4e2d\u65ad\u3002"
	},
	"flex_parent_pay_for_family_on_auto_recharge_fails": {
		"EN": "We were unable to process payment for your Ultra Flex Family. Please visit an Ultra retailer or my.ultra.me\/t\/__params__login_token to update your credit card info and add funds.",
		"ES": "No ha sido posible procesar el pago de tu plan Ultra Flex Family. Por favor visita una tienda Ultra o my.ultra.me\/t\/__params__login_token para actualizar la informacion de tu tarjeta de credito y agregar fondos.",
		"ZH": "\u6211\u4eec\u65e0\u6cd5\u5904\u7406\u60a8\u7684Ultra Flex Family\u5f39\u6027\u5bb6\u5ead\u8ba1\u5212\u4ed8\u6b3e\u3002\u8bf7\u8bbf\u95eeUltra\u96f6\u552e\u5546\u6216my.ultra.me\/t\/__params__login_token - \u66f4\u65b0\u60a8\u7684\u4fe1\u7528\u5361\u4fe1\u606f\u5e76\u5145\u503c\u3002"
	},
	"flex_child_pay_for_family_off_auto_recharge_fails": {
		"EN": "We were unable to process your Ultra Flex payment. Please visit an Ultra retailer or my.ultra.me\/t\/__params__login_token to update your credit card info and add funds.",
		"ES": "No ha sido posible procesar el pago de tu plan Ultra Flex. Por favor visita una tienda Ultra o my.ultra.me\/t\/__params__login_token para actualizar la informacion de tu tarjeta de credito y agregar fondos.",
		"ZH": "\u6211\u4eec\u65e0\u6cd5\u5904\u7406\u60a8\u7684Ultra Flex\u5f39\u6027\u8ba1\u5212\u4ed8\u6b3e\u3002\u8bf7\u8bbf\u95eeUltra\u96f6\u552e\u5546\u6216my.ultra.me\/t\/__params__login_token - \u66f4\u65b0\u60a8\u7684\u4fe1\u7528\u5361\u4fe1\u606f\u5e76\u5145\u503c\u3002"
	},
	"abplans_4G_95_percent_limited": {
		"EN": "You have used 95% of your 4G LTE and will continue with High Speed 3G. Buy more 4G LTE: https:\/\/my.ultra.me\/t\/__params__login_token\/data or text UPDATA to 6700.",
		"ES": "Has usado el 95% de tu 4G LTE y continuaras con 3G de alta velocidad. Compra mas 4G LTE: https:\/\/my.ultra.me\/t\/__params__login_token\/data o env\u00eda UPDATA al 6700",
		"ZH": "\u60a8\u5df2\u7ecf\u4f7f\u7528\u4e8695\uff05\u76844G LTE\u9ad8\u901f\u4e0a\u7f51\u6d41\u91cf \u2014 \u7528\u5c3d\u540e\u60a8\u5c06\u7ee7\u7eed\u4f7f\u75283G\u9ad8\u901f\u4e0a\u7f51\u6d41\u91cf\u3002\u8d2d\u4e70\u66f4\u591a\u76844G LTE\u9ad8\u901f\u4e0a\u7f51\u6d41\u91cf\uff1ahttps:\/\/my.ultra.me\/t\/__params__login_token\/data \u6216\u53d1\u77ed\u4fe1UPDATA\u81f36700\u3002"
	},
	"abplans_4G_100_percent_limited": {
		"EN": "You have used 100% of your 4G LTE and are now using High Speed 3G. Buy more 4G LTE: https:\/\/my.ultra.me\/t\/__params__login_token\/data or text UPDATA to 6700.",
		"ES": "Has usado el 100% de tu 4G LTE y ahora estas usando 3G de Alta Velocidad. Compra mas 4G LTE: https:\/\/my.ultra.me\/t\/__params__login_token\/data o envia UPDATA al 6700",
		"ZH": "\u60a8\u5df2\u7ecf100\uff05\u7528\u5c3d\u4e864G LTE\u9ad8\u901f\u4e0a\u7f51\u6d41\u91cf\uff0c\u4ece\u73b0\u5728\u5f00\u59cb\u5c06\u4f7f\u75283G\u9ad8\u901f\u4e0a\u7f51\u6d41\u91cf\u3002\u8d2d\u4e70\u66f4\u591a\u76844G LTE\u9ad8\u901f\u4e0a\u7f51\u6d41\u91cf\uff1ahttps:\/\/my.ultra.me\/t\/__params__login_token\/data \u6216\u53d1\u77ed\u4fe1UPDATA\u81f36700\u3002"
	},
	"abplans_3G_95_percent_limited": {
		"EN": "You have used 95% of your High Speed 3G. Unlimited data will continue at slower speeds. Buy more 4G LTE: https:\/\/my.ultra.me\/t\/__params__login_token\/data",
		"ES": "Has usado el 95% de tu 3G de Alta Velocidad. Los datos ilimitados continuan con velocidades menores. Compra mas 4G LTE: https:\/\/my.ultra.me\/t\/__params__login_token\/data o envia UPDATA al 6700",
		"ZH": "\u60a8\u5df2\u7ecf\u4f7f\u7528\u4e8695\uff05\u76843G\u9ad8\u901f\u4e0a\u7f51\u6d41\u91cf \u2015 \u7528\u5c3d\u540e\u60a8\u5c06\u7ee7\u7eed\u4f7f\u7528\u4f4e\u901f\u65e0\u9650\u4e0a\u7f51\u6d41\u91cf\u3002\u8d2d\u4e70\u66f4\u591a\u76844G LTE\u9ad8\u901f\u4e0a\u7f51\u6d41\u91cf\uff1ahttps:\/\/my.ultra.me\/t\/__params__login_token\/data \u6216\u53d1\u77ed\u4fe1UPDATA\u81f36700\u3002"
	},
	"abplans_3G_100_percent_limited": {
		"EN": "You have used 100% of your High Speed 3G. Unlimited data continues at slower speeds. Buy more 4G LTE: https:\/\/my.ultra.me\/t\/__params__login_token\/data or text UPDATA to 6700",
		"ES": "Has usado el 100% de tu 3G de Alta Velocidad. Los datos ilimitados continuan con velocidades menores. Compra mas 4G LTE: https:\/\/my.ultra.me\/t\/__params__login_token\/data o envia UPDATA al 6700",
		"ZH": "\u60a8\u5df2\u7ecf100\uff05\u7528\u5c3d\u4e863G\u9ad8\u901f\u4e0a\u7f51\u6d41\u91cf\uff0c\u4ece\u73b0\u5728\u5f00\u59cb\u5c06\u4f7f\u7528\u4f4e\u901f\u65e0\u9650\u4e0a\u7f51\u6d41\u91cf\u3002\u8d2d\u4e70\u66f4\u591a\u76844G LTE\u9ad8\u901f\u4e0a\u7f51\u6d41\u91cf\uff1ahttps:\/\/my.ultra.me\/t\/__params__login_token\/data \u6216\u53d1\u77ed\u4fe1UPDATA\u81f36700\u3002"
	},
	"abplans_4G_95_percent_unlimited": {
		"EN": "Alert: your Ultra Mobile account is approaching the limit of high-speed data allowable per our Terms & Conditions (bit.ly\/emueng).",
		"ES": "Alerta: Tu cuenta Ultra Mobile se esta acercando al limite de los datos de alta velocidad permitidos por nuestros Terminos & Condiciones (bit.ly\/emues).",
		"ZH": "\u8b66\u544a\u63d0\u793a\uff1a\u60a8\u7684Ultra Mobile\u8d26\u6237\u5bf9\u9ad8\u901f\u4e0a\u7f51\u6d41\u91cf\u7684\u4f7f\u7528\u5df2\u7ecf\u63a5\u8fd1\u6211\u4eec\u4f7f\u7528\u6761\u6b3e\u548c\u6761\u4ef6\u89c4\u5b9a\u7684\u4f7f\u7528\u6781\u9650 (bit.ly\/emuzh)"
	},
	"abplans_4G_100_percent_unlimited": {
		"EN": "Your data use now violates our Terms & Conditions (bit.ly\/emueng) and your speed will be restricted. We reserve the right to cancel your Ultra Mobile service.",
		"ES": "Tu uso de los datos ahora viola nuestros Terminos & Condiciones (bit.ly\/emues) y tu velocidad sera restringida. Nos reservamos el derecho de cancelar tu servicio Ultra Mobile.",
		"ZH": "\\u60a8\\u5bf9\\u4e0a\\u7f51\\u6d41\\u91cf\\u7684\\u4f7f\\u7528\\u8fdd\\u53cd\\u4e86\\u6211\\u4eec\\u4f7f\\u7528\\u6761\\u6b3e\\u548c\\u6761\\u4ef6\\u7684\\u76f8\\u5173\\u89c4\\u5b9a (bit.ly\/emuzh), \\u60a8\\u7684\\u4e0a\\u7f51\\u901f\\u5ea6\\u5c06\\u56e0\\u6b64\\u53d7\\u5230\\u9650\\u5236\\u3002\\u6211\\u4eec\\u4fdd\\u7559\\u53d6\\u6d88\\u60a8Ultra Mobile\\u624b\\u673a\\u670d\\u52a1\\u7684\\u6743\\u5229"
	}
}