[
    { "name": "success",                "type": "boolean",  "desc": "Was the API call executed successfully?"                             },
    { "name": "user_errors",            "type": "string[]", "desc": "What were the errors? (user friendly version)"                       },
    { "name": "errors",                 "type": "string[]", "desc": "What were the errors? (unless success)"                              },
    { "name": "error_codes",            "type": "string[]", "desc": "What were the error codes? (unless success)"                         },
    { "name": "warnings",               "type": "string[]", "desc": "What were the warnings?"                                             },
    { "name": "partner_tag",            "type": "string",   "desc": "Partner-provided tag, from parameters"                               },
    { "name": "ultra_trans_epoch",      "type": "epoch",    "desc": "UNIX Epoch timestamp of transaction (implicit UTC)"                  }
]
