[
    { "name": "page_size",         "type": "integer",   "desc": "For pagination, the page size."         },
    { "name": "page_ord",          "type": "integer",   "desc": "For pagination, the shown page number." },
    { "name": "record_count",      "type": "integer",   "desc": "Total records count."                   }
]
