{
  "commands":
  {
    "customercare__ValidatePortInEligibility":
    {
      "desc": "validate MVNE 2 port-in eligibility",
      "parameters":
      [
        {
          "name": "MSISDN",
          "type": "string",
          "required": true,
          "validation": { "min_strlen": 10, "max_strlen": 11 },
          "desc": "mobile phone number"
        },
        {
          "name": "brand",
          "type": "string",
          "required": false,
          "validation": { "matches": [ "ULTRA", "UNIVISION", "MINT" ] },
          "default": "ULTRA",
          "desc":"The BRAND client belongs to"
        }
      ],

      "returns":
      [
        "common-returns.json"
      ]
    }
  }
}
