{
  "meta": { "version": "2" },
  "security_meta": { "RBAC": "interactivecare group" },
  "commands":
  {
    "customercare-interactivecare-rainmaker.json": "include",

    "interactivecare__RequestProvisionOrangeBySMS":
    {
      "desc": "Orange SIM activation from SMS using a fake MSISDN",
      "parameters":
      [
        {
          "name": "fake_msisdn",
          "type": "string",
          "required": true,
          "validation": { "min_strlen": 14, "max_strlen": 14, "stringformat": "numeric" },
          "desc": "Fake 14 digits MSISDN to be converted to a valid ICCID."
        },
        {
          "name": "zipcode",
          "type": "string",
          "required": false,
          "validation": { },
          "desc": "Zip code. We ignore it if invalid."
        }
      ],

      "returns":
      [
        "common-returns.json"
      ]
    },

    "interactivecare__CheckCallCreditOptions":
    {
      "desc": "Returns possible purchase options for buying Additional Call Anywhere Credit",
      "parameters":
      [
        {
          "name": "msisdn",
          "type": "string",
          "required": true,
          "validation": { "min_strlen": 10, "max_strlen": 11 },
          "desc": "mobile phone number"
        }
      ],

      "returns":
      [
        "common-returns.json",
        { "name": "call_credit_options",  "type": "string[]", "desc": "object array of purchase options" },
        { "name": "customer_active", "type": "integer", "desc": "1 if customer is Active, 0 otherwise" },
        { "name": "wallet_balance", "type": "integer", "desc": "customer wallet balance, cents" },
        { "name": "message", "type": "string", "desc": "message to the customer if accounts is not Active" },
        { "name": "language", "type": "string",  "desc": "customer's preferred language code" }
      ]
    },
    
    "interactivecare__ApplyCallCredit":
    {
      "desc": "Debit the wallet and add money to Call Anywhere Credit",
      "parameters":
      [
        {
          "name": "msisdn",
          "type": "string",
          "required": true,
          "validation": { "min_strlen": 10, "max_strlen": 11 },
          "desc": "mobile phone number"
        },
        {
          "name": "charge_amount",
          "type": "integer",
          "required": true,
          "validation": { },
          "desc": "amount to be deducted from the wallet, cents"
        }
      ],

      "returns":
      [
        "common-returns.json"
      ]
    },

    "interactivecare__TriggerPromoBroadcastShortCode":
    {
      "desc": "Triggers actions associated to a Promo Campaign Shortcode",
      "parameters":
      [
        {
          "name": "msisdn",
          "type": "string",
          "required": true,
          "validation": { "min_strlen": 10, "max_strlen": 11 },
          "desc": "mobile phone number"
        },
        {
          "name": "shortcode",
          "type": "string",
          "required": true,
          "validation": { "min_strlen": 4 },
          "desc": "keyword associated with a Promo SMS Campaign"
        },
        {
          "name": "sms_text",
          "type": "string",
          "required": false,
          "validation": { "max_strlen": 160 },
          "desc": "Entire SMS text"
        }
      ],

      "returns":
      [
        "common-returns.json",
        { "name": "api_error", "type": "string", "desc": "3ci readable API error" }
      ]
    }

  }
}
