{
  "meta": { "version": "2" },

  "security_meta": { "RBAC": "inventory group" },

  "commands":
  {
    "inventory__AssignPINRangeToHot":
    {
      "desc": "Set PIN cards to HOT so that customers can use them.",
      "parameters":
      [
        {
          "name": "startPinSerialNumber",
          "type": "string",
          "required": true,
          "validation": { "min_strlen": 11 , "max_strlen": 12 },
          "desc": "Start PIN Serial Number"
        },
        {
          "name": "endPinSerialNumber",
          "type": "string",
          "required": true,
          "validation": { "min_strlen": 11 , "max_strlen": 12 },
          "desc": "End PIN Serial Number"
        },
        {
          "name": "masteragent",
          "type": "string",
          "required": true,
          "validation": {},
          "desc": "The master agent code"
        },
        {
          "name": "user",
          "type": "string",
          "required": true,
          "validation": {},
          "desc": "User performing the operation"
        }
      ],

      "returns":
      [
        "common-returns.json"
      ]
    },

    "inventory__GetPINRangeStatus":
    {
      "desc": "Get PIN cards range status.",
      "parameters":
      [
        {
          "name": "startPinSerialNumber",
          "type": "string",
          "required": true,
          "validation": { "min_strlen": 11 , "max_strlen": 12 },
          "desc": "Start PIN Serial Number"
        },
        {
          "name": "endPinSerialNumber",
          "type": "string",
          "required": true,
          "validation": { "min_strlen": 11 , "max_strlen": 12 },
          "desc": "End PIN Serial Number"
        }
      ],

      "returns":
      [
        "common-returns.json",
        
        { "name": "pin_cards_data", "type": "string[]", "desc": "Outptut data object" }
      ]
    },

    "inventory__GetSIMRangeInfo":
    {
      "desc": "Get info on range of SIMs.",
      "parameters":
      [
        {
          "name": "startICCID",
          "type": "string",
          "required": true,
          "validation": { "min_strlen":18,"max_strlen":19, "numeric": "integer"  },
          "desc": "ICCID (18 to 19 digits)."
        },
        {
          "name": "endICCID",
          "type": "string",
          "required": true,
          "validation": { "min_strlen":18,"max_strlen":19, "numeric": "integer" },
          "desc": "ICCID (18 to 19 digits)."
        }
      ],

      "returns":
      [
        "common-returns.json",
        
        { "name": "sim_data", "type": "string[]", "desc": "Output data object" }
      ]
    }
  }
}
