{
  "commands":
  {

    "portal__ConfigureBoltOns":
    {
      "desc": "Overwrite Customer's Bolt Ons Configuration.",
      "parameters":
      [
        {
          "name": "bolt_ons",
          "type": "string[]",
          "required": false,
          "validation": { },
          "desc": "The Bolt On Ids to be associated with the customer's plan."
        }
      ],

      "returns":
      [
        "common-returns.json"
      ]
    },


    "portal__ApplyBoltOn":
    {
      "desc": "Applies the given Immediate Bolt On to the customer account.",
      "parameters":
      [
        {
          "name": "bolt_on_id",
          "type": "string",
          "required": true,
          "validation": { },
          "desc": "Bolt On identifier."
        }
      ],

      "returns":
      [
        "common-returns.json",
        { "name": "plan",      "type": "string",  "desc": "Customer's current plan" }
      ]
    },


    "portal__ApplyOrder":
    {
      "desc": "Applies an order to a customer",
      "parameters": [],

      "returns":
      [
        "common-returns.json",

        { "name": "bolt_ons",          "type": "string[]",  "desc": "Array of objects, each pertaining to a Bolt On Type."    }
      ]
    },


    "portal__PayForOrder":
    {
      "desc": "Uses the user's wallet to fund an order",
      "parameters":
      [
        {
          "name": "order_id",
          "type": "integer",
          "required": true,
          "validation": { },
          "desc": "Order ID to fund"
        },
        {
          "name": "funds_source",
          "type": "string",
          "required": true,
          "validation": { "matches": ["WALLET", "CC"] },
          "desc": "Order ID to fund"
        },
        {
          "name": "zip_code",
          "type": "string",
          "required": false,
          "validation": { },
          "desc": "Zip code for taxes"
        }
      ],

      "returns":
      [
        "common-returns.json"
      ]
    },


    "portal__GetBoltOns":
    {
      "desc": "Get all allowed Bolt Ons",
      "parameters":
      [
        {
          "name": "customer_id",
          "type": "integer",
          "required": false,
          "validation": { },
          "desc": "Customer identifier"
        }
      ],

      "returns":
      [
        "common-returns.json",

        { "name": "bolt_ons",          "type": "string[]",  "desc": "Array of objects, each pertaining to a Bolt On Type."    }
      ]
    },

    "portal__GetPlanCreditBalance":
    {
      "desc": "returns number of plan credits",
      "parameters":
      [

      ],
      "returns":
      [
        "common-returns.json"
      ]
    },

    "portal__ApplyCallCredit":
    {
      "desc": "Debit the wallet and add money to Call Credit.",
      "parameters":
      [
        {
          "name": "charge_amount",
          "type": "integer",
          "required": true,
          "validation": { },
          "desc": "The amount to be deducted from the wallet (in cents)."
        }
      ],

      "returns":
      [
        "common-returns.json"
      ]
    },


    "portal__CheckCallCreditOptions":
    {
      "desc": "Returns possible purchase options for buying Additional Call Anywhere Credit.",
      "parameters":
      [
      ],

      "returns":
      [
        "common-returns.json",
        { "name": "call_credit_options",  "type": "string[]", "desc": "object array of purchase options" }
      ]
    },


    "portal__ChargeCustomerPINs":
    {
      "desc": "Test and charge up to 6 pin cards; puts the balance into the account; then tries to activate the customer if necessary.",
      "parameters":
      [
        {
          "name": "pin_list",
          "type": "string[]",
          "required": true,
          "validation": { },
          "desc": "List of 10 or 18 Digit PIN numbers"
        },
        {
          "name": "destination",
          "type": "string",
          "required": false,
          "validation": { "matches": [ "WALLET","MONTHLY" ] },
          "desc": "Wallet option: what should be accredited. [ WALLET(default) , MONTHLY ]",
          "default": "WALLET"
        }
      ],

      "returns":
      [
        "common-returns.json",
        { "name": "pins_total_amount",  "type": "integer", "desc": "PIN accredited value" },
        { "name": "customer_activated", "type": "boolean", "desc": "was the customer activated?" }
      ]
    },

    "portal__ChargeAndSaveCustomerCC":
    {
      "desc": "Tokenizes a card so that it can be used for a charge. Attempts charge. Removes CC info from DB if customer doesn't wish to save info.",
      "parameters":
      [
        {
          "name": "remove_card",
          "type": "boolean",
          "required": false,
          "default": "0",
          "validation": { },
          "desc": "If 1, disable CC info in DB"
        },
        {
          "name": "charge_amount",
          "type": "integer",
          "required": true,
          "validation": { "min_value": 0 , "max_value": 9900 },
          "desc": "Total amount to charge in cents."
        },
        {
          "name": "target_plan",
          "type": "string",
          "required": false,
          "validation": { "matches": ["D39", "L19", "L29", "L34", "L39", "L44", "L49", "L59", "UV20", "UV30", "UV35", "UV45", "UV50", "UV55"] },
          "desc": "Ultra Plan"
        },
        {
          "name": "description",
          "type": "string",
          "required": false,
          "validation": { },
          "desc": "Descriptive string that gets written to HTT_BILLING_HISTORY. If none is provided, default to the value of the reason parameter."
        },
        {
          "name": "reason",
          "type": "string",
          "required": true,
          "validation": { "matches": [ "ADD_BALANCE" , "RECHARGE" , "PREPAY_PLAN" , "ORDER_SIM" , "REPLACE_SIM" ] },
          "desc": "Reason for charge"
        },
        {
          "name": "cc_name",
          "type": "string",
          "required": false,
          "validation": { "min_strlen": 2 , "stringformat": "letters_spaces_apostrophe" },
          "desc": "Customer billing name"
        },
        {
          "name": "cc_address1",
          "type": "string",
          "required": false,
          "validation": { "min_strlen": 3, "max_strlen": 80 , "stringformat": "alphanumeric_spaces_punctuation_octothorpe" },
          "desc": "Customer billing address"
        },
        {
          "name": "cc_address2",
          "type": "string",
          "required": false,
          "validation": { "max_strlen": 40 , "stringformat": "alphanumeric_spaces_punctuation_octothorpe" },
          "desc": "Customer billing address part 2"
        },
        {
          "name": "cc_city",
          "type": "string",
          "required": false,
          "validation": { "min_strlen": 2, "max_strlen": 25, "stringformat": "alphanumeric_punctuation" },
          "desc": "Customer billing city"
        },
        {
          "name": "cc_country",
          "type": "string",
          "required": false,
          "validation": { "matches": [ "US" ] },
          "desc": "Customer billing country"
        },
        {
          "name": "cc_state_or_region",
          "type": "string",
          "required": false,
          "validation": { "min_strlen": 2, "max_strlen": 40, "stringformat": "alphanumeric_spaces_punctuation" },
          "desc": "Customer billing state or region"
        },
        {
          "name": "cc_postal_code",
          "type": "integer",
          "required": false,
          "validation": { "min_strlen": 5, "max_strlen": 5 , "stringformat": "numeric" },
          "desc": "Customer billing postal code"
        },
        {
          "name": "account_cc_number",
          "type": "string",
          "required": false,
          "validation": { "min_strlen": 15, "max_strlen": 16 , "stringformat": "numeric" },
          "desc": "Credit Card number"
        },
        {
          "name": "account_cc_exp",
          "type": "string",
          "required": false,
          "validation": { "min_strlen": 4, "max_strlen": 4 , "stringformat": "numeric" },
          "desc": "Credit Card expiration date - format is MMYY"
        },
        {
          "name": "account_cc_cvv",
          "type": "string",
          "required": false,
          "validation": { "min_strlen": 3, "max_strlen": 4 , "stringformat": "numeric" },
          "desc": "Credit Card CVV"
        },
        {
          "name": "enroll_auto_recharge",
          "type": "boolean",
          "required": false,
          "validation": {},
          "desc": "Enroll Auto Recharge",
          "default": false
        },
        {
          "name": "free_sim_replacement",
          "type": "boolean",
          "required": false,
          "validation": {},
          "desc": "Free Sim Replacement",
          "default": false
        },
        {
          "name": "token",
          "type": "string",
          "required": false,
          "validation": {},
          "desc": "Credit card token",
          "default": false
        },
        {
          "name": "processor",
          "type": "string",
          "required": false,
          "validation": {},
          "desc": "Credit card processor",
          "default": false
        }
      ],

      "returns":
      [
        "common-returns.json",
        { "name": "enroll_auto_recharge", "type": "boolean", "desc": "Enroll Auto Recharge" }
      ]
    },


    "portal__VerifyAndSaveCustomerCC":
    {
      "desc": "Set credit card fields for a customer after appropriate tokenization and validation.",
      "parameters":
      [
          {
              "name": "zsession",
              "type": "string",
              "required": true,
              "validation": { },
              "desc": "Cookie zsession"
          },
          {
              "name": "cc_name",
              "type": "string",
              "required": true,
              "validation": { "min_strlen": 1 },
              "desc": "Customer billing name"
          },
          {
              "name": "cc_address1",
              "type": "string",
              "required": true,
              "validation": { "min_strlen": 3, "max_strlen": 80 },
              "desc": "Customer billing address"
          },
          {
              "name": "cc_address2",
              "type": "string",
              "required": false,
              "validation": { "max_strlen": 40 },
              "desc": "Customer billing address part 2"
          },
          {
              "name": "cc_city",
              "type": "string",
              "required": true,
              "validation": { "min_strlen": 2, "max_strlen": 25, "stringformat": "alphanumeric_punctuation" },
              "desc": "Customer billing city"
          },
          {
              "name": "cc_country",
              "type": "string",
              "required": true,
              "validation": { "matches": [ "US" ] },
              "desc": "Customer billing country"
          },
          {
              "name": "cc_state_or_region",
              "type": "string",
              "required": true,
              "validation": { "min_strlen": 2, "max_strlen": 40, "stringformat": "alphanumeric_spaces_punctuation" },
              "desc": "Customer billing state or region"
          },
          {
              "name": "cc_postal_code",
              "type": "integer",
              "required": true,
              "validation": { "min_strlen": 5, "max_strlen": 5 },
              "desc": "Customer billing postal code"
          },
          {
              "name": "account_cc_exp",
              "type": "string",
              "required": true,
              "validation": { "min_strlen": 4, "max_strlen": 4 },
              "desc": "Credit Card Expiration Date - format is MMYY."
          },
          {
              "name": "account_cc_cvv",
              "type": "string",
              "required": true,
              "validation": { "min_strlen": 3, "max_strlen": 4 },
              "desc": "Customer CVV."
          },
          {
              "name": "account_cc_number",
              "type": "string",
              "required": true,
              "validation": { "min_strlen": 15, "max_strlen": 16 , "stringformat": "numeric" },
              "desc": "Credit Card Number."
          },
          {
            "name": "enroll_auto_recharge",
            "type": "boolean",
            "required": false,
            "validation": {},
            "desc": "Enroll Auto Recharge",
            "default": false
          }
      ],

      "returns":
      [
        "common-returns.json",
        { "name": "enroll_auto_recharge", "type": "boolean", "desc": "Enroll Auto Recharge" }
      ]
    },


    "portal__VerifyAndSaveCreditCard":
    {
      "desc": "set credit card fields for a customer after appropriate tokenization and validation; this API shall retire portal__VerifyAndSaveCustomerCC",
      "parameters":
      [
        {
          "name": "cc_name",
          "type": "string",
          "required": true,
          "validation": { "min_strlen": 1 },
          "desc": "Customer billing name"
        },
        {
          "name": "cc_address1",
          "type": "string",
          "required": false,
          "validation": { "min_strlen": 3, "max_strlen": 80 },
          "desc": "Customer billing address"
        },
        {
          "name": "cc_address2",
          "type": "string",
          "required": false,
          "validation": { "max_strlen": 40 },
          "desc": "Customer billing address part 2"
        },
        {
          "name": "cc_city",
          "type": "string",
          "required":false,
          "validation": { "min_strlen": 2, "max_strlen": 25, "stringformat": "alphanumeric_punctuation" },
          "desc": "Customer billing city"
        },
        {
          "name": "cc_country",
          "type": "string",
          "required": false,
          "validation": { "matches": [ "US" ] },
          "desc": "Customer billing country"
        },
        {
          "name": "cc_state_or_region",
          "type": "string",
          "required": false,
          "validation": { "min_strlen": 2, "max_strlen": 40, "stringformat": "alphanumeric_spaces_punctuation" },
          "desc": "Customer billing state or region"
        },
        {
          "name": "cc_postal_code",
          "type": "integer",
          "required": true,
          "validation": { "min_strlen": 5, "max_strlen": 5 },
          "desc": "Customer billing postal code"
        },
        {
          "name": "account_cc_exp",
          "type": "string",
          "required": true,
          "validation": { "min_strlen": 4, "max_strlen": 4 },
          "desc": "Credit Card Expiration Date - format is MMYY."
        },
        {
          "name": "account_cc_cvv",
          "type": "string",
          "required": false,
          "validation": { "min_strlen": 3, "max_strlen": 4 },
          "desc": "Customer CVV."
        },
        {
          "name": "account_cc_number",
          "type": "string",
          "required": false,
          "validation": { "min_strlen": 15, "max_strlen": 16 , "stringformat": "numeric" },
          "desc": "Credit Card Number."
        },
        {
          "name": "token",
          "type": "string",
          "required": false,
          "validation": {},
          "desc": "Credit card token",
          "default": false
        },
        {
          "name": "processor",
          "type": "string",
          "required": false,
          "validation": {},
          "desc": "Credit card processor",
          "default": false
        }
      ],

      "returns":
      [
        "common-returns.json"
      ]
    },

    "portal__SaveCreditCard":
    {
      "desc": "set credit card fields for a customer after appropriate validation",
      "parameters":
      [
          {
            "name": "cc_name",
            "type": "string",
            "required": true,
            "validation": { "min_strlen": 1 },
            "desc": "Customer billing name"
          },
          {
            "name": "cc_address1",
            "type": "string",
            "required": false,
            "validation": { "min_strlen": 3, "max_strlen": 80 },
            "desc": "Customer billing address"
          },
          {
            "name": "cc_address2",
            "type": "string",
            "required": false,
            "validation": { "max_strlen": 40 },
            "desc": "Customer billing address part 2"
          },
          {
            "name": "cc_city",
            "type": "string",
            "required":false,
            "validation": { "min_strlen": 2, "max_strlen": 25, "stringformat": "alphanumeric_punctuation" },
            "desc": "Customer billing city"
          },
          {
            "name": "cc_country",
            "type": "string",
            "required": false,
            "validation": { "matches": [ "US" ] },
            "desc": "Customer billing country"
          },
          {
            "name": "cc_state_or_region",
            "type": "string",
            "required": false,
            "validation": { "min_strlen": 2, "max_strlen": 40, "stringformat": "alphanumeric_spaces_punctuation" },
            "desc": "Customer billing state or region"
          },
          {
            "name": "cc_postal_code",
            "type": "integer",
            "required": false,
            "validation": { "min_strlen": 5, "max_strlen": 5 },
            "desc": "Customer billing postal code"
          },
          {
            "name": "account_cc_exp",
            "type": "string",
            "required": true,
            "validation": { "min_strlen": 4, "max_strlen": 4 },
            "desc": "Credit Card Expiration Date - format is MMYY."
          },
          {
            "name": "account_cc_cvv",
            "type": "string",
            "required": false,
            "validation": { "min_strlen": 3, "max_strlen": 4 },
            "desc": "Customer CVV."
          },
          {
            "name": "token",
            "type": "string",
            "required": true,
            "validation": { "min_strlen": 1, "max_strlen": 100 },
            "desc": "Credit Card token."
          },
          {
            "name": "bin",
            "type": "string",
            "required": true,
            "validation": { "min_strlen": 6, "max_strlen": 6 , "stringformat": "numeric" },
            "desc": "First six digits of credit card."
          },
          {
            "name": "last_four",
            "type": "string",
            "required": true,
            "validation": { "min_strlen": 4, "max_strlen": 4 , "stringformat": "numeric" },
            "desc": "Last four digits of credit card."
          },
          {
            "name": "processor",
            "type": "string",
            "required": false,
            "validation": {},
            "desc": "Credit card processor",
            "default": false
          }
      ],

      "returns":
      [
        "common-returns.json"
      ]
    },


    "portal__ChargeCustomerProvidedCC":
    {
      "desc": "charge up an arbitrary amount to the customer's credit card and add it to the customer's balance",
      "parameters":
      [
        {
          "name": "account_cc_exp",
          "type": "string",
          "required": true,
          "validation": { "min_strlen": 4, "max_strlen": 4, "date_format": "mmyy" },
          "desc": "Credit Card Expiration Date - format is MMYY"
        },
        {
          "name": "account_cc_cvv",
          "type": "string",
          "required": true,
          "validation": { "min_strlen": 3, "max_strlen": 4, "stringformat": "numeric" },
          "desc": "Credit Card CVV."
        },
        {
          "name": "account_cc_number",
          "type": "string",
          "required": true,
          "validation": { "min_strlen": 15, "max_strlen": 16, "stringformat": "numeric" },
          "desc": "Credit Card Number."
        },
        {
          "name": "cc_name",
          "type": "string",
          "required": true,
          "validation": { "min_strlen": 2, "stringformat": "alphanumeric_and_spaces" },
          "desc": "Customer billing name"
        },
        {
          "name": "cc_postal_code",
          "type": "string",
          "required": true,
          "validation": { "min_strlen": 2, "max_strlen": 20, "stringformat": "numeric" },
          "desc": "Customer billing postal code"
        },
        {
          "name": "charge_amount",
          "type": "integer",
          "required": true,
          "validation": { "min_value": 1 , "max_value": 5900 },
          "desc": "Total amount to add in cents."
        },
        {
          "name": "reason",
          "type": "string",
          "required": true,
          "validation": { "min_strlen": 4 },
          "desc": "Reason for the chargeup, such as \"Data chargeup\", \"Adding international credit\", etc."
        },
        {
          "name": "destination",
          "type": "string",
          "required": false,
          "validation": { "matches": [ "WALLET","MONTHLY" ] },
          "desc": "Wallet option: what should be accredited. [ WALLET(default) , MONTHLY ]",
          "default": "WALLET"
        },
        {
          "name": "store_cc",
          "type": "integer",
          "required": false,
          "validation": { "matches": [ "0", "1" ] },
          "desc": "if 1 then store given credit card info in DB",
          "default": "0"
        }
      ],

      "returns":
      [
        "common-returns.json",
        { "name": "cc_errors",          "type": "string[]",  "desc": "Detailed errors in case of Credit Card charge failure." },
        { "name": "customer_activated", "type": "boolean",   "desc": "Was the customer activated?" }
      ]
    },


    "portal__ChargeCreditCard":
    {
      "desc": "charge customers credit card on file previously saved with portal__VerifyAndSaveCreditCard",
      "parameters":
      [
        {
          "name": "charge_amount",
          "type": "integer",
          "required": true,
          "validation": { "min_value": 1 , "max_value": 50000 },
          "desc": "charge amount in cents"
        },
        {
          "name": "destination",
          "type": "string",
          "required": true,
          "validation": { "matches": [ "WALLET","MONTHLY" ] },
          "desc": "where to deposit charged funds"
        }
      ],

      "returns":
      [
        "common-returns.json",
        { "name": "enroll_auto_recharge", "type": "boolean", "desc": "Enroll Auto Recharge" }
      ]
    },

    "portal__ChargeCC":
    {
      "desc": "charge customers credit card on file previously saved with portal__VerifyAndSaveCreditCard",
      "parameters":
      [
        {
          "name": "charge_amount",
          "type": "integer",
          "required": true,
          "validation": { "min_value": 1 , "max_value": 50000 },
          "desc": "charge amount in cents"
        },
        {
          "name": "destination",
          "type": "string",
          "required": true,
          "validation": { "matches": [ "WALLET","MONTHLY" ] },
          "desc": "where to deposit charged funds"
        },
        {
          "name": "product_type",
          "type": "string",
          "required": true,
          "validation": { "matches": ["PLAN", "DATA", "IDDCA", "ROAM", "GLOBE", "ADD_BALANCE", "LINE_CREDIT", "REPLACE_SIM"] },
          "desc": "product type"
        }
      ],

      "returns":
      [
        "common-returns.json"
      ]
    },


    "portal__RequestProvisionNewCustomer":
    {
      "desc": "create a customer and provision the SIM",
      "parameters":
      [
        {
          "name": "ICCID",
          "type": "string",
          "required": true,
          "validation": { "min_strlen": 19, "max_strlen": 19, "MVNE": 2, "iccid": "activate_type_purple" },
          "desc": "ICCID to activate"
        },
        {
          "name": "zipcode",
          "type": "string",
          "required": true,
          "validation": { "min_strlen": 5, "max_strlen": 5, "zipcode": "US" },
          "desc": "billing zipcode"
        },
        {
          "name": "target_plan",
          "type": "string",
          "required": true,
          "validation": { "active_plan": 1 },
          "desc": "Plan to select"
        },
        {
          "name": "preferred_language",
          "type": "string",
          "required": false,
          "validation": { "matches": [ "EN", "ES", "ZH" ] },
          "default": "EN",
          "desc": "preferred language"
        },
        {
          "name": "bolt_ons",
          "type": "string[]",
          "required": false,
          "validation": {},
          "desc": "The Bolt On Ids to be associated with the customer's plan."
        },
        {
          "name": "invite_code",
          "type": "string",
          "required": false,
          "validation": { },
          "desc": "Family invite code"
        }
      ],

      "returns":
      [
        "common-returns.json",
        { "name": "request_id",   "type": "string",   "desc": "asynch request identifier to be used in portal__VerifyProvisionNewCustomer" },
        { "name": "zsession",     "type": "string",   "desc": "zsession ID" },
        { "name": "customer_id", "type": "integer", "desc": "Customer's unique identifier." }
      ]
    },


    "portal__RequestProvisionOrangePortedCustomer":
    {
      "desc": "create a customer and 'activate' their Orange SIM; this call is ONLY for port in customers",
      "parameters":
      [
        {
          "name": "actcode",
          "type": "string",
          "required": true,
          "validation": { "min_strlen": 11 , "max_strlen": 11 , "actcode": "valid_actcode" },
          "desc": "11 digits Actcode"
        },
        {
          "name": "number_to_port",
          "type": "string",
          "required": true,
          "validation": { "max_strlen": 10, "min_strlen": 10 },
          "desc": "phone number to port in"
        },
        {
          "name": "zipcode",
          "type": "string",
          "required": true,
          "validation": { "min_strlen": 5, "max_strlen": 5, "zipcode": "US" },
          "desc": "Billing/Customer Zipcode. Used for number allocation."
        },
        {
          "name": "preferred_language",
          "type": "string",
          "required": false,
          "validation": { "matches": [ "EN", "ES", "ZH" ] },
          "desc": "preferred language",
          "default": "EN"
        },
        {
          "name": "port_account_number",
          "type": "integer",
          "required": true,
          "validation": { "max_strlen": 20 },
          "desc": "customer account number on the current carrier"
        },
        {
          "name": "port_account_password",
          "type": "string",
          "required": false,
          "validation": { "max_strlen": 15 , "regexp" : "^[A-Za-z0-9]+$" },
          "desc": "customer account password on the current carrier"
        },
        {
          "name": "email",
          "type": "string",
          "required": false,
          "validation": { "stringformat": "email" },
          "desc": "Customer email address"
        },
        {
          "name": "contact_phone",
          "type": "string",
          "required": false,
          "validation": { "max_strlen": 10, "min_strlen": 10 },
          "desc": "Customer contact phone"
        }
      ],

      "returns":
      [
        "common-returns.json",
        { "name": "zsession",     "type": "string",   "desc": "zsession ID" },
        { "name": "request_id",   "type": "string",   "desc": "asynchronous request identifier to be used in portal__VerifyPortInStatus" }
      ]
    },


    "portal__RequestProvisionPortedCustomer":
    {
      "desc": "create a customer and 'activate' their SIM; this call is ONLY for port in customers",
      "parameters":
      [
        {
          "name": "ICCID",
          "type": "string",
          "required": true,
          "validation": { "min_strlen": 19, "max_strlen": 19, "iccid": "activate_type_purple" , "MVNE": "2" },
          "desc": "ICCID to activate (19 digits)"
        },
        {
          "name": "number_to_port",
          "type": "string",
          "required": true,
          "validation": { "max_strlen": 10, "min_strlen": 10 },
          "desc": "phone number to port in"
        },
        {
          "name": "target_plan",
          "type": "string",
          "required": true,
          "validation": { "active_plan": 1 },
          "desc": "customer plan"
        },
        {
          "name": "zipcode",
          "type": "string",
          "required": true,
          "validation": { "min_strlen": 5, "max_strlen": 5, "zipcode": "US" },
          "desc": "Billing/Customer Zipcode. Used for number allocation."
        },
        {
          "name": "preferred_language",
          "type": "string",
          "required": false,
          "validation": { "matches": [ "EN", "ES", "ZH" ] },
          "desc": "preferred language",
          "default": "EN"
        },
        {
          "name": "port_account_number",
          "type": "integer",
          "required": true,
          "validation": { "max_strlen": 20 },
          "desc": "customer account number on the current carrier"
        },
        {
          "name": "port_account_password",
          "type": "string",
          "required": false,
          "validation": { "max_strlen": 15 , "regexp" : "^[A-Za-z0-9]+$" },
          "desc": "customer account password on the current carrier"
        },
        {
          "name": "bolt_ons",
          "type": "string[]",
          "required": false,
          "validation": { },
          "desc": "The Bolt On Ids to be associated with the customer's plan."
        },
        {
          "name": "email",
          "type": "string",
          "required": false,
          "validation": { "stringformat": "email" },
          "desc": "Customer email address"
        },
        {
          "name": "contact_phone",
          "type": "string",
          "required": false,
          "validation": { "max_strlen": 10, "min_strlen": 10 },
          "desc": "Customer contact phone"
        },
        {
          "name": "invite_code",
          "type": "string",
          "required": false,
          "validation": { },
          "desc": "Family invite code"
        }
      ],

      "returns":
      [
        "common-returns.json",
        { "name": "zsession",     "type": "string",   "desc": "zsession ID" },
        { "name": "request_id",   "type": "string",   "desc": "asynchronous request identifier to be used in portal__VerifyPortInStatus" },
        { "name": "customer_id", "type": "integer", "desc": "Customer's unique identifier." }
      ]
    },


    "portal__RequestProvisionPortedCustomerUpdate":
    {
      "desc": "resume an already failed port; funding and plan already exists for the customer; the only information that is necessary is a resubmission of some data",
      "parameters":
      [
        {
          "name": "ICCID",
          "type": "string",
          "required": true,
          "validation": { "min_strlen": 19, "max_strlen": 19, "MVNE": 2 },
          "desc": "ICCID to Activate (19 digits)."
        },
        {
          "name": "number_to_port",
          "type": "string",
          "required": true,
          "validation": { "max_strlen": 10, "min_strlen": 10 },
          "desc": "Phone number to light up on our system."
        },
        {
          "name": "port_account_number",
          "type": "integer",
          "required": true,
          "validation": { "max_strlen": 20 },
          "desc": "The account number of the account to be ported."
        },
        {
          "name": "port_account_password",
          "type": "string",
          "required": false,
          "validation": { "max_strlen": 15 , "regexp" : "^[A-Za-z0-9]+$" },
          "desc": "The account password of the account to be ported."
        },
        {
          "name": "zipcode",
          "type": "string",
          "required": true,
          "validation": { "min_strlen": 5, "max_strlen": 5, "zipcode": "US" },
          "desc": "Billing/Customer Zipcode. Used for number allocation."
        }
      ],

      "returns":
      [
        "common-returns.json",
        { "name": "request_id", "type": "string", "desc": "asynchronous request identifier to be used in portal__VerifyPortInStatus" },
        { "name": "customer_id", "type": "integer", "desc": "Customer's unique identifier." }
      ]
    },


    "portal__SetDataLimit":
    {
      "desc": "set cap share",
      "parameters":
      [
        {
          "name": "customer_id",
          "type": "integer",
          "required": false,
          "validation": { },
          "desc": "Customer identifier"
        },
        {
          "name": "percent",
          "type": "integer",
          "required": true,
          "validation": { },
          "desc": "percent to set share to"
        }
      ],
      "returns":
      [
        "common-returns.json"
      ]
    },


    "portal__ValidatePIN":
    {
      "desc": "verify that PIN can be used",
      "parameters":
      [
        {
          "name": "pin",
          "type": "string",
          "required": true,
          "validation": { "PIN": [ 10, 18 ] },
          "desc": "10 or 18 Digit PIN number"
        }
      ],

      "returns":
      [
        "common-returns.json",
        { "name": "pin_value",    "type": "integer",  "desc": "PIN Value" },
        { "name": "used_date",    "type": "string",   "desc": "Used on which date" },
        { "name": "used_msisdn",  "type": "string",   "desc": "Used for which msisdn" }
      ]
    },


    "portal__ValidateSIMInventory":
    {
      "desc": "check the ICCID validity on the Ultra DB",
      "parameters":
      [
        {
            "name": "ICCID",
            "type": "string",
            "required": true,
            "validation": { "min_strlen": 19, "max_strlen": 19 },
            "desc": "ICCID number"
        },
        {
            "name": "brand",
            "type": "string",
            "required": false,
            "validation": { "matches": [ "ULTRA", "UNIVISION", "MINT" ] },
            "default": "ULTRA",
            "desc":"The BRAND client belongs to"
        }
      ],

      "returns":
      [
        "common-returns.json",
        { "name": "valid_ext",    "type": "string",  "desc": "'VALID','INVALID','RESERVED','USED'" },
        { "name": "valid",        "type": "string",  "desc": "'VALID','INVALID','USED'" },
        { "name": "expires_date", "type": "string",  "desc": "expires date from HTT_INVENTORY_SIMBATCHES"}
      ]
    },


    "portal__ValidateSIMNetwork":
    {
      "desc": "check the ICCID validity on the MVNE2 network",
      "parameters":
      [
        {
          "name": "ICCID",
          "type": "string",
          "required": true,
          "validation": { "min_strlen": 19, "max_strlen": 19, "MVNE": 2 },
          "desc": "ICCID number"
        }
      ],
  
      "returns":
      [
        "common-returns.json",
        { "name": "valid_network", "type": "boolean",  "desc": "validity on the MVNE network" }
      ]
    },


    "portal__VerifyPortInStatus":
    {
      "desc": "to be invoked after portal__RequestProvisionPortedCustomer in order to get the complete response",
      "parameters":
      [
        {
          "name": "request_id",
          "type": "string",
          "required": true,
          "validation": { "max_strlen": 128 },
          "desc": "asynchronous request identifier obtained from portal__RequestProvisionPortedCustomer"
        }
      ],

      "returns":
      [
        "common-returns.json",
        { "name": "port_pending",       "type": "boolean",  "desc": "true if the request has not been completed yet" },
        { "name": "phone_number",       "type": "string",   "desc": "phone number of the activated customer" },
        { "name": "port_success",       "type": "boolean",  "desc": "true if the porting has been completed without errors" },
        { "name": "port_status",        "type": "string",   "desc": "current porting status" },
        { "name": "port_resolution",    "type": "string[]", "desc": "MSISDN: R-codes" }
      ]
    },


    "portal__VerifyProvisionNewCustomer":
    {
      "desc": "to be invoked after portal__RequestProvisionNewCustomer in order to get the complete response",
      "parameters":
      [
        {
          "name": "zsession",
          "type": "string",
          "required": true,
          "validation": { },
          "desc": "zsession ID"
        },
        {
          "name": "request_id",
          "type": "string",
          "required": true,
          "validation": { "max_strlen": 128 },
          "desc": "asynchronous request identifier obtained from portal__RequestProvisionNewCustomer"
        }
      ],

      "returns":
      [
        "common-returns.json",
        { "name": "provision_pending",  "type": "boolean",  "desc": "true if the request has not been completed yet" },
        { "name": "phone_number",       "type": "string",   "desc": "phone number of the activated customer" },
        { "name": "provision_status",   "type": "string",   "desc": "'ACTIVATED' or 'PROVISIONED'" }
      ]
    },


    "portal__ResumeActivationSession":
    {
      "desc": "create a zsession for a user returning mid-way to a SIM activation",
      "parameters":
      [
        {
          "name": "ICCID",
          "type": "string",
          "required": false,
          "validation": { "min_strlen": 19, "max_strlen": 19, "MVNE": 2 },
          "desc": "ICCID to activate, required if actcode is not given"
        },
        {
          "name": "actcode",
          "type": "string",
          "required": false,
          "validation": { "min_strlen": 11 , "max_strlen": 11 , "actcode": "valid_actcode" },
          "desc": "Actcode to activate, required if ICCID is not given"
        }
      ],

      "returns":
      [
        "common-returns.json",
        { "name": "zsession",   "type": "string",   "desc": "zsession ID" },
        { "name": "MSISDN",     "type": "string",   "desc": "subscriber MSISDN" }
      ]
    },


    "portal__VerifyProvisionStatus":
    {
      "desc": "provide necessary info to the UI so that it can resume the activation flow",
      "parameters": [],

      "returns":
      [
        "common-returns.json",
        { "name": "zipcode",                "type": "string",     "desc": "customer's zip code" },
        { "name": "port_account_number",    "type": "string",     "desc": "customer's account number used in port in" },
        { "name": "port_account_password",  "type": "string",     "desc": "customer's account password used in port in" },
        { "name": "ICCID",                  "type": "string",     "desc": "customer's ICCID 19 digits" },
        { "name": "plan_amount",            "type": "integer",    "desc": "plan amount in dollars" },
        { "name": "plan_state",             "type": "string",     "desc": "plan state" },
        { "name": "activation_request_id",  "type": "string",     "desc": "request_id response value from the customer's previous activation" },
        { "name": "port_request_id",        "type": "string",     "desc": "asynchronous port request identifier" },
        { "name": "port_resolution",        "type": "string[]",   "desc": "MSISDN: R-codes" },
        { "name": "pending_transition",     "type": "string",     "desc": "UUID of the current pending transition (if any)" },
        { "name": "MSISDN",                 "type": "string",     "desc": "customer's phone number" },
        { "name": "port_status",            "type": "string",     "desc": "customer's port status" },
        { "name": "next_action",            "type": "string",     "desc": "next suggested action " },
        { "name": "amount_needed",          "type": "integer",    "desc": "amount necessary before activation in dollars" },
        { "name": "history_last_updated",   "type": "epoch",      "desc": "when was the activation history updated" },
        { "name": "activations_enabled",    "type": "boolean",    "desc": "are Ultra activations enabled?" }
      ]
    },

    "portal__CheckZipCode":
    {
      "desc": "check if given ZIP is in the activation footprint",
      "parameters":
      [
        {
          "name": "zipcode",
          "type": "string",
          "required": true,
          "validation": { "min_strlen": 5, "max_strlen": 5, "zipcode": "US" },
          "desc": "zip code"
        }
      ],

      "returns":
      [
        "common-returns.json",
        { "name": "zipcode_valid",  "type": "boolean",  "desc": "true if the zipcode is in the activation profile" }
      ]
    },

    "portal__KillSession":
    {
      "desc": "Clear the current zsession.",
      "parameters":
      [
      ],

      "returns":
      [
        "common-returns.json"
      ]
    },

    "portal__ExtendSession":
    {
      "desc": "Extend the lifespan of current zsession by 30 minutes.",
      "parameters":
      [
        {
          "name": "zsession",
          "type": "string",
          "required": true,
          "validation": { },
          "desc": "Cookie zsession"
        }
      ],

      "returns":
      [
        "common-returns.json"
      ]
    },

    "portal__CheckSession":
    {
      "desc": "checks session status of currently logged in customer",
      "parameters":
      [
      ],

      "returns":
      [
        "common-returns.json",
        { "name": "expiration", "type": "integer", "desc": "unix timestamp of when session is set to expire" }
      ]
    },

    "portal__AcceptTermsOfService":
    {
      "desc": "Record when the customer accepts the Terms Of Service",
      "parameters":
      [
      ],

      "returns":
      [
        "common-returns.json"
      ]
    },

    "portal__GetMarketingSettings":
    {
      "desc": "Retrieves Marketing Settings for a logged in customer.",
      "parameters":
      [
        {
          "name": "zsession",
          "type": "string",
          "required": true,
          "validation": { },
          "desc": "Cookie zsession"
        }
      ],

      "returns":
      [
        "common-returns.json",

        { "name": "marketing_settings", "type": "string[]",  "desc": "Customer Marketing Settings." }
      ]
    },

    "portal__CalculateTaxesFees":
    {
      "desc": "Determine the Sales Tax and Regulatory fees that would be charged for a potential Credit Card purchase, provided a purchase amount.",
      "parameters":
      [
        {
          "name": "charge_amount",
          "type": "integer",
          "required": true,
          "validation": { "min_value": 1 },
          "desc": "The amount of the potential credit card purchase, represented in cents."
        },
        {
          "name": "zip",
          "type": "string",
          "required": false,
          "validation": { },
          "desc": "If provided, calculate based on this value. Otherwise use the customer's billing zip code."
        },
        {
          "name": "check_taxes",
          "type": "boolean",
          "required": false,
          "default":  true,
          "validation": { },
          "desc": "is the purchase subject to sales tax?"
        },
        {
          "name": "check_recovery_fee",
          "type": "boolean",
          "required": false,
          "default":  true,
          "validation": { },
          "desc": "is the purchase subject to recovery fee?"
        }
      ],

      "returns":
      [
        "common-returns.json",
        { "name": "sales_tax",    "type": "integer", "desc": "Sales tax in cents"    },
        { "name": "recovery_fee", "type": "integer", "desc": "Recovery fee in cents" }
      ]
    },

    "portal__CalculateTaxesAndFees":
    {
      "desc": "Determine the Sales Tax and Regulatory fees that would be charged for a potential Credit Card purchase, provided a purchase amount.",
      "parameters":
      [
        {
          "name": "charge_amount",
          "type": "integer",
          "required": true,
          "validation": { "min_value": 1 },
          "desc": "The amount of the potential credit card purchase, represented in cents."
        },
        {
          "name": "zip",
          "type": "string",
          "required": false,
          "validation": { },
          "desc": "If provided, calculate based on this value. Otherwise use the customer's billing zip code."
        },
        {
          "name": "product_type",
          "type": "string",
          "required": true,
          "validation": { "matches": ["PLAN", "DATA", "IDDCA", "ROAM", "GLOBE", "ADD_BALANCE", "LINE_CREDIT", "REPLACE_SIM"] },
          "desc": "product type"
        }
      ],

      "returns":
      [
        "common-returns.json",
        { "name": "sales_tax",    "type": "integer", "desc": "Sales tax in cents"    },
        { "name": "recovery_fee", "type": "integer", "desc": "Recovery fee in cents" }
      ]
    },


    "portal__GetIDDHistory":
    {
      "desc": "Obtain the rows in HTT_BILLING_HISTORY for a customer.",
      "parameters":
      [
        {
          "name": "start_epoch",
          "type": "epoch",
          "required": false,
          "validation": { },
          "desc": "Start Date (UNIX Epoch timestamp), required if recent is not given"
        },
        {
          "name": "end_epoch",
          "type": "epoch",
          "required": false,
          "validation": { },
          "desc": "End Date (UNIX Epoch timestamp), required if recent is not given"
        },
        {
          "name": "recent",
          "type": "integer",
          "required": false,
          "validation": { "min_value": 1, "max_value": 100 },
          "desc": "number of recent records to return, required if start_epoch and end_epoch are not given"
        }
      ],

      "returns":
      [
        "common-returns.json",
        { "name": "idd_history",  "type": "string[]",  "desc": "flattened array." }
      ]
    },


    "portal__CustomerDetail":
    {
      "desc": "Provides all the useful details on a customer based upon a customer zsession.",
      "parameters":
      [
        {
          "name": "mode",
          "type": "string",
          "required": false,
          "validation": { "matches": [ "OCS_BALANCE" , "DATA_USAGE" ] },
          "desc": "Segment out certain responses"
        }
      ],

      "returns":
      [
        "common-returns.json",

        { "name": "current_msisdn",           "type": "string",   "desc": "Phone Number" },
        { "name": "first_name",               "type": "string",   "desc": "First Name" },
        { "name": "last_name",                "type": "string",   "desc": "Last Name" },
        { "name": "email",                    "type": "string",   "desc": "Email Address" },
        { "name": "preferred_language",       "type": "string",   "desc": "Preferred Language" },
        { "name": "local_phone",              "type": "string",   "desc": "Local Phone Number" },
        { "name": "cos",                      "type": "string",   "desc": "Current plan" },
        { "name": "customer_plan_start",      "type": "epoch",    "desc": "UNIX Epoch timestamp of the start of the customers plan." },
        { "name": "plan_expires",             "type": "epoch",    "desc": "UNIX Epoch timestamp of the end of the customers plan." },
        { "name": "paid_through",             "type": "string",   "desc": "UNIX time of multi month expiration date" },
        { "name": "duration",                 "type": "string",   "desc": "number of months in the multi month plan" },
        { "name": "monthly_renewal_target",   "type": "string",   "desc": "Monthly renewal target plan" },
        { "name": "stored_value",             "type": "integer",  "desc": "Balance stored for paying plan renewals" },
        { "name": "balance",                  "type": "integer",  "desc": "Balance held for paying plan renewals and for international calling and data purchases." },
        { "name": "packaged_balance1",        "type": "integer",  "desc": "Balance held" },
        { "name": "customer_status",          "type": "string",   "desc": "Current Customer Status" },
        { "name": "customer_loginname",       "type": "string",   "desc": "Login name" },
        { "name": "customer",                 "type": "integer",  "desc": "Customer unique session identifier" },
        { "name": "auto_recharge",            "type": "boolean",  "desc": "For monthly plans, is auto recharge turned on?" },
        { "name": "address1",                 "type": "string",   "desc": "Billing address 1" },
        { "name": "address2",                 "type": "string",   "desc": "Billing address 2" },
        { "name": "city",                     "type": "string",   "desc": "Billing address city" },
        { "name": "state_region",             "type": "string",   "desc": "Billing address state" },
        { "name": "postal_code",              "type": "string",   "desc": "Billing address postal code" },
        { "name": "country",                  "type": "string",   "desc": "Billing address country" },
        { "name": "cc_name",                  "type": "string",   "desc": "Name On Credit Card" },
        { "name": "cc_address1",              "type": "string",   "desc": "Credit Card - Owner's address 1" },
        { "name": "cc_address2",              "type": "string",   "desc": "Credit Card - Owner's address 2" },
        { "name": "cc_city",                  "type": "string",   "desc": "Credit Card - Owner's address city" },
        { "name": "cc_state_region",          "type": "string",   "desc": "Credit Card - Owner's address state" },
        { "name": "cc_postal_code",           "type": "string",   "desc": "Credit Card - Owner's address postal code" },
        { "name": "cc_country",               "type": "string",   "desc": "Credit Card - Owner's address country" },
        { "name": "cc_exp_date",              "type": "string",   "desc": "Credit Card Expiration Date" },
        { "name": "cc_last_4",                "type": "integer",  "desc": "Last 4 digits of Credit Card Number." },
        { "name": "iccid",                    "type": "string",   "desc": "Customer's current ICCID" },
        { "name": "activate_request_id",      "type": "string",   "desc": "request_id response value from the customer's previous activation." },
        { "name": "porting_request_id",       "type": "string",   "desc": "request_id response value from the customer's previous porting." },
        { "name": "porting_msisdn",           "type": "string",   "desc": "Phone number we tried to port for this customer." },
        { "name": "porting_account_number",   "type": "string",   "desc": "Porting data: account number." },
        { "name": "porting_account_password", "type": "string",   "desc": "Porting data: account password." },
        { "name": "porting_account_zipcode",  "type": "string",   "desc": "Porting data: account zipcode." },
        { "name": "last_transition_name",     "type": "string",   "desc": "Name of last transition, so UI knows if they orded a sim or not." },
        { "name": "voice_minutes",            "type": "integer",  "desc": "If on the $19 plan, minutes remaining" },
        { "name": "transition_in_progress",   "type": "boolean",  "desc": "Returns true if customer has an OPEN transition."},
        { "name": "originalsimproduct",       "type": "string",   "desc": "Orange or Purple: product of the activation_iccid."},
        { "name": "4g_lte_remaining",         "type": "string",   "desc": "4G LTE remaining data."},
        { "name": "4g_lte_usage",             "type": "string",   "desc": "4G LTE data usage."},
        { "name": "3g_remaining",             "type": "string",   "desc": "3G remaining data."},
        { "name": "3g_usage",                 "type": "string",   "desc": "3G data usage."},
        { "name": "4g_lte_last_applied",      "type": "epoch",    "desc": "UNIX Epoch timestamp of the last time that data was applied."},
        { "name": "4g_lte_bolton_percent_used", "type": "integer", "desc": "Percentage of Mint Data Add On used."                       },
        { "name": "monthly_data_purchases",   "type": "integer",  "desc": "data purchases during the current cycle"},
        { "name": "bolt_ons",                 "type": "string[]", "desc": "Array of objects"},
        { "name": "zero_minutes",             "type": "integer",  "desc": "remaining Ultra Zero minutes"},
        { "name": "voice_minutes",            "type": "integer",  "desc": "remaining voice minutes"},
        { "name": "plan_cost",                "type": "integer",  "desc": "monthly plan cost without bolt ons; in cents"},
        { "name": "full_cost",                "type": "integer",  "desc": "monthly plan cost with bolt ons; in cents"},
        { "name": "tos_accepted",             "type": "boolean",  "desc": "subscriber has accepted the Terms of Service" },
        { "name": "brand",                    "type": "string",   "desc": "brand to which the customer ICCID belongs" },
        { "name": "globe_minutes",            "type": "integer",  "desc": "Globe minutes" },
        { "name": "master_agent",             "type": "integer",  "desc": "Master agent ID of customer's SIM" }
      ]
    },


    "portal__ClearCreditCard":
    {
      "desc": "Remove customer credit card info.",
      "parameters":
      [
      ],

      "returns":
      [
        "common-returns.json"
      ]
    },


    "portal__GetToken":
    {
      "desc": "get session pre-authorization token",
      "parameters":
      [
      ],

      "returns":
      [
        "common-returns.json",
        { "name": "token", "type": "string",  "desc": "UUID" }
      ]
    },


    "portal__Login":
    {
      "desc": "login subscriber and create a cookie-based session",
      "parameters":
      [
        {
          "name": "username",
          "type": "string",
          "required": false,
          "validation": { },
          "desc": "subscriber login name or MSISDN, required if token is not given"
        },
        {
          "name": "password",
          "type": "string",
          "required": false,
          "validation": { "min_strlen": 4, "max_strlen": 20 },
          "desc": "subscriber login password, required if token is not given"
        },
        {
          "name": "token",
          "type": "string",
          "required": false,
          "validation": { },
          "desc": "pre-authorization token, required if user and password are not given"
        },
        {
          "name": "error_language",
          "type": "string",
          "required": false,
          "validation": { "matches": [ "EN", "ES", "ZH" ] },
          "default": "EN",
          "desc":"The language to return errors in."
        }
      ],

      "returns":
      [
        "common-returns.json"
      ]
    },


    "portal__SendToken":
    {
      "desc": "send pre-authorization token to a subscriber via SMS in a URL",
      "parameters":
      [
        {
          "name": "url",
          "type": "string",
          "required": true,
          "validation": { "max_strlen": 100, "min_strlen": 1 },
          "desc": "base URL to send to subscriber along with token"
        },
        {
          "name": "route",
          "type": "string",
          "required": false,
          "validation": { "max_strlen": 100, "min_strlen": 1 },
          "desc": "URL appendix (aka action)"
        },
        {
          "name": "msisdn",
          "type": "string",
          "required": false,
          "validation": { "max_strlen": 10, "min_strlen": 10 },
          "desc": "subscriber MSISDN"
        },
        {
          "name": "token",
          "type": "string",
          "required": false,
          "validation": { "max_strlen": 28, "min_strlen": 28 },
          "desc": "login token"
        },
        {
          "name": "error_language",
          "type": "string",
          "required": false,
          "validation": { "matches": [ "EN", "ES", "ZH" ] },
          "default": "EN",
          "desc":"The language to return errors in."
        },
        {
          "name": "brand",
          "type": "string",
          "required": false,
          "validation": { "matches": [ "ULTRA", "UNIVISION", "MINT" ] },
          "desc": ""
        }
      ],

      "returns":
      [
        "common-returns.json"
      ]
    },


    "portal__ApplyBalanceToStoredValue":
    {
      "desc": "transfer a given amount from ACCONTS.BALANCE to HTT_CUSTOMERS_OVERLAY_ULTRA.STORED_VALUE for the purpose of monthly recharge",
      "parameters":
      [
        {
          "name": "amount",
          "type": "integer",
          "required": true,
          "validation": { "min_value": 0 , "max_value": 50000 },
          "desc": "amount in cents"
        }
      ],

      "returns":
      [
        "common-returns.json"
      ]
    },


    "portal__SetCustomerInfo":
    {
      "desc": "update subscriber personal information",
      "parameters":
      [
        {
          "name": "first_name",
          "type": "string",
          "required": false,
          "validation": { "min_strlen": 2, "stringformat": "letters_spaces_apostrophe" }
        },
        {
        "name": "last_name",
        "type": "string",
        "required": false,
        "validation": { "min_strlen": 2, "stringformat": "letters_spaces_apostrophe" }
        },
        {
          "name": "e_mail",
          "type": "string",
          "required": false,
          "validation": { "stringformat": "email" }
        },
        {
          "name": "login_password",
          "type": "string",
          "required": false,
          "validation": { "min_strlen": 6 }
        }
      ],

      "returns":
      [
        "common-returns.json"
      ]
    },


    "portal__GetCustomerPreferences":
    {
      "desc": "return subscriber's personal preferences",
      "parameters":
      [
      ],

      "returns":
      [
        "common-returns.json",
        { "name": "preferred_language",   "type": "string",   "desc": "preferred communication language" },
        { "name": "auto_recharge",        "type": "boolean",  "desc": "is monthly credit card auto renewal enabled?" },
        { "name": "marketing_sms",        "type": "boolean",  "desc": "are promotional SMS notifications enabled?" },
        { "name": "marketing_email",      "type": "boolean",  "desc": "are promotional e-mail notifications enabled?" },
        { "name": "marketing_voice",      "type": "boolean",  "desc": "are promotional phone call notifications enabled?" },
        { "name": "party_voice",          "type": "boolean",  "desc": "are 3rd party promotional phone call notifications enabled?" },
        { "name": "party_sms",            "type": "boolean",  "desc": "are 3rd party promotional SMS notifications enabled?" },
        { "name": "party_email",          "type": "boolean",  "desc": "are 3rd party promotional e-mail notifications enabled?" }
      ]
    },


    "portal__SetCustomerPreferences":
    {
      "desc": "update subscriber's personal preferences",
      "parameters":
      [
        {
          "name": "preferred_language",
          "type": "string",
          "required": false,
          "validation": { "matches": [ "EN", "ES", "ZH" ] },
          "desc": "preferred communication language"
        },
        {
          "name": "auto_recharge",
          "type": "boolean",
          "required": false,
          "validation": { },
          "desc": "enables or disables monthly credit card auto renewal"
        },
        {
          "name": "marketing_sms",
          "type": "boolean",
          "required": false,
          "validation": { },
          "desc": "enables or disables SMS promotional notifications"
        },
        {
          "name": "marketing_email",
          "type": "boolean",
          "required": false,
          "validation": { },
          "desc": "enables or disables e-mail promotional notifications"
        },
        {
          "name": "marketing_voice",
          "type": "boolean",
          "required": false,
          "validation": { },
          "desc": "enables or disables phone call promotional notifications"
        },
        {
          "name": "party_sms",
          "type": "boolean",
          "required": false,
          "validation": { },
          "desc": "enables or disables 3rd parting marketing"
        },
        {
          "name": "party_email",
          "type": "boolean",
          "required": false,
          "validation": { },
          "desc": "enables or disables 3rd parting marketing"
        },
        {
          "name": "party_voice",
          "type": "boolean",
          "required": false,
          "validation": { },
          "desc": "enables or disables 3rd parting marketing"
        },
        {
          "name": "tag",
          "type": "string",
          "required": false,
          "validation": { "matches": [ "CUSTOMER_PORTAL" ] },
          "desc": ""
        }
      ],

      "returns":
      [
        "common-returns.json"
      ]
    },


    "portal__GetTransactionHistory":
    {
      "desc": "returns subscriber's transaction history for a given time period",
      "parameters":
      [
        {
          "name": "start_epoch",
          "type": "epoch",
          "required": false,
          "validation": { },
          "desc": "start UNIX Epoch timestamp"
        },
        {
          "name": "end_epoch",
          "type": "epoch",
          "required": false,
          "validation": { },
          "desc": "end UNIX Epoch timestamp"
        },
        {
          "name": "recent",
          "type": "integer",
          "required": false,
          "validation": { "min_value": 1, "max_value": 100 },
          "desc": "number of recent records to return, required if start_epoch and end_epoch are not given"
        }
      ],

      "returns":
      [
        "common-returns.json",
        { "name": "transaction_history", "type": "string[]",  "desc": "array containing the customer transaction history" }
      ]
    },

    "portal__ChangePlan":
    {
      "desc": "Change subscriber plan future or immediately",
      "parameters":
      [
        {
          "name": "targetPlan",
          "type": "string",
          "required": true,
          "validation": { "active_plan": 1 },
          "desc": "Plan to select"
        },
        {
          "name": "immediate",
          "type": "boolean",
          "required": false,
          "default": "1",
          "validation": { },
          "desc": "if 1 changePlanImmediate else changePlanFuture"
        }
      ],

      "returns":
      [
        "common-returns.json"
      ]
    },

    "portal__ReplaceSIMCard":
    {
      "desc": "Replaces SIM card for another.",
      "parameters":
      [
        {
          "name": "old_ICCID",
          "type": "string",
          "required": true,
          "validation": { "min_strlen": 18, "max_strlen": 18, "MVNE": 2 },
          "desc": "Old ICCID (18 digits)."
        },
        {
          "name": "new_ICCID",
          "type": "string",
          "required": true,
          "validation": { "min_strlen": 19, "max_strlen": 19, "MVNE": 2 },
          "desc": "New ICCID (19 digits)."
        }
      ],

      "returns":
      [
        "common-returns.json"
      ]
    },

    "portal__SendPassword":
    {
      "desc": "Generates a password for the customer_id associated with the MSISDN and SMS's it to the customer. This is a temp password like the LoginAs, but it should work on login.php.",
      "parameters":
      [
        {
          "name": "msisdn",
          "type": "string",
          "required": true,
          "validation": { },
          "desc": "customer MSISDN"
        },
        {
          "name": "preferred_language",
          "type": "string",
          "required": false,
          "validation": { "matches": [ "EN", "ES", "ZH" ] },
          "default": "EN",
          "desc": "preferred language"
        }
      ],

      "returns":
      [
          "common-returns.json"
      ]
    },

    "portal__UnsubscribeFromEmail":
    {
      "desc": "Unsubscribe customer from marketing emails",
      "parameters":
      [
        {
          "name": "customer_id",
          "type": "integer",
          "required": false,
          "validation": { },
          "desc": "Customer identifier"
        },
        {
          "name": "msisdn",
          "type": "string",
          "required": true,
          "validation": { },
          "desc": "customer MSISDN"
        }
      ],

      "returns":
      [
        "common-returns.json"
      ]
    },

    "portal__LookupOnlineOrderByActCode":
    {
      "desc": "Get Online Order from actcode",
      "parameters":
      [
        {
          "name": "actcode",
          "type": "string",
          "required": true,
          "validation": { },
          "desc": "actcode"
        }
      ],

      "returns":
      [
        "common-returns.json",
        { "name": "first_name",  "type": "string",   "desc": "first name on order" },
        { "name": "last_name",   "type": "string",   "desc": "last name on order" },
        { "name": "email",       "type": "string",   "desc": "email on order" },
        { "name": "bin",         "type": "string",   "desc": "bin on order" },
        { "name": "last_four",   "type": "string",   "desc": "last four on order" },
        { "name": "auto_enroll", "type": "boolean",  "desc": "auto enroll on order" }
      ]
    },

    "portal__ClaimCreditCardByActCode":
    {
      "desc": "Customer credit card claim by actcode with possibility for auto-renewal enrollment",
      "parameters":
      [
        {
          "name": "customer_id",
          "type": "integer",
          "required": false,
          "validation": { },
          "desc": "Unique customer DB identifier"
        },
        {
          "name": "actcode",
          "type": "integer",
          "required": true,
          "validation": { "min_strlen": 11 , "max_strlen": 11 , "actcode": "valid_actcode" },
          "desc": "Customer identifier"
        },
        {
          "name": "postal_code",
          "type": "string",
          "required": true,
          "validation": { "min_strlen": 5, "max_strlen": 5 , "stringformat": "numeric" },
          "desc": "customer MSISDN"
        },
        {
          "name": "auto_enroll",
          "type": "boolean",
          "required": true,
          "validation": {},
          "desc": "Enroll Auto Recharge"
        }
      ],

      "returns":
      [
        "common-returns.json"
      ]
    },

    "portal__GetPlans":
    {
      "desc": "Get brand plan information.",
      "parameters":
      [
        {
          "name": "brand",
          "type": "string",
          "required": true,
          "validation": { "matches": [ "ULTRA", "UNIVISION", "MINT" ] },
          "desc": ""
        },
        {
          "name": "plan_id",
          "type": "string",
          "required": false,
          "validation": {},
          "desc": "The id of a plan"
        }
      ],

      "returns":
      [
        "common-returns.json",
        { "name": "plans", "type": "string[]",  "desc": "list of plans" }
      ]
    },

    "portal__UpdateThrottleSpeed":
    {
      "desc": "Update Throttle Speed.",
      "parameters":
      [
        {
          "name": "target_speed",
          "type": "string",
          "required": true,
          "validation": {"matches": ["full", "1536", "1024"]},
          "desc": "The requested throttle speed"
        }
      ],

      "returns":
      [
        "common-returns.json"
      ]
    },

    "portal__UpdateWifiCalling":
    {
      "desc": "Update Wifi Calling setting.",
      "parameters":
      [
        {
          "name": "address1",
          "type": "string",
          "required": false,
          "validation": { "min_strlen": 3, "max_strlen": 80, "stringformat": "alphanumeric_spaces_punctuation_octothorpe" },
          "desc": "Customer billing address"
        },
        {
          "name": "address2",
          "type": "string",
          "required": false,
          "validation": { "max_strlen": 40, "stringformat": "alphanumeric_spaces_punctuation_octothorpe" },
          "desc": "Customer billing address part 2"
        },
        {
          "name": "city",
          "type": "string",
          "required": false,
          "validation": { "min_strlen": 2, "max_strlen": 25, "stringformat": "alphanumeric_punctuation" },
          "desc": "Customer billing city"
        },
        {
          "name": "state",
          "type": "string",
          "required": false,
          "validation": { "min_strlen": 2, "max_strlen": 3, "stringformat": "alphanumeric" },
          "desc": "Customer state or region"
        },
        {
          "name": "zipcode",
          "type": "string",
          "required": false,
          "validation": { "min_strlen": 2, "max_strlen": 20, "stringformat": "numeric" },
          "desc": "Customer billing postal code"
        },
        {
          "name": "enable_wifi_calling",
          "type": "boolean",
          "required": true,
          "default": "0",
          "validation": { },
          "desc": ""
        }
      ],

      "returns":
      [
        "common-returns.json"
      ]
    },

    "portal__CheckBalances":
    {
      "desc": "Returns balances from CheckBalance.",
      "parameters":
      [
      ],

      "returns":
      [
        "common-returns.json",
        { "name": "balances", "type": "string[]", "desc": "balances from CheckBalance." }
      ]
    },

    "portal__ValidateGBASim":
    {
      "desc": "Returns whether the customers SIM is a GBA.",
      "parameters":
      [
      ],

      "returns":
      [
        "common-returns.json",
        { "name": "valid", "type": "boolean", "desc": "Whether SIM is valid GBA." },
        { "name": "eligible", "type": "boolean", "desc": "Eligible to get a replacement sim." }
      ]
    },

    "portal__GetE911SubscriberAddress":
    {
      "desc": "Retrieve customer E911 Subscriber Address",
      "parameters":
      [
      ],

      "returns":
      [
        "common-returns.json",
        { "name": "address", "type": "string", "desc": "E911 address" }
      ]
    },

    "portal__RemoveFromFamily":
    {
      "desc": "Remove customer from family",
      "parameters":
      [
        {
          "name": "customer_id",
          "type": "integer",
          "required": false,
          "validation": { },
          "desc": "Customer identifier"
        }
      ],
      "returns":
      [
        "common-returns.json"
      ]
    }
  }
}
