{
  "meta": { "version": "2" },
  "security_meta": { "RBAC": "portal group" },
  "brands": ["ULTRA"],
  "description": "API partner for Ultra APIs allowed under the Ultra brand",

  "commands":
  {
    "portal-commands.json": "include"
  }
}
