{
  "meta": { "version": "2" },

  "security_meta": { "RBAC": "promotional group" },

  "commands":
  {
    "promotional__ActivatePromotionalCustomer":
    {
      "desc": "Kicksoff the state transition from Promo Used to Active.",
      "parameters":
      [
        {
          "name":       "customer_id",
          "type":       "integer",
          "required":   true,
          "validation": { },
          "desc":       "Unique customer DB identifier."
        }
      ],

      "returns":
      [
        "common-returns.json"
      ]
    },

    "promotional__PreparePromoCustomers":
    {
      "desc": "Prepares promotional SIMs.",
      "parameters":
      [
        {
          "name":       "promo_id",
          "type":       "integer",
          "required":   true,
          "validation": { "promo_status": ["VIRGIN","PREPARATION"] },
          "desc":       "Promotional ID to use."
        },
        {
          "name":       "prepare_count",
          "type":       "integer",
          "required":   false,
          "default":    15,
          "validation": { "min_value": 1 , "max_value": 100 },
          "desc":       "Max promo SIMs to prepare. Default is 15 ; maximum is 100."
        }
      ],

      "returns":
      [
        "common-returns.json"
      ]
    },

    "promotional__ListPromotionsForPreparation":
    {
      "desc": "Lists the state of current promotions with regards to preparation.",
      "parameters":
      [
      ],

      "returns":
      [
        "common-returns.json",

        { "name": "promotions",  "type": "string[]",  "desc": "A list of promotion JSON objects." }
      ]
    }
  }
}

