[
     {
         "name": "security_token",
         "type": "string",
         "required": true,
         "validation": { },
         "desc": "Ultra Login Session Identifier. Necessary to assign Role, Permissions and Data Visibility."
     }
]
