{
  "meta": { "version": "2", "TODO": "" },

  "security_meta": { "RBAC": "settings group" },

  "commands":
  {
      "settings__GetAllSettings":
      {
          "desc": "Retrieve All Deep switches.",
          "parameters":
          [
              {
                  "name": "username",
                  "type": "string",
                  "required": true,
                  "validation": { },
                  "desc": "User name."
              }
          ],

          "returns":
          [
              "common-returns.json",

              { "name": "setting_fields",       "type": "string[]",   "desc": "Deep switches names"          },
              { "name": "setting_values",       "type": "string[]",   "desc": "Deep switches values"         },
              { "name": "setting_default",      "type": "string[]",   "desc": "Deep switches default values" },
              { "name": "setting_descriptions", "type": "string[]",   "desc": "Deep switches descriptions"   }
          ]
      },

      "settings__TriggerSetting":
      {
          "desc": "Deep switches getter/setter.",
          "parameters":
          [
              {
                  "name": "username",
                  "type": "string",
                  "required": true,
                  "validation": { },
                  "desc": "User name."
              },
              {
                  "name": "setting_field",
                  "type": "string",
                  "required": true,
                  "validation": { },
                  "desc": "Deep switch field name."
              },
              {
                  "name": "setting_value",
                  "type": "string",
                  "required": false,
                  "validation": { },
                  "desc": "Deep switch field value."
              }
          ],

          "returns":
          [
              "common-returns.json",

              { "name": "previous_value",    "type": "string",   "desc": "Deep switch previous value"    },
              { "name": "new_value",         "type": "string",   "desc": "Deep switch new value"         },
              { "name": "ttl_seconds",       "type": "integer",  "desc": "TTL in seconds"                }
          ]
      }
  }
}
