{
  "meta": { "version": "2" },
  "security_meta": { "RBAC": "testbrandultra group" },
  "brands": ["ULTRA"],
  "description": "Test APIs for brand ULTRA",

  "commands":
  {
    "test-brand-commands.json": "include"
  }
}
